backend/rv_fpu/tb_rv_fpu.vcd
$date
	Fri Jun  5 19:21:00 2026
$end
$version
	Icarus Verilog
$end
$timescale
	1ps
$end
$scope module tb_rv_fpu $end
$var wire 1 ! result_valid $end
$var wire 1 " int_result_valid $end
$var wire 64 # int_result [63:0] $end
$var wire 1 $ fpu_done $end
$var wire 64 % fp_result [63:0] $end
$var wire 5 & fflags [4:0] $end
$var reg 1 ' clk $end
$var reg 2 ( fmt [1:0] $end
$var reg 5 ) fop [4:0] $end
$var reg 64 * fp_src1 [63:0] $end
$var reg 64 + fp_src2 [63:0] $end
$var reg 64 , fp_src3 [63:0] $end
$var reg 3 - frm_csr [2:0] $end
$var reg 64 . int_src [63:0] $end
$var reg 3 / rm [2:0] $end
$var reg 1 0 rst_n $end
$var reg 1 1 valid_in $end
$scope module uut $end
$var wire 1 ' clk $end
$var wire 1 2 dp_a_larger $end
$var wire 1 3 dp_eq $end
$var wire 1 4 dp_inf1 $end
$var wire 1 5 dp_inf2 $end
$var wire 1 6 dp_le $end
$var wire 1 7 dp_lt $end
$var wire 1 8 dp_nan1 $end
$var wire 1 9 dp_nan2 $end
$var wire 1 : dp_zero1 $end
$var wire 1 ; dp_zero2 $end
$var wire 2 < fmt [1:0] $end
$var wire 5 = fop [4:0] $end
$var wire 64 > fp_src1 [63:0] $end
$var wire 64 ? fp_src2 [63:0] $end
$var wire 64 @ fp_src3 [63:0] $end
$var wire 3 A frm_csr [2:0] $end
$var wire 64 B int_src [63:0] $end
$var wire 3 C rm [2:0] $end
$var wire 1 0 rst_n $end
$var wire 1 D sp_a_larger $end
$var wire 1 E sp_denorm1 $end
$var wire 1 F sp_denorm2 $end
$var wire 1 G sp_eq $end
$var wire 1 H sp_inf1 $end
$var wire 1 I sp_inf2 $end
$var wire 1 J sp_le $end
$var wire 1 K sp_lt $end
$var wire 1 L sp_nan1 $end
$var wire 1 M sp_nan2 $end
$var wire 1 N sp_zero1 $end
$var wire 1 O sp_zero2 $end
$var wire 1 1 valid_in $end
$var wire 25 P sp_sig_small [24:0] $end
$var wire 25 Q sp_sig_large [24:0] $end
$var wire 25 R sp_sig_aligned [24:0] $end
$var wire 24 S sp_sig2_full [23:0] $end
$var wire 24 T sp_sig1_full [23:0] $end
$var wire 1 U sp_sgn_small $end
$var wire 1 V sp_sgn_large $end
$var wire 1 W sp_sgn3 $end
$var wire 1 X sp_sgn2 $end
$var wire 1 Y sp_sgn1 $end
$var wire 1 Z sp_round_up $end
$var wire 1 [ sp_round $end
$var wire 32 \ sp_packed [31:0] $end
$var wire 48 ] sp_mul_result [47:0] $end
$var wire 1 ^ sp_min $end
$var wire 23 _ sp_mantissa_final [22:0] $end
$var wire 23 ` sp_man3 [22:0] $end
$var wire 23 a sp_man2 [22:0] $end
$var wire 23 b sp_man1 [22:0] $end
$var wire 1 c sp_guard $end
$var wire 8 d sp_exp_large [7:0] $end
$var wire 8 e sp_exp_final [7:0] $end
$var wire 8 f sp_exp_diff [7:0] $end
$var wire 8 g sp_exp3 [7:0] $end
$var wire 8 h sp_exp2 [7:0] $end
$var wire 8 i sp_exp1 [7:0] $end
$var wire 1 j sp_eff_sub $end
$var wire 26 k sp_add_result [25:0] $end
$var wire 1 l fcvt_sgn $end
$var wire 64 m fcvt_abs [63:0] $end
$var wire 3 n eff_rm [2:0] $end
$var wire 54 o dp_sig_small [53:0] $end
$var wire 54 p dp_sig_large [53:0] $end
$var wire 54 q dp_sig_aligned [53:0] $end
$var wire 53 r dp_sig2_full [52:0] $end
$var wire 53 s dp_sig1_full [52:0] $end
$var wire 1 t dp_sgn_small $end
$var wire 1 u dp_sgn_large $end
$var wire 1 v dp_sgn3 $end
$var wire 1 w dp_sgn2 $end
$var wire 1 x dp_sgn1 $end
$var wire 1 y dp_round_up $end
$var wire 1 z dp_round $end
$var wire 64 { dp_packed [63:0] $end
$var wire 106 | dp_mul_result [105:0] $end
$var wire 1 } dp_min $end
$var wire 52 ~ dp_mantissa_final [51:0] $end
$var wire 52 !" dp_man3 [51:0] $end
$var wire 52 "" dp_man2 [51:0] $end
$var wire 52 #" dp_man1 [51:0] $end
$var wire 1 $" dp_guard $end
$var wire 11 %" dp_exp_large [10:0] $end
$var wire 11 &" dp_exp_final [10:0] $end
$var wire 11 '" dp_exp_diff [10:0] $end
$var wire 11 (" dp_exp3 [10:0] $end
$var wire 11 )" dp_exp2 [10:0] $end
$var wire 11 *" dp_exp1 [10:0] $end
$var wire 1 +" dp_eff_sub $end
$var wire 55 ," dp_add_result [54:0] $end
$var parameter 64 -" DP_QNAN $end
$var parameter 32 ." SP_QNAN $end
$var reg 5 /" fflags [4:0] $end
$var reg 64 0" fp_result [63:0] $end
$var reg 1 $ fpu_done $end
$var reg 64 1" int_result [63:0] $end
$var reg 1 " int_result_valid $end
$var reg 1 ! result_valid $end
$var reg 11 2" s1_dp_exp_a [10:0] $end
$var reg 11 3" s1_dp_exp_b [10:0] $end
$var reg 11 4" s1_dp_exp_diff [10:0] $end
$var reg 1 5" s1_dp_sgn_a $end
$var reg 1 6" s1_dp_sgn_b $end
$var reg 54 7" s1_dp_sig_a [53:0] $end
$var reg 54 8" s1_dp_sig_b [53:0] $end
$var reg 8 9" s1_exp_a [7:0] $end
$var reg 8 :" s1_exp_b [7:0] $end
$var reg 8 ;" s1_exp_diff [7:0] $end
$var reg 2 <" s1_fmt [1:0] $end
$var reg 5 =" s1_fop [4:0] $end
$var reg 64 >" s1_int_src [63:0] $end
$var reg 3 ?" s1_rm [2:0] $end
$var reg 1 @" s1_sgn_a $end
$var reg 1 A" s1_sgn_b $end
$var reg 1 B" s1_sgn_c $end
$var reg 25 C" s1_sig_a [24:0] $end
$var reg 25 D" s1_sig_b [24:0] $end
$var reg 1 E" s1_valid $end
$var reg 11 F" s2_dp_result_exp [10:0] $end
$var reg 106 G" s2_dp_result_sig [105:0] $end
$var reg 5 H" s2_fflags [4:0] $end
$var reg 2 I" s2_fmt [1:0] $end
$var reg 5 J" s2_fop [4:0] $end
$var reg 64 K" s2_int_src [63:0] $end
$var reg 1 L" s2_is_inf $end
$var reg 1 M" s2_is_nan $end
$var reg 1 N" s2_is_zero $end
$var reg 8 O" s2_result_exp [7:0] $end
$var reg 1 P" s2_result_sgn $end
$var reg 50 Q" s2_result_sig [49:0] $end
$var reg 3 R" s2_rm [2:0] $end
$var reg 64 S" s2_special_result [63:0] $end
$var reg 1 T" s2_special_valid $end
$var reg 1 U" s2_valid $end
$var reg 12 V" s3_dp_result_exp [11:0] $end
$var reg 56 W" s3_dp_result_sig [55:0] $end
$var reg 5 X" s3_fflags [4:0] $end
$var reg 2 Y" s3_fmt [1:0] $end
$var reg 5 Z" s3_fop [4:0] $end
$var reg 1 [" s3_is_inf $end
$var reg 1 \" s3_is_nan $end
$var reg 1 ]" s3_is_zero $end
$var reg 9 ^" s3_result_exp [8:0] $end
$var reg 1 _" s3_result_sgn $end
$var reg 26 `" s3_result_sig [25:0] $end
$var reg 3 a" s3_rm [2:0] $end
$var reg 64 b" s3_special_result [63:0] $end
$var reg 1 c" s3_special_valid $end
$var reg 1 d" s3_valid $end
$var reg 6 e" sp_lzc [5:0] $end
$var integer 32 f" lzc_i [31:0] $end
$upscope $end
$upscope $end
$enddefinitions $end
$comment Show the parameter values. $end
$dumpall
b1111111110000000000000000000000 ."
b111111111111000000000000000000000000000000000000000000000000000 -"
$end
#0
$dumpvars
bx f"
bx e"
xd"
xc"
bx b"
bx a"
bx `"
x_"
bx ^"
x]"
x\"
x["
bx Z"
bx Y"
bx X"
bx W"
bx V"
xU"
xT"
bx S"
bx R"
bx Q"
xP"
bx O"
xN"
xM"
xL"
bx K"
bx J"
bx I"
bx H"
bx G"
bx F"
xE"
bx D"
bx C"
xB"
xA"
x@"
bx ?"
bx >"
bx ="
bx <"
bx ;"
bx :"
bx 9"
bx 8"
bx 7"
x6"
x5"
bx 4"
bx 3"
bx 2"
bx 1"
bx 0"
bx /"
bx ,"
x+"
b0 *"
b0 )"
b0 ("
b0 '"
bx &"
bx %"
x$"
b0 #"
b0 ""
b0 !"
bx ~
0}
bx |
bx {
xz
xy
0x
0w
0v
xu
xt
b0 s
b0 r
bx q
bx p
bx o
b0 n
b0 m
0l
bx k
xj
b0 i
b0 h
b0 g
b0 f
bx e
bx d
xc
b0 b
b0 a
b0 `
bx _
0^
bx ]
bx \
x[
xZ
0Y
0X
0W
xV
xU
b100000000000000000000000 T
b100000000000000000000000 S
bx R
bx Q
bx P
1O
1N
0M
0L
0K
1J
0I
0H
1G
0F
0E
xD
b0 C
b0 B
b0 A
b0 @
b0 ?
b0 >
b0 =
b0 <
1;
1:
09
08
07
16
05
04
13
x2
01
x0
b0 /
b0 .
b0 -
b0 ,
b0 +
b0 *
b0 )
b0 (
0'
bx &
bx %
x$
bx #
x"
x!
$end
#3600
0+"
0j
b0 ,"
b0 |
b10000000000000000000000000 k
b10000000000000000000000000000000000000000000000 ]
b0 q
b0 p
b0 o
12
b0 %"
0u
0t
b1000000000000000000000000 R
b1000000000000000000000000 Q
b1000000000000000000000000 P
1D
b0 d
0V
0U
b0 4"
b0 8"
b0 7"
b0 3"
b0 2"
06"
05"
b0 ;"
b1000000000000000000000000 D"
b1000000000000000000000000 C"
b0 :"
b0 9"
0B"
0A"
0@"
b0 >"
b0 ?"
b0 <"
b0 ="
0E"
b0xxxxxxxxxxxxxxxxxxxxxxxxxxxxxxxxxxxxxxxxxxxxxxxxxxxxxx G"
b0 S"
b0 H"
0T"
0N"
0L"
0M"
b0 #
b0 1"
1'
#7200
0'
#10000
0"
0$
b0 &
b0 /"
0!
b0 %
b0 0"
0d"
0U"
00
#10800
1'
#14400
0'
#18000
1'
#21600
0'
#25200
1'
#28800
0'
#32400
1'
#36000
0'
#39600
1'
#43200
0'
#46800
1'
#50400
0'
#54000
1'
#57600
0'
#61200
1'
#64800
0'
#68400
1'
#72000
0'
#75600
1'
#79200
0'
#82800
1'
#86400
0'
#90000
1'
#93600
0'
#97200
1'
#100800
0'
#104400
1'
#108000
0'
#110000
10
#111600
b10111 f"
b1 e"
b10000000000000000000000000000000000000000000000000 Q"
b0 O"
0P"
b0 K"
b0 R"
b0 I"
b0 J"
b0xxxx W"
b0xxxxxxxxxxx V"
b0 X"
b0 b"
0c"
0]"
0["
0\"
bx &
bx /"
1'
#115200
0'
#118800
b0 _
0Z
0c
0[
b11111111 e
b0 &
b0 /"
b0 `"
b111111111 ^"
b1111111100000000000000000000000 \
b0xxxxxxxxxxxxxxxxxxxxxxxxxxxxxxxxxxxxxxxxxxxxxxxxxxxxxxxxxxxxxxx {
0_"
b0 a"
b0 Y"
b0 Z"
1'
#122400
0'
#126000
1'
#129600
0'
#133200
1'
#136800
0'
#140000
1K
1^
0G
0O
b110111111001100110001101 S
0;
b1000110110111111001100110001101 r
17
1}
b10000000 f
0N
b101110010111101100001101 T
0:
b110101110010111101100001101 s
03
1l
b1110110110010001010110111101110 m
1W
b1100101 g
b10000101000010001100101 `
1v
b11111111111 ("
b1111111111111111111110110010110000101000010001100101 !"
b10001101 h
b10111111001100110001101 a
b1000110110111111001100110001101 ""
b1101 i
b1110010111101100001101 b
b110101110010111101100001101 #"
b1 n
b1 -
b1 A
b1111111111111111111111111111111110001001001101110101001000010010 .
b1111111111111111111111111111111110001001001101110101001000010010 B
b1111111111111111111111111111111110110010110000101000010001100101 ,
b1111111111111111111111111111111110110010110000101000010001100101 @
b1000110110111111001100110001101 +
b1000110110111111001100110001101 ?
b110101110010111101100001101 *
b110101110010111101100001101 >
11
b1 /
b1 C
b1 (
b1 <
b100 )
b100 =
#140400
02
b111011100100101110100000001001101000001101000101100101001 |
b10011011001100100010100100110100 ,"
b1101111110011001100011011 k
b101000100000000101110001000001101000101100101001 ]
b1101011100101111011000011010 q
b1101011100101111011000011010 o
b10001101101111110011001100011010 p
b1 R
b1011100101111011000011010 P
b1101111110011001100011010 Q
0D
b10001101 d
b10001101101111110011001100011010 8"
b1101011100101111011000011010 7"
b10000000 ;"
b1101111110011001100011010 D"
b1011100101111011000011010 C"
b10001101 :"
b1101 9"
1B"
b1111111111111111111111111111111110001001001101110101001000010010 >"
b1 ?"
b1 <"
b100 ="
1E"
1'
#144000
0'
#147600
b1101011100101111011000011010 G"
b0 F"
b1111111111111111111111111111111110001001001101110101001000010010 K"
b1 R"
b1 I"
b100 J"
1U"
1'
#150000
0^
b11101000010000111101100111011 m
b111111011110100111111001 S
b1111100111111011110100111111001 r
b1101101 f
b101011011111011110001100 T
b1000110001011011111011110001100 s
0}
b11000110 g
b1101110010010011000110 `
b1111111111111111111111100011001101110010010011000110 !"
b11111001 h
b11111011110100111111001 a
b1111100111111011110100111111001 ""
b10001100 i
b1011011111011110001100 b
b1000110001011011111011110001100 #"
b101 n
b10 -
b10 A
b1111111111111111111111111111111111100010111101111000010011000101 .
b1111111111111111111111111111111111100010111101111000010011000101 B
b1111111111111111111111111111111111100011001101110010010011000110 ,
b1111111111111111111111111111111111100011001101110010010011000110 @
b1111100111111011110100111111001 +
b1111100111111011110100111111001 ?
b1000110001011011111011110001100 *
b1000110001011011111011110001100 >
b101 /
b101 C
b10 (
b10 <
b1101 )
b1101 =
#151200
0'
#154800
b0 ~
0y
b110000110010101111100001100001010 ,"
b10001001000011110111110111100110001110011000000011001100101100 |
b1111110111101001111110011 k
b101011001000110010100100111000000011001100101100 ]
b11111001111110111101001111110010 p
b10001100010110111110111100011000 q
b10001100010110111110111100011000 o
b1111110111101001111110010 Q
b1010110111110111100011000 P
b11111001 d
0$"
0z
b0 {
b0 &"
b11111001111110111101001111110010 8"
b10001100010110111110111100011000 7"
b1101101 ;"
b1111110111101001111110010 D"
b1010110111110111100011000 C"
b11111001 :"
b10001100 9"
b1111111111111111111111111111111111100010111101111000010011000101 >"
b101 ?"
b10 <"
b1101 ="
b0 W"
b0 V"
b1 a"
b1 Y"
b100 Z"
1d"
1'
#158400
0'
#160000
0J
0K
06
b11101001101011011000100111011 m
b111101101001011011001110 S
19
b11111111111 '"
b11111111111111111111111100111011101101001011011001110 r
07
b100100 f
b101100000110100111110010 T
b1111001001100000110100111110010 s
b11101000 g
b111101011101000 `
b1111111111111111111111110100000000000111101011101000 !"
1X
b11001110 h
b11101101001011011001110 a
1w
b11111111111 )"
b1111111111111111111111100111011101101001011011001110 ""
b11110010 i
b1100000110100111110010 b
b1111001001100000110100111110010 #"
b10 n
b100 -
b100 A
b1111111111111111111111111111111111100010110010100100111011000101 .
b1111111111111111111111111111111111100010110010100100111011000101 B
b1111111111111111111111111111111111110100000000000111101011101000 ,
b1111111111111111111111111111111111110100000000000111101011101000 @
b1111111111111111111111111111111111100111011101101001011011001110 +
b1111111111111111111111111111111111100111011101101001011011001110 ?
b1111001001100000110100111110010 *
b1111001001100000110100111110010 >
b10 /
b10 C
b11 (
b11 <
b101 )
b101 =
#162000
1+"
1j
b111111111111111111111111001110111011010010110110011100 ,"
b111100100110000011010011001010100010011010010101110000010110100101010000110010111100 |
b1011000001101001111100011 k
b101010011110110110111010100101010000110010111100 ]
1U
b111111111111111111111111001110111011010010110110011100 p
b0 q
b11110010011000001101001111100100 o
b11111111111 %"
1u
b1011000001101001111100100 Q
b1111011010010110110011100 P
1D
b11110010 d
0V
1"
1!
1$
b10000 H"
b111111111111000000000000000000000000000000000000000000000000000 S"
1T"
1M"
b1111111111111111111111111111111111100010111101111000010011000101 K"
b101 R"
b10 I"
b1101 J"
b11111111111 4"
b111111111111111111111111001110111011010010110110011100 8"
b11110010011000001101001111100100 7"
b11111111111 3"
16"
b100100 ;"
b1111011010010110110011100 D"
b1011000001101001111100100 C"
b11001110 :"
b11110010 9"
1A"
b1111111111111111111111111111111111100010110010100100111011000101 >"
b10 ?"
b11 <"
b101 ="
1'
#165600
0'
#169200
b111111111111000000000000000000000000000000000000000000000000000 S"
b10000 H"
1T"
1M"
b1111111111111111111111111111111111100010110010100100111011000101 K"
b10 R"
b11 I"
b101 J"
b10000 X"
b111111111111000000000000000000000000000000000000000000000000000 b"
1c"
1\"
b101 a"
b10 Y"
b1101 Z"
1'
#170000
b1010101011110000100010110101010 m
b101110110010001010000000 S
b11111111111111111111111000000001110110010001010000000 r
b1110110 f
b111100111000011100001010 T
b101011100111000011100001010 s
0l
0W
b100000 g
b11001000010000100100000 `
0v
b0 ("
b10000011001000010000100100000 !"
b10000000 h
b1110110010001010000000 a
b1111111111111111111111000000001110110010001010000000 ""
b1010 i
b11100111000011100001010 b
b101011100111000011100001010 #"
b101 n
b101 -
b101 A
b1010101011110000100010110101010 .
b1010101011110000100010110101010 B
b10000011001000010000100100000 ,
b10000011001000010000100100000 @
b1111111111111111111111111111111111000000001110110010001010000000 +
b1111111111111111111111111111111111000000001110110010001010000000 ?
b101011100111000011100001010 *
b101011100111000011100001010 >
b101 /
b101 C
b1 (
b1 <
b11101 )
b11101 =
#172800
0'
#176400
b111111111111111111111110000000011101100100010100000000 ,"
b10101110011100001101111111100100011000001001100110110001000000001101100100000000 |
b1011101100100010011111111 k
b101100100000010001110110000000001101100100000000 ]
1V
0U
b111111111111111111111110000000011101100100010100000000 p
b1010111001110000111000010100 o
b1111001110000111000010100 P
b1011101100100010100000000 Q
0D
b10000000 d
b111111111111000000000000000000000000000000000000000000000000000 %
b111111111111000000000000000000000000000000000000000000000000000 0"
b10000 &
b10000 /"
b10 a"
b11 Y"
b101 Z"
b111111111111000000000000000000000000000000000000000000000000000 S"
b10000 H"
1T"
1M"
b111111111111111111111110000000011101100100010100000000 8"
b1010111001110000111000010100 7"
b1110110 ;"
b1011101100100010100000000 D"
b1111001110000111000010100 C"
b10000000 :"
b1010 9"
0B"
b1010101011110000100010110101010 >"
b101 ?"
b1 <"
b11101 ="
1'
#180000
1^
b101001100010101011010101 S
b11111111111111111111111101010101001100010101011010101 r
1}
b1101010 f
b100111111101110101101011 T
b110101100111111101110101101011 s
1l
b101000101010011100000101010010 m
1W
b10 g
b101110100101000000010 `
1v
b11111111111 ("
b1111111111111111111110000001000101110100101000000010 !"
b11010101 h
b1001100010101011010101 a
b1111111111111111111111101010101001100010101011010101 ""
b1101011 i
b111111101110101101011 b
b110101100111111101110101101011 #"
0'
b1111111111111111111111111111111111010111010101100011111010101110 .
b1111111111111111111111111111111111010111010101100011111010101110 B
b1111111111111111111111111111111110000001000101110100101000000010 ,
b1111111111111111111111111111111110000001000101110100101000000010 @
b1111111111111111111111111111111111101010101001100010101011010101 +
b1111111111111111111111111111111111101010101001100010101011010101 ?
b110101100111111101110101101011 *
b110101100111111101110101101011 >
b11 (
b11 <
b10110 )
b10110 =
#183600
b111111111111111111111111010101010011000101010110101010 ,"
b11010110011111110111010100011100111000100011001101100111001101110001100100000000111 |
b1010011000101010110101001 k
b11001111100010001010010101110001100100000000111 ]
b111111111111111111111111010101010011000101010110101010 p
b1101011001111111011101011010110 o
b1010011000101010110101010 Q
b1001111111011101011010110 P
b11010101 d
b111111111111111111111111010101010011000101010110101010 8"
b1101011001111111011101011010110 7"
b1101010 ;"
b1010011000101010110101010 D"
b1001111111011101011010110 C"
b11010101 :"
b1101011 9"
1B"
b1111111111111111111111111111111111010111010101100011111010101110 >"
b11 <"
b10110 ="
b111111111111000000000000000000000000000000000000000000000000000 S"
b10000 H"
1T"
1M"
b1010101011110000100010110101010 K"
b101 R"
b1 I"
b11101 J"
1'
#187200
0'
#190000
1J
0^
1K
b100000110001001011001101000001 m
b111010001011110111110010 S
09
b1111001011010001011110111110010 r
0}
b10110110 f
b101100010100110000111100 T
18
b11111111111111111111110011110001100010100110000111100 s
0l
0W
b10001010 g
b1011100110000110001010 `
0v
b0 ("
b1000101001011100110000110001010 !"
0X
b11110010 h
b11010001011110111110010 a
0w
b0 )"
b1111001011010001011110111110010 ""
1Y
b111100 i
b1100010100110000111100 b
1x
b11111111111 *"
b1111111111111111111110011110001100010100110000111100 #"
b10 n
b0 -
b0 A
b100000110001001011001101000001 .
b100000110001001011001101000001 B
b1000101001011100110000110001010 ,
b1000101001011100110000110001010 @
b1111001011010001011110111110010 +
b1111001011010001011110111110010 ?
b1111111111111111111111111111111110011110001100010100110000111100 *
b1111111111111111111111111111111110011110001100010100110000111100 >
01
b10 /
b10 C
b1111 )
b1111 =
#190800
b111111111111111111111100111100011000101001100001111000 ,"
b111100101101000101111000111111011101010010000111110101000100010000100101110010111000 |
b1110100010111101111100011 k
b101000010011000010100011010000100101110010111000 ]
b111111111111111111111100111100011000101001100001111000 p
b11110010110100010111101111100100 o
12
b11111111111 %"
1u
0t
b1110100010111101111100100 Q
b1011000101001100001111000 P
b11110010 d
0V
1U
b101 a"
b1 Y"
b11101 Z"
b111111111111000000000000000000000000000000000000000000000000000 S"
b10000 H"
1T"
1M"
b1111111111111111111111111111111111010111010101100011111010101110 K"
b11 I"
b10110 J"
b11110010110100010111101111100100 8"
b111111111111111111111100111100011000101001100001111000 7"
b0 3"
b11111111111 2"
06"
15"
b10110110 ;"
b1110100010111101111100100 D"
b1011000101001100001111000 C"
b11110010 :"
b111100 9"
0B"
0A"
1@"
b100000110001001011001101000001 >"
b10 ?"
b1111 ="
0E"
1'
#194400
0'
#198000
b111111111111000000000000000000000000000000000000000000000000000 S"
b10000 H"
1T"
1M"
b100000110001001011001101000001 K"
b10 R"
b1111 J"
0U"
b11 Y"
b10110 Z"
1'
#200000
0J
0K
b100101010001001110101110 S
b1010111000101010001001110101110 r
b11000 f
b110010111111100111000110 T
08
b0 '"
b1100011010010111111100111000110 s
b10101000011111101110100101010 m
1W
b10111100 g
b11101010000001010111100 `
1v
b11111111111 ("
b1111111111111111111111011110011101010000001010111100 !"
b10101110 h
b101010001001110101110 a
b1010111000101010001001110101110 ""
0Y
b11000110 i
b10010111111100111000110 b
0x
b0 *"
b1100011010010111111100111000110 #"
b11 n
b11 -
b11 A
b10101000011111101110100101010 .
b10101000011111101110100101010 B
b1111111111111111111111111111111111011110011101010000001010111100 ,
b1111111111111111111111111111111111011110011101010000001010111100 @
b1010111000101010001001110101110 +
b1010111000101010001001110101110 ?
b1100011010010111111100111000110 *
b1100011010010111111100111000110 >
b11 /
b11 C
b1 (
b1 <
b11000 )
b11000 =
#201600
0'
#205200
0+"
0j
b101110100110000100001101011101000 ,"
b10000111000110111111101011111111101000011010110111011010010100 |
b1100101111111001110001101 k
b11101101100100000001110011010110111011010010100 ]
b10101110001010100010011101011100 q
b10101110001010100010011101011100 o
b11000110100101111111001110001100 p
b0 %"
0u
b1100101111111001110001100 Q
b1001010100010011101011100 P
1D
b11000110 d
0U
b10 a"
b1111 Z"
0d"
b111111111111111111111100111100011000101001100001111000 G"
b11111111111 F"
1P"
b0 S"
b0 H"
0T"
0M"
b0 4"
b10101110001010100010011101011100 8"
b11000110100101111111001110001100 7"
b0 2"
05"
b11000 ;"
b1001010100010011101011100 D"
b1100101111111001110001100 C"
b10101110 :"
b11000110 9"
1B"
0@"
b10101000011111101110100101010 >"
b11 ?"
b1 <"
b11000 ="
1'
#208800
0'
#210000
b101000110011001001111110 S
19
b11111111111 '"
b11111111111111111111110111111001000110011001001111110 r
b1000100 f
b100001100011001100111010 T
b11101000001100011001100111010 s
b1111000110110011001101111110001 m
0W
b10101 g
b1010100100101100010101 `
0v
b0 ("
b1010101010100100101100010101 !"
1X
b1111110 h
b1000110011001001111110 a
1w
b11111111111 )"
b1111111111111111111110111111001000110011001001111110 ""
b111010 i
b1100011001100111010 b
b11101000001100011001100111010 #"
b1 n
b1 -
b1 A
b1111000110110011001101111110001 .
b1111000110110011001101111110001 B
b1010101010100100101100010101 ,
b1010101010100100101100010101 @
b1111111111111111111111111111111110111111001000110011001001111110 +
b1111111111111111111111111111111110111111001000110011001001111110 ?
b11101000001100011001100111010 *
b11101000001100011001100111010 >
11
b111 /
b111 C
b10001 )
b10001 =
#212400
b11111111111 %"
1u
1+"
1j
b111111111111111111111101111110010001100110010011111100 ,"
b1110100000110001100101111111100101011010101001000011000101111111001000101010001100 |
02
b1010001100110010011111011 k
b10101011000110100010101111111001000101010001100 ]
1V
b0 q
b111010000011000110011001110100 o
b111111111111111111111101111110010001100110010011111100 p
0t
b1000011000110011001110100 P
b1010001100110010011111100 Q
0D
b1111110 d
0U
1$"
1z
b11 ~
b111111111110000000000000000000000000000000000000000000000000011 {
b11111111111 &"
b11111111111 4"
b111111111111111111111101111110010001100110010011111100 8"
b111010000011000110011001110100 7"
b11111111111 3"
16"
b1000100 ;"
b1010001100110010011111100 D"
b1000011000110011001110100 C"
b1111110 :"
b111010 9"
0B"
1A"
b1111000110110011001101111110001 >"
b1 ?"
b10001 ="
1E"
b10000 H"
b111111111111000000000000000000000000000000000000000000000000000 S"
1T"
1M"
b10101000011111101110100101010 K"
b11 R"
b1 I"
b11000 J"
b1111 W"
b11111111111 V"
b0 X"
b0 b"
0c"
0\"
0"
0!
0$
1'
#216000
0'
#219600
b111111111110000000000000000000000000000000000000000000000000100 {
b100 ~
1y
b0 &
b0 /"
b10000 X"
b111111111111000000000000000000000000000000000000000000000000000 b"
1c"
1\"
b11 a"
b1 Y"
b11000 Z"
b111111111111000000000000000000000000000000000000000000000000000 S"
b10000 H"
1T"
1M"
b1111000110110011001101111110001 K"
b1 R"
b10001 J"
1U"
1'
#220000
1^
b110011010110000010110111 S
b11111111111111111111111011011110011010110000010110111 r
1}
b1000001 f
b111011011010100111111000 T
b1111100011011011010100111111000 s
b11 n
1l
b1010001100000100110101110100100 m
1W
b10011111 g
b10001000101011010011111 `
1v
b11111111111 ("
b1111111111111111111111001111110001000101011010011111 !"
b10110111 h
b10011010110000010110111 a
b1111111111111111111111011011110011010110000010110111 ""
b11111000 i
b11011011010100111111000 b
b1111100011011011010100111111000 #"
b11 -
b11 A
b1111111111111111111111111111111110101110011111011001010001011100 .
b1111111111111111111111111111111110101110011111011001010001011100 B
b1111111111111111111111111111111111001111110001000101011010011111 ,
b1111111111111111111111111111111111001111110001000101011010011111 @
b1111111111111111111111111111111111011011110011010110000010110111 +
b1111111111111111111111111111111111011011110011010110000010110111 ?
b1111100011011011010100111111000 *
b1111100011011011010100111111000 >
b0 (
b0 <
b10 )
b10 =
#223200
0'
#226800
b111111111110000000000000000000000000000000000000000000000000011 {
b11 ~
0y
b111111111111111111111110110111100110101100000101101110 ,"
b111110001101101101010010110101100111111110010100001001010101101110011000000001001000 |
b1110110110101001111101111 k
b101111101010101011100101001110011000000001001000 ]
0V
1U
b111111111111111111111110110111100110101100000101101110 p
b11111000110110110101001111110000 o
b1110110110101001111110000 Q
b1100110101100000101101110 P
b11111000 d
1D
b111111111111111111111110110111100110101100000101101110 8"
b11111000110110110101001111110000 7"
b1000001 ;"
b1100110101100000101101110 D"
b1110110110101001111110000 C"
b10110111 :"
b11111000 9"
1B"
b1111111111111111111111111111111110101110011111011001010001011100 >"
b11 ?"
b0 <"
b10 ="
b111111111111000000000000000000000000000000000000000000000000000 S"
b10000 H"
1T"
1M"
b1 a"
b10001 Z"
1d"
b10000 &
b10000 /"
1'
#230000
1J
1^
1K
b11110110100110011000100111110 m
b101000010010111110010110 S
09
b1001011001000010010111110010110 r
0}
b1000101 f
b110001111111110001010001 T
18
b11111111111111111111110101000110001111111110001010001 s
0W
b1100 g
b111010111111100001100 `
0v
b0 ("
b110000111010111111100001100 !"
0X
b10010110 h
b1000010010111110010110 a
0w
b0 )"
b1001011001000010010111110010110 ""
1Y
b1010001 i
b10001111111110001010001 b
1x
b11111111111 *"
b1111111111111111111110101000110001111111110001010001 #"
b0 n
b0 -
b0 A
b1111111111111111111111111111111111100001001011001100111011000010 .
b1111111111111111111111111111111111100001001011001100111011000010 B
b110000111010111111100001100 ,
b110000111010111111100001100 @
b1001011001000010010111110010110 +
b1001011001000010010111110010110 ?
b1111111111111111111111111111111110101000110001111111110001010001 *
b1111111111111111111111111111111110101000110001111111110001010001 >
b0 /
b0 C
b1 (
b1 <
b1001 )
b1001 =
#230400
0'
#234000
b111111111111111111111101010001100011111111100010100010 ,"
b100101100100001001011101100100100111010010000111110011011101111100011011011001110110 |
b1010000100101111100101011 k
b11111011110101011011011011100011011011001110110 ]
b10111 f"
b1 e"
b111111111111111111111101010001100011111111100010100010 p
b10010110010000100101111100101100 o
12
b11111111111 %"
1u
0t
b1100011111111100010100010 P
b1010000100101111100101100 Q
0D
b10010110 d
1U
0V
1"
1!
1$
b10111110101010101110010100000000000000000000000000 Q"
b110000 O"
b0 S"
b0 H"
0T"
0M"
b1111111111111111111111111111111110101110011111011001010001011100 K"
b11 R"
b0 I"
b10 J"
b10010110010000100101111100101100 8"
b111111111111111111111101010001100011111111100010100010 7"
b0 3"
b11111111111 2"
06"
15"
b1000101 ;"
b1010000100101111100101100 D"
b1100011111111100010100010 C"
b10010110 :"
b1010001 9"
0B"
0A"
1@"
b1111111111111111111111111111111111100001001011001100111011000010 >"
b0 ?"
b1 <"
b1001 ="
1'
#237600
0'
#240000
0J
0K
b10110000101000000100100101101 m
b110110011110011100111001 S
b11100110110011110011100111001 r
1}
b110100 f
b111001011000000101101101 T
08
b0 '"
b110110111001011000000101101101 s
b11111 g
b10100101000111100011111 `
b1111110100101000111100011111 !"
b111001 h
b10110011110011100111001 a
b11100110110011110011100111001 ""
0Y
b1101101 i
b11001011000000101101101 b
0x
b0 *"
b110110111001011000000101101101 #"
b10 n
b101 -
b101 A
b1111111111111111111111111111111111101001111010111111011011010011 .
b1111111111111111111111111111111111101001111010111111011011010011 B
b1111110100101000111100011111 ,
b1111110100101000111100011111 @
b11100110110011110011100111001 +
b11100110110011110011100111001 ?
b110110111001011000000101101101 *
b110110111001011000000101101101 >
01
b10 /
b10 C
b10111 )
b10111 =
