backend/rv_fpu/tb_rv_fpu.vcd
$date
	Thu Jun  4 00:04:28 2026
$end
$version
	Icarus Verilog
$end
$timescale
	1ps
$end
$scope module tb_rv_fpu $end
$var wire 1 ! result_valid $end
$var wire 1 " int_result_valid $end
$var wire 1 # int_result $end
$var wire 1 $ fpu_done $end
$var wire 1 % fp_result $end
$var wire 1 & fflags $end
$var reg 1 ' clk $end
$var reg 1 ( fmt $end
$var reg 1 ) fop $end
$var reg 1 * fp_src1 $end
$var reg 1 + fp_src2 $end
$var reg 1 , fp_src3 $end
$var reg 1 - frm_csr $end
$var reg 1 . int_src $end
$var reg 1 / rm $end
$var reg 1 0 rst_n $end
$var reg 1 1 valid_in $end
$scope module uut $end
$var wire 1 ' clk $end
$var wire 1 2 dp_a_larger $end
$var wire 1 3 dp_eq $end
$var wire 1 4 dp_inf1 $end
$var wire 1 5 dp_inf2 $end
$var wire 1 6 dp_le $end
$var wire 1 7 dp_lt $end
$var wire 1 8 dp_nan1 $end
$var wire 1 9 dp_nan2 $end
$var wire 1 : dp_zero1 $end
$var wire 1 ; dp_zero2 $end
$var wire 2 < fmt [1:0] $end
$var wire 5 = fop [4:0] $end
$var wire 64 > fp_src1 [63:0] $end
$var wire 64 ? fp_src2 [63:0] $end
$var wire 64 @ fp_src3 [63:0] $end
$var wire 3 A frm_csr [2:0] $end
$var wire 64 B int_src [63:0] $end
$var wire 3 C rm [2:0] $end
$var wire 1 0 rst_n $end
$var wire 1 D sp_a_larger $end
$var wire 1 E sp_denorm1 $end
$var wire 1 F sp_denorm2 $end
$var wire 1 G sp_eq $end
$var wire 1 H sp_inf1 $end
$var wire 1 I sp_inf2 $end
$var wire 1 J sp_le $end
$var wire 1 K sp_lt $end
$var wire 1 L sp_nan1 $end
$var wire 1 M sp_nan2 $end
$var wire 1 N sp_zero1 $end
$var wire 1 O sp_zero2 $end
$var wire 1 1 valid_in $end
$var wire 25 P sp_sig_small [24:0] $end
$var wire 25 Q sp_sig_large [24:0] $end
$var wire 25 R sp_sig_aligned [24:0] $end
$var wire 24 S sp_sig2_full [23:0] $end
$var wire 24 T sp_sig1_full [23:0] $end
$var wire 1 U sp_sgn_small $end
$var wire 1 V sp_sgn_large $end
$var wire 1 W sp_sgn3 $end
$var wire 1 X sp_sgn2 $end
$var wire 1 Y sp_sgn1 $end
$var wire 1 Z sp_round_up $end
$var wire 1 [ sp_round $end
$var wire 32 \ sp_packed [31:0] $end
$var wire 48 ] sp_mul_result [47:0] $end
$var wire 1 ^ sp_min $end
$var wire 23 _ sp_mantissa_final [22:0] $end
$var wire 23 ` sp_man3 [22:0] $end
$var wire 23 a sp_man2 [22:0] $end
$var wire 23 b sp_man1 [22:0] $end
$var wire 1 c sp_guard $end
$var wire 8 d sp_exp_large [7:0] $end
$var wire 8 e sp_exp_final [7:0] $end
$var wire 8 f sp_exp_diff [7:0] $end
$var wire 8 g sp_exp3 [7:0] $end
$var wire 8 h sp_exp2 [7:0] $end
$var wire 8 i sp_exp1 [7:0] $end
$var wire 1 j sp_eff_sub $end
$var wire 26 k sp_add_result [25:0] $end
$var wire 1 l fcvt_sgn $end
$var wire 64 m fcvt_abs [63:0] $end
$var wire 3 n eff_rm [2:0] $end
$var wire 54 o dp_sig_small [53:0] $end
$var wire 54 p dp_sig_large [53:0] $end
$var wire 54 q dp_sig_aligned [53:0] $end
$var wire 53 r dp_sig2_full [52:0] $end
$var wire 53 s dp_sig1_full [52:0] $end
$var wire 1 t dp_sgn_small $end
$var wire 1 u dp_sgn_large $end
$var wire 1 v dp_sgn3 $end
$var wire 1 w dp_sgn2 $end
$var wire 1 x dp_sgn1 $end
$var wire 1 y dp_round_up $end
$var wire 1 z dp_round $end
$var wire 64 { dp_packed [63:0] $end
$var wire 106 | dp_mul_result [105:0] $end
$var wire 1 } dp_min $end
$var wire 52 ~ dp_mantissa_final [51:0] $end
$var wire 52 !" dp_man3 [51:0] $end
$var wire 52 "" dp_man2 [51:0] $end
$var wire 52 #" dp_man1 [51:0] $end
$var wire 1 $" dp_guard $end
$var wire 11 %" dp_exp_large [10:0] $end
$var wire 11 &" dp_exp_final [10:0] $end
$var wire 11 '" dp_exp_diff [10:0] $end
$var wire 11 (" dp_exp3 [10:0] $end
$var wire 11 )" dp_exp2 [10:0] $end
$var wire 11 *" dp_exp1 [10:0] $end
$var wire 1 +" dp_eff_sub $end
$var wire 55 ," dp_add_result [54:0] $end
$var parameter 64 -" DP_QNAN $end
$var parameter 32 ." SP_QNAN $end
$var reg 5 /" fflags [4:0] $end
$var reg 64 0" fp_result [63:0] $end
$var reg 1 $ fpu_done $end
$var reg 64 1" int_result [63:0] $end
$var reg 1 " int_result_valid $end
$var reg 1 ! result_valid $end
$var reg 11 2" s1_dp_exp_a [10:0] $end
$var reg 11 3" s1_dp_exp_b [10:0] $end
$var reg 11 4" s1_dp_exp_diff [10:0] $end
$var reg 1 5" s1_dp_sgn_a $end
$var reg 1 6" s1_dp_sgn_b $end
$var reg 54 7" s1_dp_sig_a [53:0] $end
$var reg 54 8" s1_dp_sig_b [53:0] $end
$var reg 8 9" s1_exp_a [7:0] $end
$var reg 8 :" s1_exp_b [7:0] $end
$var reg 8 ;" s1_exp_diff [7:0] $end
$var reg 2 <" s1_fmt [1:0] $end
$var reg 5 =" s1_fop [4:0] $end
$var reg 64 >" s1_int_src [63:0] $end
$var reg 3 ?" s1_rm [2:0] $end
$var reg 1 @" s1_sgn_a $end
$var reg 1 A" s1_sgn_b $end
$var reg 1 B" s1_sgn_c $end
$var reg 25 C" s1_sig_a [24:0] $end
$var reg 25 D" s1_sig_b [24:0] $end
$var reg 1 E" s1_valid $end
$var reg 11 F" s2_dp_result_exp [10:0] $end
$var reg 106 G" s2_dp_result_sig [105:0] $end
$var reg 5 H" s2_fflags [4:0] $end
$var reg 2 I" s2_fmt [1:0] $end
$var reg 5 J" s2_fop [4:0] $end
$var reg 64 K" s2_int_src [63:0] $end
$var reg 1 L" s2_is_inf $end
$var reg 1 M" s2_is_nan $end
$var reg 1 N" s2_is_zero $end
$var reg 8 O" s2_result_exp [7:0] $end
$var reg 1 P" s2_result_sgn $end
$var reg 50 Q" s2_result_sig [49:0] $end
$var reg 3 R" s2_rm [2:0] $end
$var reg 64 S" s2_special_result [63:0] $end
$var reg 1 T" s2_special_valid $end
$var reg 1 U" s2_valid $end
$var reg 12 V" s3_dp_result_exp [11:0] $end
$var reg 56 W" s3_dp_result_sig [55:0] $end
$var reg 5 X" s3_fflags [4:0] $end
$var reg 2 Y" s3_fmt [1:0] $end
$var reg 5 Z" s3_fop [4:0] $end
$var reg 1 [" s3_is_inf $end
$var reg 1 \" s3_is_nan $end
$var reg 1 ]" s3_is_zero $end
$var reg 9 ^" s3_result_exp [8:0] $end
$var reg 1 _" s3_result_sgn $end
$var reg 26 `" s3_result_sig [25:0] $end
$var reg 3 a" s3_rm [2:0] $end
$var reg 64 b" s3_special_result [63:0] $end
$var reg 1 c" s3_special_valid $end
$var reg 1 d" s3_valid $end
$var reg 6 e" sp_lzc [5:0] $end
$var integer 32 f" lzc_i [31:0] $end
$upscope $end
$upscope $end
$enddefinitions $end
$comment Show the parameter values. $end
$dumpall
b1111111110000000000000000000000 ."
b111111111111000000000000000000000000000000000000000000000000000 -"
$end
#0
$dumpvars
bx f"
bx e"
xd"
xc"
bx b"
bx a"
bx `"
x_"
bx ^"
x]"
x\"
x["
bx Z"
bx Y"
bx X"
bx W"
bx V"
xU"
xT"
bx S"
bx R"
bx Q"
xP"
bx O"
xN"
xM"
xL"
bx K"
bx J"
bx I"
bx H"
bx G"
bx F"
xE"
bx D"
bx C"
xB"
xA"
x@"
bx ?"
bx >"
bx ="
bx <"
bx ;"
bx :"
bx 9"
bx 8"
bx 7"
x6"
x5"
bx 4"
bx 3"
bx 2"
bx 1"
bx 0"
bx /"
bx ,"
x+"
b0 *"
b0 )"
b0 ("
b0 '"
bx &"
bx %"
x$"
b0 #"
b0 ""
b0 !"
bx ~
0}
bx |
bx {
xz
xy
0x
0w
0v
xu
xt
b0 s
b0 r
bx q
bx p
bx o
b0 n
b0 m
0l
bx k
xj
b0 i
b0 h
b0 g
b0 f
bx e
bx d
xc
b0 b
b0 a
b0 `
bx _
0^
bx ]
bx \
x[
xZ
0Y
0X
0W
xV
xU
b100000000000000000000000 T
b100000000000000000000000 S
bx R
bx Q
bx P
1O
1N
0M
0L
0K
1J
0I
0H
1G
0F
0E
xD
b0 C
b0 B
b0 A
b0 @
b0 ?
b0 >
b0 =
b0 <
1;
1:
09
08
07
16
05
04
13
x2
01
x0
0/
0.
0-
0,
0+
0*
0)
0(
0'
x&
x%
x$
x#
x"
x!
$end
#3600
0+"
0j
b0 ,"
b0 |
b10000000000000000000000000 k
b10000000000000000000000000000000000000000000000 ]
b0 q
b0 p
b0 o
12
b0 %"
0u
0t
b1000000000000000000000000 R
b1000000000000000000000000 Q
b1000000000000000000000000 P
1D
b0 d
0V
0U
0#
b0 4"
b0 8"
b0 7"
b0 3"
b0 2"
06"
05"
b0 ;"
b1000000000000000000000000 D"
b1000000000000000000000000 C"
b0 :"
b0 9"
0B"
0A"
0@"
b0 >"
b0 ?"
b0 <"
b0 ="
0E"
b0xxxxxxxxxxxxxxxxxxxxxxxxxxxxxxxxxxxxxxxxxxxxxxxxxxxxxx G"
b0 S"
b0 H"
0T"
0N"
0L"
0M"
b0 1"
1'
#7200
0'
#10000
0&
0%
0"
0$
b0 /"
0!
b0 0"
0d"
0U"
00
#10800
1'
#14400
0'
#18000
1'
#21600
0'
#25200
1'
#28800
0'
#32400
1'
#36000
0'
#39600
1'
#43200
0'
#46800
1'
#50400
0'
#54000
1'
#57600
0'
#61200
1'
#64800
0'
#68400
1'
#72000
0'
#75600
1'
#79200
0'
#82800
1'
#86400
0'
#90000
1'
#93600
0'
#97200
1'
#100800
0'
#104400
1'
#108000
0'
#110000
10
#111600
b10111 f"
b1 e"
x&
b10000000000000000000000000000000000000000000000000 Q"
b0 O"
0P"
b0 K"
b0 R"
b0 I"
b0 J"
b0xxxx W"
b0xxxxxxxxxxx V"
b0 X"
b0 b"
0c"
0]"
0["
0\"
bx /"
1'
#115200
0'
#118800
b0 _
0Z
0&
0c
0[
b11111111 e
b0 /"
b0 `"
b111111111 ^"
b1111111100000000000000000000000 \
b0xxxxxxxxxxxxxxxxxxxxxxxxxxxxxxxxxxxxxxxxxxxxxxxxxxxxxxxxxxxxxxx {
0_"
b0 a"
b0 Y"
b0 Z"
1'
#122400
0'
#126000
1'
#129600
0'
#133200
1'
#136800
0'
#140000
1^
0O
1F
b1 S
0;
b1 r
1}
0N
1E
b1 T
0:
b1 s
b1 `
b1 !"
b1 a
b1 ""
b1 b
b1 #"
b1 n
b1 A
1-
b1 @
1,
b1 ?
1+
b1 >
1*
11
b1 C
1/
b1 <
1(
#140400
b1 |
b100 ,"
b100 k
b1 ]
b10 q
b10 o
b10 p
b10 R
b10 P
b10 Q
b10 8"
b10 7"
b10 D"
b10 C"
b1 ?"
b1 <"
1E"
1'
#144000
0'
#147600
b100000000000000000000000000000000000000000000000000000 G"
b0 F"
b1 R"
b1 I"
1U"
1'
#150000
0^
0}
1K
0G
1N
0E
b100000000000000000000000 T
1:
b0 s
17
03
b1 m
b0 `
b0 !"
b0 b
b0 #"
b0 A
0-
b1 B
1.
b0 @
0,
b0 >
0*
b0 <
0(
b1 =
1)
#151200
0'
#154800
b10 ~
0y
b0 q
b0 o
02
b0 |
b100000000000000000000000 ]
b111111111111111111111110 k
b10 ,"
b10 p
b1000000000000000000000000 Q
1j
1+"
0$"
0z
b10 {
b0 &"
b0 7"
b1000000000000000000000000 C"
b1 >"
b0 <"
b1 ="
b1000 W"
b0 V"
b1 a"
b1 Y"
1d"
1'
#158400
0'
#160000
0K
1G
1O
0F
b100000000000000000000000 S
1;
b0 r
07
13
b0 a
b0 ""
b0 n
b0 ?
0+
b0 C
0/
b1 <
1(
#162000
12
b0 ,"
b0 k
b10000000000000000000000000000000000000000000000 ]
b10111 f"
b1 e"
b0 p
b1000000000000000000000000 R
b1000000000000000000000000 P
b10 0"
1"
1!
1$
b111111111111111111111110000000000000000000000000 Q"
b1 K"
b0 I"
b1 J"
b0 8"
b1000000000000000000000000 D"
b0 ?"
b1 <"
1'
#165600
0'
#169200
b1111111111111111111111111111111 \
b11111111111111111111111 _
b0 G"
b0 R"
b1 I"
b1111111111111111111111100 `"
b0 Y"
b1 Z"
1'
#170000
b0 m
b1 n
b1 A
1-
b0 B
0.
b1 C
1/
#172800
0'
#176400
1%
b0 {
b0 ~
b1111111111111111111111111111111101111111111111111111111111111111 0"
b0 W"
b0 a"
b1 Y"
b0 >"
b1 ?"
1'
#180000
1^
0O
1F
b1 S
0;
b1 r
1}
0N
1E
b1 T
0:
b1 s
b1 a
b1 ""
b1 b
b1 #"
0'
b1 ?
1+
b1 >
1*
b0 =
0)
#183600
b1 |
b1 ]
b100 k
b100 ,"
b10 q
b10 o
b10 p
b10 R
b10 P
b10 Q
0j
0+"
0%
b10 8"
b10 7"
b10 D"
b10 C"
b0 ="
b0 K"
b1 R"
b0 0"
1'
#187200
0'
#190000
0^
1O
0F
b100000000000000000000000 S
1;
b0 r
0}
1N
0E
b100000000000000000000000 T
1:
b0 s
b1 m
b0 a
b0 ""
b0 b
b0 #"
b0 n
b0 A
0-
b1 B
1.
b0 ?
0+
b0 >
0*
01
b0 C
0/
b1 =
1)
#190800
b0 |
b10000000000000000000000000000000000000000000000 ]
b0 k
b0 ,"
b0 q
b0 o
b0 p
b1000000000000000000000000 R
b1000000000000000000000000 P
b1000000000000000000000000 Q
1j
1+"
b1 a"
b100000000000000000000000000000000000000000000000000000 G"
b0 J"
b0 8"
b0 7"
b1000000000000000000000000 D"
b1000000000000000000000000 C"
b1 >"
b0 ?"
b1 ="
0E"
1'
#194400
0'
#198000
b10 {
b10 ~
b0 G"
b1 K"
b0 R"
b1 J"
0U"
b1000 W"
b0 Z"
1'
#200000
b0 m
b1 n
b1 A
1-
b0 B
0.
b1 C
1/
b0 =
0)
#201600
0'
#205200
b10000000000000000000000000 k
b0 {
b0 ~
0j
0+"
b10 0"
b0 W"
b0 a"
b1 Z"
0d"
b0 >"
b1 ?"
b0 ="
1'
#208800
0'
#210000
b1 m
b1 `
b1 !"
b1 B
1.
b1 @
1,
11
b1 =
1)
#212400
b0 k
1j
1+"
b1 >"
b1 ="
1E"
b0 K"
b1 R"
b0 J"
0"
0!
0$
1'
#216000
0'
#219600
b1 a"
b0 Z"
b1 K"
b1 J"
1U"
1'
#220000
1K
0G
0^
0O
1F
b1 S
0;
b1 r
17
03
0}
b0 m
b1 a
b1 ""
b0 B
0.
b1 ?
1+
b0 <
0(
b0 =
0)
#223200
0'
#226800
b10 p
02
b100000000000000000000000 ]
b1000000000000000000000010 k
b10 ,"
b0 q
b0 o
b10 R
b10 P
0j
0+"
b10 8"
b10 D"
b0 >"
b0 <"
b0 ="
b1 Z"
1d"
1'
#230000
0J
0K
06
0^
1O
0F
b100000000000000000000000 S
1;
b0 r
0N
1E
b1 T
0:
b1 s
07
0}
b0 `
b0 !"
b0 a
b0 ""
b1 b
b1 #"
b0 n
b0 A
0-
b0 @
0,
b0 ?
0+
b1 >
1*
b0 C
0/
b1 <
1(
b1 =
1)
#230400
0'
#234000
12
b0 |
0D
b100000000000000000000000 ]
b111111111111111111111110 k
b10 ,"
b10111 f"
b10 e"
b10 p
b0 q
b0 o
b10 R
b10 P
b1000000000000000000000000 Q
1j
1+"
b0 0"
1"
1!
1$
b1000000000000000000000010000000000000000000000000 Q"
b0 K"
b0 I"
b0 J"
b0 8"
b10 7"
b1000000000000000000000000 D"
b10 C"
b0 ?"
b1 <"
b1 ="
1'
#237600
0'
#240000
1J
1G
16
1^
0O
1F
b1 S
0;
b1 r
13
1}
b1 m
b1 `
b1 !"
b1 a
b1 ""
b1 A
1-
b1 B
1.
b1 @
1,
b1 ?
1+
01
#241200
b0 ,"
b1 |
1D
b0 k
b1 ]
b10 q
b10 o
b10 Q
b10 _
b1111111000000000000000000000010 \
b11111110 e
b10 8"
b10 D"
b1 >"
0E"
b10000000000000000000000000000000000000000000000000000 G"
b0 R"
b1 I"
b1 J"
b1000 `"
b111111110 ^"
b0 Y"
b0 Z"
1'
#244800
0'
#248400
b1 {
b1 ~
b1111111111111111111111111111111101111111000000000000000000000010 0"
b100 W"
b0 a"
b1 Y"
b1 Z"
b0 G"
b1 K"
0U"
1'
#250000
0^
1O
0F
b100000000000000000000000 S
1;
b0 r
0}
1N
0E
b100000000000000000000000 T
1:
b0 s
b0 m
b0 `
b0 !"
b0 a
b0 ""
b0 b
b0 #"
b1 n
b0 A
0-
b0 B
0.
b0 @
0,
b0 ?
0+
b0 >
0*
11
b1 C
1/
b0 =
0)
#252000
0'
#255600
b0 |
b10000000000000000000000000000000000000000000000 ]
b10000000000000000000000000 k
b0 q
b0 o
b0 p
b1000000000000000000000000 R
b1000000000000000000000000 P
b1000000000000000000000000 Q
0j
0+"
b0 {
b0 ~
1%
b0 8"
b0 7"
b1000000000000000000000000 D"
b1000000000000000000000000 C"
b0 >"
b1 ?"
b0 ="
1E"
b0 W"
0d"
b1 0"
1'
#259200
0'
#260000
1^
0O
1F
b1 S
0;
b1 r
1}
0N
1E
b1 T
0:
b1 s
b1 `
b1 !"
b1 a
b1 ""
b1 b
b1 #"
b1 A
1-
b1 @
1,
b1 ?
1+
b1 >
1*
b0 <
0(
#262800
b1 |
b100 ,"
b100 k
b1 ]
b10 q
b10 o
b10 p
b10 R
b10 P
b10 Q
0"
0!
0$
b0 K"
b1 R"
b0 J"
1U"
b10 8"
b10 7"
b10 D"
b10 C"
b0 <"
1'
#266400
0'
#270000
b0 k
b0 ,"
1j
1+"
b10111 f"
b1 e"
b1 >"
b0 ?"
b1 ="
b100000000000000000000000000 Q"
b0 I"
b1 a"
b0 Z"
1d"
0J
0G
06
0^
1O
0F
b100000000000000000000000 S
1;
b0 r
03
0}
b1 m
b0 a
b0 ""
b0 n
1'
b1 B
1.
b0 ?
0+
b0 C
0/
b1 =
1)
#273600
0'
#277200
b1000000000000000000000000 Q
b10 ,"
b0 |
0D
b111111111111111111111110 k
b100000000000000000000000 ]
0%
b1111111100000000000000000000010 \
b11111111 e
b10111 f"
b1 e"
b0 q
b0 o
b10 R
b10 P
b0 0"
1"
1!
1$
b111111111 ^"
b0 Y"
b0 Q"
b1 K"
b0 R"
b1 J"
b0 8"
b1000000000000000000000000 D"
1'
#280000
b0 m
b0 `
b0 !"
b0 B
0.
b0 @
0,
01
#280800
0'
#284400
b10111 f"
b1 e"
b1111111100000000000000000000000 \
b0 _
b0 >"
0E"
b111111111111111111111110000000000000000000000000 Q"
b0 `"
b0 a"
b1 Z"
b1111111111111111111111111111111101111111100000000000000000000010 0"
1'
#288000
0'
#290000
1J
1G
16
1N
0E
b100000000000000000000000 T
1:
b0 s
13
b1 m
b0 b
b0 #"
b0 A
0-
b1 B
1.
b0 >
0*
11
#291600
b0 ,"
1D
b0 k
b10000000000000000000000000000000000000000000000 ]
b1111111111111111111111111111111 \
b11111111111111111111111 _
b0 p
b1000000000000000000000000 R
b1000000000000000000000000 P
b1111111111111111111111111111111101111111100000000000000000000000 0"
b1111111111111111111111100 `"
b0 K"
0U"
b0 7"
b1000000000000000000000000 C"
b1 >"
1E"
1'
#295200
0'
#298800
b10111 f"
b1 e"
1%
b0 Q"
b1 K"
1U"
0d"
b1111111111111111111111111111111101111111111111111111111111111111 0"
1'
#300000
1^
0O
1F
b1 S
0;
b1 r
1}
0N
1E
b1 T
0:
b1 s
b1 `
b1 !"
b1 a
b1 ""
b1 b
b1 #"
b1 @
1,
b1 ?
1+
b1 >
1*
b1 <
1(
b0 =
0)
#302400
0'
#306000
b1 |
b1 ]
b100 k
b100 ,"
b1111111100000000000000000000000 \
b0 _
b10 q
b10 o
b10 p
b10 R
b10 P
b10 Q
0j
0+"
0"
0!
0$
b0 `"
1d"
b10 8"
b10 7"
b10 D"
b10 C"
b1 <"
b0 ="
1'
#309600
0'
#310000
0^
0}
1K
0G
1N
0E
b100000000000000000000000 T
1:
b0 s
17
03
b0 m
b0 b
b0 #"
b1 n
b0 B
0.
b0 >
0*
01
b1 C
1/
b0 <
0(
#313200
b0 q
b0 o
02
b10 ,"
b0 |
b1000000000000000000000010 k
b100000000000000000000000 ]
b10 p
b1000000000000000000000000 Q
0%
b0 7"
b1000000000000000000000000 C"
b0 >"
b1 ?"
b0 <"
0E"
b100000000000000000000000000000000000000000000000000000 G"
b1 I"
b0 J"
b1111111111111111111111111111111101111111100000000000000000000000 0"
1"
1!
1$
1'
#316800
0'
#320000
0K
1G
1O
0F
b100000000000000000000000 S
1;
b0 r
07
13
b1 m
b0 a
b0 ""
b1 B
1.
b0 ?
0+
b1 <
1(
#320400
12
b0 ,"
b10000000000000000000000000 k
b10000000000000000000000000000000000000000000000 ]
b10 {
b10 ~
b10111 f"
b10 e"
b0 p
b1000000000000000000000000 R
b1000000000000000000000000 P
b1000 W"
b1 Y"
b0 Z"
b1000000000000000000000010000000000000000000000000 Q"
b0 K"
b1 R"
b0 I"
0U"
b0 8"
b1000000000000000000000000 D"
b1 >"
b1 <"
1'
#324000
0'
#327600
b10 _
b1111111000000000000000000000010 \
b11111110 e
b0 G"
b1 K"
b1 I"
b1000 `"
b111111110 ^"
b1 a"
b0 Y"
0d"
b10 0"
1'
#330000
1K
0G
0^
0O
1F
b1 S
0;
b1 r
17
03
0}
b0 m
b0 `
b0 !"
b1 a
b1 ""
b0 B
0.
b0 @
0,
b1 ?
1+
b0 <
0(
#331200
0'
#334800
b10 p
02
b10 ,"
b1000000000000000000000010 k
b100000000000000000000000 ]
b0 {
b0 ~
b0 q
b0 o
b10 R
b10 P
0"
0!
0$
b0 W"
b1 Y"
b10 8"
b10 D"
b0 >"
b0 <"
1'
#338400
0'
#340000
0K
1G
1O
0F
b100000000000000000000000 S
1;
b0 r
07
13
b0 a
b0 ""
b1 A
1-
b0 ?
0+
11
b1 =
1)
#342000
12
b10000000000000000000000000000000000000000000000 ]
b0 k
b0 ,"
b0 p
b1000000000000000000000000 R
b1000000000000000000000000 P
1j
1+"
b0 8"
b1000000000000000000000000 D"
b1 ="
1E"
b0 K"
b0 I"
1'
#345600
0'
#349200
b10111 f"
b1 e"
b0 Y"
b0 Q"
b1 J"
1U"
1'
#350000
1^
0O
1F
b1 S
0;
b1 r
1}
0N
1E
b1 T
0:
b1 s
b1 `
b1 !"
b1 a
b1 ""
b1 b
b1 #"
b0 n
b1 @
1,
b1 ?
1+
b1 >
1*
01
b0 C
0/
b0 =
0)
#352800
0'
#356400
b1 |
b1 ]
b100 k
b100 ,"
b10 q
b10 o
b10 p
b10 R
b10 P
b10 Q
0j
0+"
b0 _
b1111111100000000000000000000000 \
b11111111 e
b10 8"
b10 7"
b10 D"
b10 C"
b0 ?"
b0 ="
0E"
b0 `"
b111111111 ^"
b1 Z"
1d"
1'
#360000
b1 m
0'
b1 B
1.
b1 <
1(
b1 =
1)
#363600
b0 k
b0 ,"
b10111 f"
b1 e"
1j
1+"
b1111111111111111111111111111111101111111100000000000000000000000 0"
1"
1!
1$
b100000000000000000000000000 Q"
b0 R"
b0 J"
0U"
b1 >"
b1 <"
b1 ="
1'
#367200
0'
#370000
0^
1O
0F
b100000000000000000000000 S
1;
b0 r
0}
1N
0E
b100000000000000000000000 T
1:
b0 s
b0 `
b0 !"
b0 a
b0 ""
b0 b
b0 #"
b1 n
b0 @
0,
b0 ?
0+
b0 >
0*
b1 C
1/
b0 =
0)
#370800
b0 |
b10000000000000000000000000000000000000000000000 ]
b10000000000000000000000000 k
b0 q
b0 o
b0 p
b1000000000000000000000000 R
b1000000000000000000000000 P
b1000000000000000000000000 Q
0j
0+"
b1111111100000000000000000000010 \
b10 _
b0 8"
b0 7"
b1000000000000000000000000 D"
b1000000000000000000000000 C"
b1 ?"
b0 ="
b1 K"
b1 I"
b1 J"
b1000 `"
b0 a"
b0 Z"
0d"
1'
#374400
0'
#378000
0"
0!
0$
b1 Y"
b1 Z"
b1 R"
b0 J"
1'
#380000
1K
0G
0^
0O
1F
b1 S
0;
b1 r
17
03
0}
b0 m
b1 a
b1 ""
b0 B
0.
b1 ?
1+
b0 <
0(
#381600
0'
#385200
b10 p
02
b10 ,"
b1000000000000000000000010 k
b100000000000000000000000 ]
b0 q
b0 o
b10 R
b10 P
b10 8"
b10 D"
b0 >"
b0 <"
b1 a"
b0 Z"
1'
#388800
0'
#390000
0J
0K
06
0^
1O
0F
b100000000000000000000000 S
1;
b0 r
0N
1E
b1 T
0:
b1 s
07
0}
b0 a
b0 ""
b1 b
b1 #"
b0 ?
0+
b1 >
1*
11
#392400
12
b0 |
0D
b100000000000000000000000 ]
b10111 f"
b10 e"
b10 p
b0 q
b0 o
b10 R
b10 P
b1000000000000000000000000 Q
b1000000000000000000000010000000000000000000000000 Q"
b0 K"
b0 I"
b0 8"
b10 7"
b1000000000000000000000000 D"
b10 C"
1E"
1'
#396000
0'
#399600
b1111111000000000000000000000010 \
b11111110 e
1U"
b111111110 ^"
b0 Y"
1'
#400000
1J
1G
16
1N
0E
b100000000000000000000000 T
1:
b0 s
13
b1 m
b0 b
b0 #"
b0 A
0-
b1 B
1.
b0 >
0*
01
#403200
0'
#406800
b0 ,"
1D
b10000000000000000000000000 k
b10000000000000000000000000000000000000000000000 ]
b0 p
b1000000000000000000000000 R
b1000000000000000000000000 P
1d"
b0 7"
b1000000000000000000000000 C"
b1 >"
0E"
1'
#410000
1K
0G
0^
0O
1F
b1 S
0;
b1 r
17
03
0}
b1 `
b1 !"
b1 a
b1 ""
b1 A
1-
b1 @
1,
b1 ?
1+
11
#410400
0'
#414000
b10 p
02
b10 ,"
b1000000000000000000000010 k
b100000000000000000000000 ]
b0 q
b0 o
b10 R
b10 P
b10111 f"
b1 e"
b10 8"
b10 D"
1E"
b10000000000000000000000000000000000000000000000000 Q"
b1 K"
0U"
b1111111111111111111111111111111101111111000000000000000000000010 0"
1"
1!
1$
1'
#417600
0'
#420000
0K
1G
1O
0F
b100000000000000000000000 S
1;
b0 r
07
13
b0 m
b0 a
b0 ""
b0 A
0-
b0 B
0.
b0 ?
0+
b1 <
1(
#421200
12
b0 ,"
b10000000000000000000000000 k
b10000000000000000000000000000000000000000000000 ]
b0 _
b1111111100000000000000000000000 \
b11111111 e
b10111 f"
b10 e"
b0 p
b1000000000000000000000000 R
b1000000000000000000000000 P
b0 `"
b111111111 ^"
0d"
b1000000000000000000000010000000000000000000000000 Q"
1U"
b0 8"
b1000000000000000000000000 D"
b0 >"
b1 <"
1'
#424800
0'
#428400
b10 _
b1111111000000000000000000000010 \
b11111110 e
b0 K"
b1 I"
b1000 `"
b111111110 ^"
1d"
0"
0!
0$
1'
#430000
0J
0G
06
0N
1E
b1 T
0:
b1 s
03
b1 m
b0 `
b0 !"
b1 b
b1 #"
b0 n
b1 B
1.
b0 @
0,
b1 >
1*
01
b0 C
0/
b1 =
1)
#432000
0'
#435600
b10 R
b10 P
0D
b100000000000000000000000 ]
b111111111111111111111110 k
b10 ,"
b10 p
b1000000000000000000000000 Q
1j
1+"
1"
1!
1$
b1 Y"
b10 7"
b10 C"
b1 >"
b0 ?"
b1 ="
0E"
1'
#439200
0'
#440000
1J
1K
16
0^
0O
1F
b1 S
0;
b1 r
17
0}
1N
0E
b100000000000000000000000 T
1:
b0 s
b0 m
b1 a
b1 ""
b0 b
b0 #"
b1 A
1-
b0 B
0.
b1 ?
1+
b0 >
0*
11
#442800
02
b10 ,"
1D
b111111111111111111111110 k
b100000000000000000000000 ]
b0 q
b0 o
b10 p
b1000000000000000000000000 Q
b10 R
b10 P
b10 8"
b0 7"
b10 D"
b1000000000000000000000000 C"
b0 >"
1E"
b10000000000000000000000000000000000000000000000000000 G"
b1 K"
b0 R"
b1 J"
0U"
b0 0"
1'
#446400
0'
#450000
b1000000000000000000000010 k
b1 {
b1 ~
0j
0+"
b100 W"
b0 a"
b1 Z"
0d"
b0 K"
1U"
b1 >"
b0 <"
b0 ="
0K
1G
1^
0N
1E
b1 T
0:
b1 s
07
13
1}
b1 m
b1 `
b1 !"
b1 b
b1 #"
1'
b0 A
0-
b1 B
1.
b1 @
1,
b1 >
1*
b0 <
0(
b0 =
0)
#453600
0'
#457200
12
b100 ,"
b1 |
b100 k
b1 ]
b10 q
b10 o
b10 Q
b10 7"
b10 C"
b1 K"
b0 I"
b0 J"
1d"
0"
0!
0$
1'
#460000
0^
1O
0F
b100000000000000000000000 S
1;
b0 r
0}
1N
0E
b100000000000000000000000 T
1:
b0 s
b0 m
b0 `
b0 !"
b0 a
b0 ""
b0 b
b0 #"
b1 n
b0 B
0.
b0 @
0,
b0 ?
0+
b0 >
0*
01
b1 C
1/
b1 <
1(
b1 =
1)
#460800
0'
#464400
b0 |
b10000000000000000000000000000000000000000000000 ]
b0 k
b0 ,"
1%
b10111 f"
b1 e"
b0 q
b0 o
b0 p
b1000000000000000000000000 R
b1000000000000000000000000 P
b1000000000000000000000000 Q
1j
1+"
b1 0"
1"
1!
1$
b0 Y"
b0 Z"
b100000000000000000000000000 Q"
b0 8"
b0 7"
b1000000000000000000000000 D"
b1000000000000000000000000 C"
b0 >"
b1 ?"
b1 <"
b1 ="
0E"
1'
#468000
0'
#470000
1^
0O
1F
b1 S
0;
b1 r
1}
0N
1E
b1 T
0:
b1 s
b1 `
b1 !"
b1 a
b1 ""
b1 b
b1 #"
b1 A
1-
b1 @
1,
b1 ?
1+
b1 >
1*
11
