peripherals/can_controller/tb_can_controller.vcd
$date
	Fri Jun  5 19:21:02 2026
$end
$version
	Icarus Verilog
$end
$timescale
	1ps
$end
$scope module tb_can_controller $end
$var wire 1 ! can_tx $end
$var wire 1 " pready $end
$var wire 1 # pslverr $end
$var wire 32 $ prdata [31:0] $end
$var wire 1 % can_irq $end
$var reg 1 & can_rx $end
$var reg 1 ' clk $end
$var reg 32 ( paddr [31:0] $end
$var reg 1 ) penable $end
$var reg 1 * psel $end
$var reg 32 + pwdata [31:0] $end
$var reg 1 , pwrite $end
$var reg 1 - rst_n $end
$scope module uut $end
$var wire 1 & can_rx $end
$var wire 1 ! can_tx $end
$var wire 1 ' clk $end
$var wire 32 . paddr [31:0] $end
$var wire 1 ) penable $end
$var wire 32 / prdata [31:0] $end
$var wire 1 " pready $end
$var wire 1 * psel $end
$var wire 1 # pslverr $end
$var wire 32 0 pwdata [31:0] $end
$var wire 1 , pwrite $end
$var wire 1 - rst_n $end
$var wire 1 % can_irq $end
$var wire 1 1 _unused $end
$var reg 32 2 btr_reg [31:0] $end
$var reg 32 3 cmd_reg [31:0] $end
$var reg 32 4 irq_en_reg [31:0] $end
$var reg 32 5 irq_reg [31:0] $end
$var reg 32 6 mode_reg [31:0] $end
$var reg 32 7 prdata_reg [31:0] $end
$var reg 32 8 rx_dlc [31:0] $end
$var reg 32 9 rx_id [31:0] $end
$var reg 32 : stat_reg [31:0] $end
$var reg 32 ; tx_dlc [31:0] $end
$var reg 32 < tx_id [31:0] $end
$upscope $end
$upscope $end
$enddefinitions $end
$comment Show the parameter values. $end
$dumpall
$end
#0
$dumpvars
bx <
bx ;
bx :
bx 9
bx 8
bx 7
bx 6
bx 5
bx 4
bx 3
bx 2
01
b0 0
bx /
b0 .
x-
0,
b0 +
0*
0)
b0 (
0'
0&
x%
bx $
0#
1"
1!
$end
#3600
1'
#7200
0'
#10000
0%
b1 $
b1 /
b1 7
b0 ;
b0 <
b0 2
b0 4
b0 3
b1 6
0-
#10800
1'
#14400
0'
#18000
1'
#21600
0'
#25200
1'
#28800
0'
#32400
1'
#36000
0'
#39600
1'
#43200
0'
#46800
1'
#50400
0'
#54000
1'
#57600
0'
#61200
1'
#64800
0'
#68400
1'
#72000
0'
#75600
1'
#79200
0'
#82800
1'
#86400
0'
#90000
1'
#93600
0'
#97200
1'
#100800
0'
#104400
1'
#108000
0'
#110000
1-
#111600
1'
#115200
0'
#118800
1'
#122400
0'
#126000
1'
#129600
0'
#133200
1'
#136800
0'
#140000
b0 $
b0 /
b0 7
11
1&
b110101110010111101100001101 +
b110101110010111101100001101 0
1,
1)
1*
b10010000101010011010100100100 (
b10010000101010011010100100100 .
#140400
b110101110010111101100001101 ;
1'
#144000
0'
#147600
1'
#150000
b111011001000111111000101110110 +
b111011001000111111000101110110 0
0*
b10110010110000101000010001100101 (
b10110010110000101000010001100101 .
#151200
0'
#154800
1'
#158400
0'
#160000
01
0&
b11100010111101111000010011000101 +
b11100010111101111000010011000101 0
0,
b1110110110101000101011111101101 (
b1110110110101000101011111101101 .
#162000
1'
#165600
0'
#169200
1'
#170000
b1111001001100000110100111110010 +
b1111001001100000110100111110010 0
1,
0)
1*
b1110010101011111111011111100101 (
b1110010101011111111011111100101 .
#172800
0'
#176400
1'
#180000
0'
11
1&
b10010110101010110101100000101101 +
b10010110101010110101100000101101 0
b11110100000000000111101011101000 (
b11110100000000000111101011101000 .
#183600
1'
#187200
0'
#190000
b1010101011110000100010110101010 +
b1010101011110000100010110101010 0
0,
0*
b10110001111011110110001001100011 (
b10110001111011110110001001100011 .
#190800
1'
#194400
0'
#198000
1'
#200000
b110101100111111101110101101011 +
b110101100111111101110101101011 0
1,
1)
1*
b11001011001000000011111010010110 (
b11001011001000000011111010010110 .
#201600
0'
#205200
1'
#208800
0'
#210000
01
0&
b10001100001000100100100100011 +
b10001100001000100100100100011 0
0*
b10000001000101110100101000000010 (
b10000001000101110100101000000010 .
#212400
1'
#216000
0'
#219600
1'
#220000
b100000110001001011001101000001 +
b100000110001001011001101000001 0
0,
0)
b11100101011100110000101011001010 (
b11100101011100110000101011001010 .
#223200
0'
#226800
1'
#230000
b1100011010010111111100111000110 +
b1100011010010111111100111000110 0
1)
1*
b111100001000001111001101111000 (
b111100001000001111001101111000 .
#230400
0'
#234000
1'
#237600
0'
#240000
11
1&
b1000010111100100100000110000101 +
b1000010111100100100000110000101 0
1,
0*
b11011110011101010000001010111100 (
b11011110011101010000001010111100 .
#241200
1'
#244800
0'
#248400
1'
#250000
b1111000110110011001101111110001 +
b1111000110110011001101111110001 0
0)
b10011101110011000110000000111011 (
b10011101110011000110000000111011 .
#252000
0'
#255600
1'
#259200
0'
#260000
b1111100011011011010100111111000 +
b1111100011011011010100111111000 0
1)
b110001001000110000011101100010 (
b110001001000110000011101100010 .
#262800
1'
#266400
0'
#270000
1'
01
0&
b10100100101011100011001001001001 +
b10100100101011100011001001001001 0
b11001111110001000101011010011111 (
b11001111110001000101011010011111 .
#273600
0'
#277200
1'
#280000
b11100001001011001100111011000010 +
b11100001001011001100111011000010 0
0,
0)
1*
b11101011111111101100000011010111 (
b11101011111111101100000011010111 .
#280800
0'
#284400
1'
#288000
0'
#290000
11
1&
b110110111001011000000101101101 +
b110110111001011000000101101101 0
b10111011100000100101101001110111 (
b10111011100000100101101001110111 .
#291600
1'
#295200
0'
#298800
1'
#300000
b101101110110100101100101011011 +
b101101110110100101100101011011 0
1)
b1111110100101000111100011111 (
b1111110100101000111100011111 .
#302400
0'
#306000
1'
#309600
0'
#310000
01
0&
b11000111000110100000110010001110 +
b11000111000110100000110010001110 0
0)
0*
b10011111111100101010111000111111 (
b10011111111100101010111000111111 .
#313200
1'
#316800
0'
#320000
11
1&
b10010111100110011010100000101111 +
b10010111100110011010100000101111 0
1,
1)
b1111101001101011001100111111010 (
b1111101001101011001100111111010 .
#320400
1'
#324000
0'
#327600
1'
#330000
01
0&
b11110011000010010001101011100110 +
b11110011000010010001101011100110 0
b10101111110110000101011001011111 (
b10101111110110000101011001011111 .
#331200
0'
#334800
1'
#338400
0'
#340000
11
1&
b11011010100010101110001010110101 +
b11011010100010101110001010110101 0
0)
1*
b10100110011111100000100101001 (
b10100110011111100000100101001 .
#342000
1'
#345600
0'
#349200
1'
#350000
01
0&
b1010101111101101010110110101011 +
b1010101111101101010110110101011 0
0,
0*
b111100111100010001100101111001 (
b111100111100010001100101111001 .
#352800
0'
#356400
1'
#360000
0'
b101011000011101110110101010110 +
b101011000011101110110101010110 0
1,
1)
b1101110010111011010110111011100 (
b1101110010111011010110111011100 .
#363600
1'
#367200
0'
#370000
b111100110100011000011101111001 +
b111100110100011000011101111001 0
0,
0)
b10110011110110010111011001100111 (
b10110011110110010111011001100111 .
#370800
1'
#374400
0'
#378000
1'
#380000
11
1&
b1101101110010110110100111011011 +
b1101101110010110110100111011011 0
1,
1*
b1001010011101001011111110010100 (
b1001010011101001011111110010100 .
#381600
0'
#385200
1'
#388800
0'
#390000
b1011011000101110010110110110110 +
b1011011000101110010110110110110 0
0,
b1101100101100001011011111011001 (
b1101100101100001011011111011001 .
#392400
1'
#396000
0'
#399600
1'
#400000
01
0&
b11011010011011101011101010110100 +
b11011010011011101011101010110100 0
1,
1)
0*
b10100011000001110001101001000110 (
b10100011000001110001101001000110 .
#403200
0'
#406800
1'
#410000
b10000100011101111110010000001000 +
b10000100011101111110010000001000 0
0,
1*
b10100011111001101100100101000 (
b10100011111001101100100101000 .
#410400
0'
#414000
1'
#417600
0'
#420000
11
1&
b11101101001101000000100011011010 +
b11101101001101000000100011011010 0
0)
b11111110101001111010011011111101 (
b11111110101001111010011011111101 .
#421200
1'
#424800
0'
#428400
1'
#430000
01
0&
b101111001110101011001101011110 +
b101111001110101011001101011110 0
1)
0*
b110011010011101010011101100110 (
b110011010011101010011101100110 .
#432000
0'
#435600
1'
#439200
0'
#440000
b1001011001001110011011110010110 +
b1001011001001110011011110010110 0
1,
b1101010100011100000010111010101 (
b1101010100011100000010111010101 .
#442800
1'
#446400
0'
#450000
1'
b1000011011000010101011110000110 +
b1000011011000010101011110000110 0
0,
b10011001001011001111100100110 (
b10011001001011001111100100110 .
#453600
0'
#457200
1'
#460000
11
1&
b11111101001010001110010011111010 +
b11111101001010001110010011111010 0
1,
1*
b111111010110101001101101111110 (
b111111010110101001101101111110 .
#460800
0'
#464400
1'
#468000
0'
#470000
b1111010100011000101100111110101 +
b1111010100011000101100111110101 0
0,
0)
b1011100101000000100100010111 (
b1011100101000000100100010111 .
#471600
1'
#475200
0'
#478800
1'
#480000
b100101101100100111101101001011 +
b100101101100100111101101001011 0
1)
b10010100100110101000101000101001 (
b10010100100110101000101000101001 .
#482400
0'
#486000
1'
#489600
0'
#490000
b1010100100111101111110110101001 +
b1010100100111101111110110101001 0
0)
0*
b11110110001000101110011011101100 (
b11110110001000101110011011101100 .
#493200
1'
#496800
0'
#500000
b10101010110100001110100101010 +
b10101010110100001110100101010 0
1)
b111000010111011100100001110 (
b111000010111011100100001110 .
#500400
1'
#504000
0'
#507600
1'
#510000
b1100101001000110100010111001010 +
b1100101001000110100010111001010 0
b1001111011101011111111110011110 (
b1001111011101011111111110011110 .
#511200
0'
#514800
1'
#518400
0'
#520000
b1100010000101101010101111000100 +
b1100010000101101010101111000100 0
0)
1*
b110101101000001100100101101011 (
b110101101000001100100101101011 .
#522000
1'
#525600
0'
#529200
1'
#530000
01
0&
b1111101011011011111010111111010 +
b1111101011011011111010111111010 0
1)
0*
b1001001001011111101001110010010 (
b1001001001011111101001110010010 .
#532800
0'
#536400
1'
#540000
0'
11
1&
b1100101010000111100111111001010 +
b1100101010000111100111111001010 0
0)
1*
b11001010001010010000100110010 (
b11001010001010010000100110010 .
#543600
1'
#547200
0'
#550000
b11110111100000101001000011101111 +
b11110111100000101001000011101111 0
1,
1)
0*
b11010000100101011010100010100001 (
b11010000100101011010100010100001 .
#550800
1'
#554400
0'
#558000
1'
#560000
01
0&
b1000100011001011110011110001000 +
b1000100011001011110011110001000 0
1*
b11011011000001110010100110110 (
b11011011000001110010100110110 .
#561600
0'
#565200
1'
#568800
0'
#570000
b100101101101110101111101001011 +
b100101101101110101111101001011 0
0)
0*
b1001101111100111000000110011011 (
b1001101111100111000000110011011 .
#572400
1'
#576000
0'
#579600
1'
#580000
b1101000101011100001101111010001 +
b1101000101011100001101111010001 0
0,
1*
b10001111000111001111011000011110 (
b10001111000111001111011000011110 .
#583200
0'
#586800
1'
#590000
11
1&
b10101011000110010110001001010110 +
b10101011000110010110001001010110 0
1,
b10100000110000000010010001000001 (
b10100000110000000010010001000001 .
#590400
0'
#594000
1'
#597600
0'
#600000
01
0&
b1001001111100100110100010010 +
b1001001111100100110100010010 0
0,
1)
0*
b11110001011001101111101011100010 (
b11110001011001101111101011100010 .
#601200
1'
#604800
0'
#608400
1'
#610000
b1000000100100000101110110000001 +
b1000000100100000101110110000001 0
1,
1*
b10011100100000010001001000111001 (
b10011100100000010001001000111001 .
#612000
0'
#615600
1'
#619200
0'
#620000
b101100001011010010001101011000 +
b101100001011010010001101011000 0
0,
b10011101101010101010100100111 (
b10011101101010101010100100111 .
#622800
1'
#626400
0'
#630000
1'
11
1&
b101010110000101101010101010101 +
b101010110000101101010101010101 0
1,
0)
0*
b1010011011101001001100010100 (
b1010011011101001001100010100 .
#633600
0'
#637200
1'
#640000
b1000010010010011111111110000100 +
b1000010010010011111111110000100 0
1)
1*
b10101100010110010101100101011 (
b10101100010110010101100101011 .
#640800
0'
#644400
1'
#648000
0'
#650000
b1100100101110100000111111001001 +
b1100100101110100000111111001001 0
b11110011110101111010011011100111 (
b11110011110101111010011011100111 .
#651600
1'
#655200
0'
#658800
1'
#660000
01
0&
b1000001101000010000010110000011 +
b1000001101000010000010110000011 0
0)
0*
b11010000101111000101111010100001 (
b11010000101111000101111010100001 .
#662400
0'
#666000
1'
#669600
0'
#670000
b1000011010001100000110110000110 +
b1000011010001100000110110000110 0
b10111001010001100001010001110010 (
b10111001010001100001010001110010 .
#673200
1'
#676800
0'
#680000
bx $
bx /
bx 7
b11100010101111110001101011000101 +
b11100010101111110001101011000101 0
0,
b11100011100011001011100111000 (
b11100011100011001011100111000 .
#680400
1'
#684000
0'
#687600
1'
#690000
b0 $
b0 /
b0 7
b10101001000011001001100101010 +
b10101001000011001001100101010 0
1*
b111010011000100101111101110100 (
b111010011000100101111101110100 .
#691200
0'
#694800
1'
#698400
0'
#700000
b1100100101101011110001111001001 +
b1100100101101011110001111001001 0
1,
1)
b1010111011000011010100010101 (
b1010111011000011010100010101 .
#702000
1'
#705600
0'
#709200
1'
#710000
b11110101100010011100000111 +
b11110101100010011100000111 0
0,
b10010100101111100101100100101 (
b10010100101111100101100100101 .
#712800
0'
#716400
1'
#720000
bx $
bx /
bx 7
0'
b11111011110111111100001011110111 +
b11111011110111111100001011110111 0
b110000010100101110100001100 (
b110000010100101110100001100 .
#723600
1'
#727200
0'
#730000
b0 $
b0 /
b0 7
b111001011000000000100101110010 +
b111001011000000000100101110010 0
0)
b10101110011110000101100001011100 (
b10101110011110000101100001011100 .
#730800
1'
#734400
0'
#738000
1'
#740000
11
1&
b11001111011000111101101010011110 +
b11001111011000111101101010011110 0
1,
1)
b1101110100010101111010111011101 (
b1101110100010101111010111011101 .
#741600
0'
#745200
1'
#748800
0'
#750000
b1110100100100100001100011101 +
b1110100100100100001100011101 0
b10111101111000001101001001111011 (
b10111101111000001101001001111011 .
#752400
1'
#756000
0'
#759600
1'
#760000
01
0&
b101001011110100001010101010010 +
b101001011110100001010101010010 0
0)
b100010000100011001111101000100 (
b100010000100011001111101000100 .
#763200
0'
#766800
1'
#770000
b11000110001110101001001010001100 +
b11000110001110101001001010001100 0
0,
0*
b1000110110111001011011110001101 (
b1000110110111001011011110001101 .
#770400
0'
#774000
1'
#777600
0'
#780000
b111110011011110000111101111100 +
b111110011011110000111101111100 0
b1011111010101100000100010111 (
b1011111010101100000100010111 .
#781200
1'
#784800
0'
#788400
1'
#790000
b11001000001011000001100110010 +
b11001000001011000001100110010 0
1,
1*
b1011101010010100100110110111010 (
b1011101010010100100110110111010 .
#792000
0'
#795600
1'
#799200
0'
#800000
11
1&
b10101110011010000011000001011100 +
b10101110011010000011000001011100 0
1)
0*
b10100100100011110111110001001001 (
b10100100100011110111110001001001 .
#802800
1'
#806400
0'
#810000
1'
01
0&
b10010110001000100101000000101100 +
b10010110001000100101000000101100 0
0,
0)
1*
b1000011001111101001011110000110 (
b1000011001111101001011110000110 .
#813600
0'
#817200
1'
#820000
11
1&
b10100101111001111001111001001011 +
b10100101111001111001111001001011 0
1)
0*
b11111010011011011100000111 (
b11111010011011011100000111 .
#820800
0'
#824400
1'
#828000
0'
#830000
b10011100101001110000010000111001 +
b10011100101001110000010000111001 0
1,
0)
1*
b1110110001010010101101111101100 (
b1110110001010010101101111101100 .
#831600
1'
#835200
0'
#838800
1'
#840000
b1000001000100000011100110000010 +
b1000001000100000011100110000010 0
0,
1)
b11101010010110000001010011010100 (
b11101010010110000001010011010100 .
#842400
0'
#846000
1'
#849600
0'
#850000
01
0&
b1110001101101000110000111100011 +
b1110001101101000110000111100011 0
1,
0)
0*
b11101100101110010001101011011001 (
b11101100101110010001101011011001 .
#853200
1'
#856800
0'
#860000
11
1&
b10010101101010011010100000101011 +
b10010101101010011010100000101011 0
0,
1*
b11100100011100011111100011001000 (
b11100100011100011111100011001000 .
#860400
1'
#864000
0'
#867600
1'
#870000
b10110111010110011110101001101110 +
b10110111010110011110101001101110 0
1)
0*
b10001001011111110001110000010010 (
b10001001011111110001110000010010 .
#871200
0'
#874800
1'
#878400
0'
#880000
b10000111111001000100110000001111 +
b10000111111001000100110000001111 0
b1101101100010111000011111011011 (
b1101101100010111000011111011011 .
#882000
1'
#885600
0'
#889200
1'
#890000
bx $
bx /
bx 7
b1001000001110011110010110010000 +
b1001000001110011110010110010000 0
1,
1*
b10000110010100110110001000001100 (
b10000110010100110110001000001100 .
#892800
0'
#896400
1'
#900000
b0 $
b0 /
b0 7
0'
01
0&
b1001101110111010100110110011011 +
b1001101110111010100110110011011 0
0,
0)
b10110100111110011010010001101001 (
b10110100111110011010010001101001 .
#903600
1'
#907200
0'
#910000
11
1&
b111011111011010101001101110111 +
b111011111011010101001101110111 0
b1011100011110001011000110111000 (
b1011100011110001011000110111000 .
#910800
1'
#914400
0'
#918000
1'
#920000
b1000101111000101000101110001011 +
b1000101111000101000101110001011 0
1,
b1101010000101011111010111010100 (
b1101010000101011111010111010100 .
#921600
0'
#925200
1'
#928800
0'
#930000
b10011000001001111111101000110000 +
b10011000001001111111101000110000 0
0*
b1101101100000001000101111011011 (
b1101101100000001000101111011011 .
#932400
1'
#936000
0'
#939600
1'
#940000
b10000011011101101010110000000110 +
b10000011011101101010110000000110 0
0,
1)
1*
b10110011000000101101101001100110 (
b10110011000000101101101001100110 .
#943200
0'
#946800
1'
#950000
01
0&
b11110010100111000101111011100101 +
b11110010100111000101111011100101 0
0)
b1110000111011110011011111100001 (
b1110000111011110011011111100001 .
#950400
0'
#954000
1'
#957600
0'
#960000
11
1&
b110111000101010001010101101110 +
b110111000101010001010101101110 0
1,
1)
b110010001011110111110101100100 (
b110010001011110111110101100100 .
#961200
1'
#964800
0'
#968400
1'
#970000
b111100111111100001100001111 +
b111100111111100001100001111 0
0,
0)
0*
b1101010100111111011100111010101 (
b1101010100111111011100111010101 .
#972000
0'
#975600
1'
#979200
0'
#980000
b11010100101101011110011010101001 +
b11010100101101011110011010101001 0
b10111110100110111011110001111101 (
b10111110100110111011110001111101 .
#982800
1'
#986400
0'
#990000
1'
b1001100011100010110100010011 +
b1001100011100010110100010011 0
1,
1*
b10101101111001111101000001011011 (
b10101101111001111101000001011011 .
#993600
0'
#997200
1'
#1000000
b10011101000100100000100000111010 +
b10011101000100100000100000111010 0
1)
b110010110111000100000101100101 (
b110010110111000100000101100101 .
#1000800
0'
#1004400
1'
#1008000
0'
#1010000
b101100111011100101111101011001 +
b101100111011100101111101011001 0
0)
0*
b110001011111000000011101100010 (
b110001011111000000011101100010 .
#1011600
1'
#1015200
0'
#1018800
1'
#1020000
b11101101101001110001110011011011 +
b11101101101001110001110011011011 0
1)
1*
b1110110110111100110101111101101 (
b1110110110111100110101111101101 .
#1022400
0'
#1026000
1'
#1029600
0'
#1030000
01
0&
b10110101010101011101111001101010 +
b10110101010101011101111001101010 0
0)
0*
b111000000100111001111101110000 (
b111000000100111001111101110000 .
#1033200
1'
#1036800
0'
#1040000
b1111011011110111000100111110110 +
b1111011011110111000100111110110 0
0,
1)
1*
b10101000011011000101111001010000 (
b10101000011011000101111001010000 .
#1040400
1'
#1044000
0'
#1047600
1'
#1050000
11
1&
b10000111000011001110111000001110 +
b10000111000011001110111000001110 0
1,
0)
b10001110011001001101100100011 (
b10001110011001001101100100011 .
#1051200
0'
#1054800
1'
#1058400
0'
#1060000
bx $
bx /
bx 7
b1011100101000100110111110111001 +
b1011100101000100110111110111001 0
0*
b110011100010000001100001100 (
b110011100010000001100001100 .
#1062000
1'
#1065600
0'
#1069200
1'
#1070000
b0 $
b0 /
b0 7
b1011100101001001100000010 +
b1011100101001001100000010 0
1*
b1111010010011111011111111110100 (
b1111010010011111011111111110100 .
#1072800
0'
#1076400
1'
#1080000
0'
b10000100011111111011001000001000 +
b10000100011111111011001000001000 0
0,
0*
b10111110111111100100000101 (
b10111110111111100100000101 .
#1083600
1'
#1087200
0'
#1090000
b10100110001000001001000001001100 +
b10100110001000001001000001001100 0
1,
b11010111101101001000111010101111 (
b11010111101101001000111010101111 .
#1090800
1'
#1094400
0'
#1098000
1'
#1100000
b10110110010111111100100101101 +
b10110110010111111100100101101 0
0,
1)
1*
b10100000000001011010011001000000 (
b10100000000001011010011001000000 .
#1101600
0'
#1105200
1'
#1108800
0'
#1110000
b11010000110011110110101010100001 +
b11010000110011110110101010100001 0
0)
0*
b1011110001001010101000110111100 (
b1011110001001010101000110111100 .
#1112400
1'
#1116000
0'
#1119600
1'
#1120000
01
0&
b10110101010110001010011001101010 +
b10110101010110001010011001101010 0
1)
1*
b11111010111100110010111011110101 (
b11111010111100110010111011110101 .
#1123200
0'
#1126800
1'
#1130000
11
1&
b10000011111110100110010000000111 +
b10000011111110100110010000000111 0
0)
0*
b11011100010000110000100010111000 (
b11011100010000110000100010111000 .
#1130400
0'
#1134000
1'
#1137600
0'
#1140000
01
0&
b10101100100100111110000001011001 +
b10101100100100111110000001011001 0
1,
1)
1*
b10101010110110100111010001010101 (
b10101010110110100111010001010101 .
#1141200
1'
#1144800
0'
#1148400
1'
#1150000
11
1&
b1110010000111000010100011100 +
b1110010000111000010100011100 0
0,
0)
0*
b10110100010010010111011001101000 (
b10110100010010010111011001101000 .
#1152000
0'
#1155600
1'
#1159200
0'
#1160000
b10100010110011001000100001000101 +
b10100010110011001000100001000101 0
1)
b1010101100001100001111110101011 (
b1010101100001100001111110101011 .
#1162800
1'
#1166400
0'
#1170000
1'
b1100100101111000110100011001 +
b1100100101111000110100011001 0
0)
b1000101111100110010001110001011 (
b1000101111100110010001110001011 .
#1173600
0'
#1177200
1'
#1180000
01
0&
b101110001101100100001101011100 +
b101110001101100100001101011100 0
1*
b10011111001110011000111000111110 (
b10011111001110011000111000111110 .
#1180800
0'
#1184400
1'
#1188000
0'
#1190000
11
1&
b1101000100100000001100011010 +
b1101000100100000001100011010 0
1)
0*
b11001101000111010101000010011010 (
b11001101000111010101000010011010 .
#1191600
1'
#1195200
0'
#1198800
1'
#1200000
01
0&
b1110101101011010111001111101011 +
b1110101101011010111001111101011 0
1,
b1011001001101001110100110110010 (
b1011001001101001110100110110010 .
#1202400
0'
#1206000
1'
#1209600
0'
#1210000
b11010110101000010010100010101101 +
b11010110101000010010100010101101 0
1*
b1111001001011000000001111110010 (
b1111001001011000000001111110010 .
#1213200
1'
#1216800
0'
#1220000
11
1&
b11000000001110110011111010000000 +
b11000000001110110011111010000000 0
b10010010111110010001001000100101 (
b10010010111110010001001000100101 .
#1220400
1'
#1224000
0'
#1227600
1'
#1230000
b11001011010100000001100110010 +
b11001011010100000001100110010 0
0,
0*
b1000001001011011111110110000010 (
b1000001001011011111110110000010 .
#1231200
0'
#1234800
1'
#1238400
0'
#1240000
01
0&
b10010111010110011000100000101110 +
b10010111010110011000100000101110 0
0)
b11110010010010111010111011100100 (
b11110010010010111010111011100100 .
#1242000
1'
#1245600
0'
#1249200
1'
#1250000
11
1&
b1011111011000101011100010111 +
b1011111011000101011100010111 0
1*
b10111000110000001100001001110001 (
b10111000110000001100001001110001 .
#1252800
0'
#1256400
1'
#1260000
0'
01
0&
b11011111111101101111011010111111 +
b11011111111101101111011010111111 0
1,
1)
b1110101111110110010000111101011 (
b1110101111110110010000111101011 .
#1263600
1'
#1267200
0'
#1270000
11
1&
b111000111001101010011101110001 +
b111000111001101010011101110001 0
0,
0)
0*
b11101001101101001001101011010011 (
b11101001101101001001101011010011 .
#1270800
1'
#1274400
0'
#1278000
1'
#1280000
01
0&
b1110001110101110101100011100 +
b1110001110101110101100011100 0
1,
1)
1*
b10000111011000101000111000001110 (
b10000111011000101000111000001110 .
#1281600
0'
#1285200
1'
#1288800
0'
#1290000
b10000001111110100011011000000011 +
b10000001111110100011011000000011 0
0*
b11110110011100001000100011101100 (
b11110110011100001000100011101100 .
#1292400
1'
#1296000
0'
#1299600
1'
#1300000
b1011000000010011000100110110000 +
b1011000000010011000100110110000 0
0,
0)
b11111110101011011101110011111101 (
b11111110101011011101110011111101 .
#1303200
0'
#1306800
1'
#1310000
11
1&
b11011000011110000110100110110 +
b11011000011110000110100110110 0
1)
b1001000101100100110100010010 (
b1001000101100100110100010010 .
#1310400
0'
#1314000
1'
#1317600
0'
#1320000
01
0&
b10001010010001111011011000010100 +
b10001010010001111011011000010100 0
1,
1*
b1111101110111011010101111111011 (
b1111101110111011010101111111011 .
#1321200
1'
#1324800
0'
#1328400
1'
#1330000
b10011101111110101100000100 +
b10011101111110101100000100 0
0*
b11010011011001100110111010100110 (
b11010011011001100110111010100110 .
#1332000
0'
#1335600
1'
#1339200
0'
#1340000
b11100100110111110001011011001001 +
b11100100110111110001011011001001 0
1*
b1000110100010110110000110001101 (
b1000110100010110110000110001101 .
#1342800
1'
#1346400
0'
#1350000
1'
b111001110101100101011101110011 +
b111001110101100101011101110011 0
0,
0*
b10100011011001000011001001000110 (
b10100011011001000011001001000110 .
#1353600
0'
#1357200
1'
#1360000
b100001100000100000111101000011 +
b100001100000100000111101000011 0
0)
b1101110011011010010001111011100 (
b1101110011011010010001111011100 .
#1360800
0'
#1364400
1'
#1368000
0'
#1370000
b11000011101111101001001010000111 +
b11000011101111101001001010000111 0
1,
1*
b11010000101110011001101010100001 (
b11010000101110011001101010100001 .
#1371600
1'
#1375200
0'
#1378800
1'
#1380000
b10001001001011111100000000010010 +
b10001001001011111100000000010010 0
1)
0*
b10110100110011101000100101101 (
b10110100110011101000100101101 .
#1382400
0'
#1386000
1'
#1389600
0'
#1390000
b101010000110111010001101010100 +
b101010000110111010001101010100 0
0,
0)
1*
b110110110110110101100001101 (
b110110110110110101100001101 .
#1393200
1'
#1396800
0'
#1400000
11
1&
b10111100011110000001000001111000 +
b10111100011110000001000001111000 0
1)
b1001100011010001010100010011 (
b1001100011010001010100010011 .
#1400400
1'
#1404000
0'
#1407600
1'
#1410000
b10001010100110100110100100010 +
b10001010100110100110100100010 0
b10101111111011010010011001011111 (
b10101111111011010010011001011111 .
#1411200
0'
#1414800
1'
#1418400
0'
#1420000
b10010010011111111010010000100100 +
b10010010011111111010010000100100 0
1,
0)
0*
b11100011111010110100110011000111 (
b11100011111010110100110011000111 .
#1422000
1'
#1425600
0'
#1429200
1'
#1430000
bx $
bx /
bx 7
01
0&
b11100001010100001001100111000 +
b11100001010100001001100111000 0
0,
1)
1*
b10000100011001010001010000001000 (
b10000100011001010001010000001000 .
#1432800
0'
#1436400
1'
#1440000
b0 $
b0 /
b0 7
0'
b110010110000111101111101100101 +
b110010110000111101111101100101 0
0*
b10101100000001011010000001011000 (
b10101100000001011010000001011000 .
#1443600
1'
#1447200
0'
#1450000
11
1&
b100100011001110011100101001000 +
b100100011001110011100101001000 0
b11011100000011100100000110 (
b11011100000011100100000110 .
#1450800
1'
#1454400
0'
#1458000
1'
#1460000
b1001101100111101110001110011011 +
b1001101100111101110001110011011 0
1,
1*
b1111100000111011111001111111000 (
b1111100000111011111001111111000 .
#1461600
0'
#1465200
1'
#1468800
0'
#1470000
b10001100001110001100010000011000 +
b10001100001110001100010000011000 0
0,
b1011000000101100101001110110000 (
b1011000000101100101001110110000 .
#1472400
1'
#1476000
0'
#1479600
1'
#1480000
b10111100010111001011100101111 +
b10111100010111001011100101111 0
1,
b10100011011010101110100001000110 (
b10100011011010101110100001000110 .
#1483200
0'
#1486800
1'
#1490000
b101100010101110111100101011000 +
b101100010101110111100101011000 0
0)
b11101111000111011110101011011110 (
b11101111000111011110101011011110 .
#1490400
0'
#1494000
1'
#1497600
0'
#1500000
b1101011001010011001110111010110 +
b1101011001010011001110111010110 0
0,
0*
b1100001110110111110010111000011 (
b1100001110110111110010111000011 .
#1501200
1'
#1504800
0'
#1508400
1'
#1510000
b100010111010101101101101000101 +
b100010111010101101101101000101 0
1,
b11000001101100000100010010000011 (
b11000001101100000100010010000011 .
#1512000
0'
#1515600
1'
#1519200
0'
#1520000
01
0&
b110110000000010101100101101100 +
b110110000000010101100101101100 0
0,
1*
b100010100111010000101101000101 (
b100010100111010000101101000101 .
#1522800
1'
#1526400
0'
#1530000
1'
11
1&
b10000111001011010010110000001110 +
b10000111001011010010110000001110 0
1,
0*
b11000101111010110001100110001 (
b11000101111010110001100110001 .
#1533600
0'
#1537200
1'
#1540000
01
0&
b10100000001111111000100101000 +
b10100000001111111000100101000 0
0,
1)
b11011001010110110100000010110010 (
b11011001010110110100000010110010 .
#1540800
0'
#1544400
1'
#1548000
0'
#1550000
b11000101110011110111001010001011 +
b11000101110011110111001010001011 0
1,
0)
1*
b1001101001000000000100110011010 (
b1001101001000000000100110011010 .
#1551600
1'
#1555200
0'
#1558800
1'
#1560000
11
1&
b10111101111000110100100001111011 +
b10111101111000110100100001111011 0
b11100110010010000010100011001100 (
b11100110010010000010100011001100 .
#1562400
0'
#1566000
1'
#1569600
0'
#1570000
b101010000111010111001101010100 +
b101010000111010111001101010100 0
0,
1)
0*
b11001000100000011011110010010001 (
b11001000100000011011110010010001 .
#1573200
1'
#1576800
0'
#1580000
b10101101111011100000000001011011 +
b10101101111011100000000001011011 0
1,
0)
1*
b10100100110111100010100001001001 (
b10100100110111100010100001001001 .
#1580400
1'
#1584000
0'
#1587600
1'
#1590000
01
0&
b11010111111000011010111010101111 +
b11010111111000011010111010101111 0
0,
1)
b1001010111111101011111110010101 (
b1001010111111101011111110010101 .
#1591200
0'
#1594800
1'
#1598400
0'
#1600000
b11111111110111000000100111111 +
b11111111110111000000100111111 0
0*
b10001001011001000110000000010010 (
b10001001011001000110000000010010 .
#1602000
1'
#1605600
0'
#1609200
1'
#1610000
11
1&
b111010000010010110101101110100 +
b111010000010010110101101110100 0
0)
b111001100010100001100101110011 (
b111001100010100001100101110011 .
#1612800
0'
#1616400
1'
#1620000
0'
01
0&
b1001111110110111110110110011111 +
b1001111110110111110110110011111 0
1)
b1110001001100101011101111100010 (
b1110001001100101011101111100010 .
#1623600
1'
#1627200
0'
#1630000
11
1&
b10101010000010001010110001010100 +
b10101010000010001010110001010100 0
1*
b1111001000100011000100111110010 (
b1111001000100011000100111110010 .
#1630800
1'
#1634400
0'
#1638000
1'
