memory/l2_cache_ctrl/tb_l2_cache_ctrl.vcd
$date
	Fri Jun  5 15:18:51 2026
$end
$version
	Icarus Verilog
$end
$timescale
	1ps
$end
$scope module tb_l2_cache_ctrl $end
$var wire 1 ! tag_we $end
$var wire 6 " tag_index [5:0] $end
$var wire 28 # tag_in [27:0] $end
$var wire 1 $ tag_cs $end
$var wire 1 % s_wready $end
$var wire 1 & s_rvalid $end
$var wire 2 ' s_rresp [1:0] $end
$var wire 64 ( s_rdata [63:0] $end
$var wire 1 ) s_bvalid $end
$var wire 2 * s_bresp [1:0] $end
$var wire 1 + s_awready $end
$var wire 1 , s_arready $end
$var wire 1 - m_wvalid $end
$var wire 8 . m_wstrb [7:0] $end
$var wire 64 / m_wdata [63:0] $end
$var wire 1 0 m_rready $end
$var wire 1 1 m_bready $end
$var wire 1 2 m_awvalid $end
$var wire 40 3 m_awaddr [39:0] $end
$var wire 1 4 m_arvalid $end
$var wire 40 5 m_araddr [39:0] $end
$var wire 4 6 dat_wmask [3:0] $end
$var wire 1 7 dat_we $end
$var wire 32 8 dat_din [31:0] $end
$var wire 1 9 dat_cs $end
$var wire 1 : dat_bank $end
$var wire 6 ; dat_addr [5:0] $end
$var reg 1 < clk $end
$var reg 32 = dat_dout [31:0] $end
$var reg 1 > dat_dout_valid $end
$var reg 1 ? m_arready $end
$var reg 1 @ m_awready $end
$var reg 1 A m_bvalid $end
$var reg 64 B m_rdata [63:0] $end
$var reg 2 C m_rresp [1:0] $end
$var reg 1 D m_rvalid $end
$var reg 1 E m_wready $end
$var reg 1 F rst_n $end
$var reg 40 G s_araddr [39:0] $end
$var reg 1 H s_arvalid $end
$var reg 40 I s_awaddr [39:0] $end
$var reg 1 J s_awvalid $end
$var reg 1 K s_bready $end
$var reg 1 L s_rready $end
$var reg 64 M s_wdata [63:0] $end
$var reg 8 N s_wstrb [7:0] $end
$var reg 1 O s_wvalid $end
$var reg 28 P tag_out [27:0] $end
$var reg 1 Q tag_valid_out $end
$scope module uut $end
$var wire 1 R cache_hit $end
$var wire 1 < clk $end
$var wire 32 S dat_dout [31:0] $end
$var wire 1 > dat_dout_valid $end
$var wire 1 ? m_arready $end
$var wire 1 @ m_awready $end
$var wire 1 A m_bvalid $end
$var wire 64 T m_rdata [63:0] $end
$var wire 2 U m_rresp [1:0] $end
$var wire 1 D m_rvalid $end
$var wire 1 E m_wready $end
$var wire 1 F rst_n $end
$var wire 40 V s_araddr [39:0] $end
$var wire 1 H s_arvalid $end
$var wire 40 W s_awaddr [39:0] $end
$var wire 1 J s_awvalid $end
$var wire 1 K s_bready $end
$var wire 1 L s_rready $end
$var wire 64 X s_wdata [63:0] $end
$var wire 8 Y s_wstrb [7:0] $end
$var wire 1 O s_wvalid $end
$var wire 28 Z tag_out [27:0] $end
$var wire 1 Q tag_valid_out $end
$var wire 28 [ req_tag [27:0] $end
$var wire 6 \ req_index [5:0] $end
$var parameter 32 ] ADDR_W $end
$var parameter 32 ^ DATA_W $end
$var parameter 32 _ IDX_W $end
$var parameter 32 ` OFF_W $end
$var parameter 3 a ST_FILL $end
$var parameter 3 b ST_HIT $end
$var parameter 3 c ST_IDLE $end
$var parameter 3 d ST_MISS_FETCH $end
$var parameter 3 e ST_RESP $end
$var parameter 3 f ST_TAG_LU $end
$var parameter 3 g ST_WRTHR $end
$var parameter 32 h TAG_W $end
$var reg 6 i dat_addr [5:0] $end
$var reg 1 : dat_bank $end
$var reg 1 9 dat_cs $end
$var reg 32 j dat_din [31:0] $end
$var reg 1 7 dat_we $end
$var reg 4 k dat_wmask [3:0] $end
$var reg 64 l fetch_data [63:0] $end
$var reg 40 m m_araddr [39:0] $end
$var reg 1 4 m_arvalid $end
$var reg 40 n m_awaddr [39:0] $end
$var reg 1 2 m_awvalid $end
$var reg 1 1 m_bready $end
$var reg 1 0 m_rready $end
$var reg 64 o m_wdata [63:0] $end
$var reg 8 p m_wstrb [7:0] $end
$var reg 1 - m_wvalid $end
$var reg 40 q req_addr [39:0] $end
$var reg 64 r req_wdata [63:0] $end
$var reg 1 s req_wr $end
$var reg 8 t req_wstrb [7:0] $end
$var reg 1 , s_arready $end
$var reg 1 + s_awready $end
$var reg 2 u s_bresp [1:0] $end
$var reg 1 ) s_bvalid $end
$var reg 64 v s_rdata [63:0] $end
$var reg 2 w s_rresp [1:0] $end
$var reg 1 & s_rvalid $end
$var reg 1 % s_wready $end
$var reg 3 x state [2:0] $end
$var reg 1 $ tag_cs $end
$var reg 28 y tag_in [27:0] $end
$var reg 6 z tag_index [5:0] $end
$var reg 1 ! tag_we $end
$upscope $end
$upscope $end
$enddefinitions $end
$comment Show the parameter values. $end
$dumpall
b11100 h
b101 g
b1 f
b110 e
b11 d
b0 c
b10 b
b100 a
b110 `
b110 _
b1000000 ^
b101000 ]
$end
#0
$dumpvars
bx z
bx y
bx x
bx w
bx v
bx u
bx t
xs
bx r
bx q
bx p
bx o
bx n
bx m
bx l
bx k
bx j
bx i
bx \
bx [
b0 Z
b0 Y
b0 X
b0 W
b0 V
b0 U
b0 T
b0 S
0R
0Q
b0 P
0O
b0 N
b0 M
0L
0K
0J
b0 I
0H
b0 G
xF
0E
0D
b0 C
b0 B
0A
0@
0?
0>
b0 =
0<
bx ;
x:
x9
bx 8
x7
bx 6
bx 5
x4
bx 3
x2
x1
x0
bx /
bx .
x-
x,
x+
bx *
x)
bx (
bx '
x&
x%
x$
bx #
bx "
x!
$end
#3600
b0 x
0)
0&
09
0$
1<
#7200
0<
#10000
b0 [
b0 \
0s
b0 q
07
0!
01
00
0-
02
04
b0 *
b0 u
b0 '
b0 w
b0 (
b0 v
1%
1+
1,
0F
#10800
1<
#14400
0<
#18000
1<
#21600
0<
#25200
1<
#28800
0<
#32400
1<
#36000
0<
#39600
1<
#43200
0<
#46800
1<
#50400
0<
#54000
1<
#57600
0<
#61200
1<
#64800
0<
#68400
1<
#72000
0<
#75600
1<
#79200
0<
#82800
1<
#86400
0<
#90000
1<
#93600
0<
#97200
1<
#100800
0<
#104400
1<
#108000
0<
#110000
1F
#111600
1<
#115200
0<
#118800
1<
#122400
0<
#126000
1<
#129600
0<
#133200
1<
#136800
0<
#140000
1>
b1110010101011111111011111100101 =
b1110010101011111111011111100101 S
b10111101111000010011000101 P
b10111101111000010011000101 Z
1E
b1 C
b1 U
b11110100011011100110100111101 B
b11110100011011100110100111101 T
1?
1K
b10010 N
b10010 Y
b1111111111111111111111111111111110110010110000101000010001100101 M
b1111111111111111111111111111111110110010110000101000010001100101 X
1O
b110101110010111101100001101 I
b110101110010111101100001101 W
1J
1L
b1111111111000000100010010101111010000001 G
b1111111111000000100010010101111010000001 V
#140400
b110101110010111 [
b101100 \
b1 x
b101100 "
b101100 z
1$
0%
0+
1s
b10010 t
b1111111111111111111111111111111110110010110000101000010001100101 r
b110101110010111101100001101 q
1<
#144000
0<
#147600
b11 x
10
b110101110010111101100000000 5
b110101110010111101100000000 m
14
0$
1<
#150000
b10000110101111000011100000001101 =
b10000110101111000011100000001101 S
1Q
b1011001000000011111010010110 P
b1011001000000011111010010110 Z
1A
0E
b0 C
b0 U
b101011100111000011100001010 B
b101011100111000011100001010 T
1D
b10111101 N
b10111101 Y
b101110010110000100100101011100 M
b101110010110000100100101011100 X
b1111111111110100000000000111101011101000 I
b1111111111110100000000000111101011101000 W
0J
0L
b1000111111011001101101110001111 G
b1000111111011001101101110001111 V
#151200
0<
#154800
b100 x
b110101110010111 #
b110101110010111 y
1!
1$
b1111 6
b1111 k
b101011100111000011100001010 8
b101011100111000011100001010 j
b101100 ;
b101100 i
0:
17
19
00
b101011100111000011100001010 l
04
1<
#158400
0<
#160000
0>
b1100011010010111111100111000110 =
b1100011010010111111100111000110 S
0Q
b101110001010000110111101011 P
b101110001010000110111101011 Z
b1 C
b1 U
b1000101001011100110000110001010 B
b1000101001011100110000110001010 T
0D
0?
0K
b1010 N
b1010 Y
b10001100001000100100100100011 M
b10001100001000100100100100011 X
b1110111111111110100100011101 I
b1110111111111110100100011101 W
b1111111111101010101001100010101011010101 G
b1111111111101010101001100010101011010101 V
1H
#162000
b101 x
09
0$
1<
#165600
0<
#169200
1)
01
b10010 .
b10010 p
b1111111111111111111111111111111110110010110000101000010001100101 /
b1111111111111111111111111111111110110010110000101000010001100101 o
1-
b110101110010111101100001101 3
b110101110010111101100001101 n
12
1<
#170000
b11001111110001000101011010011111 =
b11001111110001000101011010011111 S
1Q
b1100011011011010100111111000 P
b1100011011011010100111111000 Z
1E
b10 C
b10 U
b1101100100111000100101111011001 B
b1101100100111000100101111011001 T
1D
1?
b111010 N
b111010 Y
b1111111111111111111111111111111110011101110011000110000000111011 M
b1111111111111111111111111111111110011101110011000110000000111011 X
b1000010111100100100000110000101 I
b1000010111100100100000110000101 W
1J
1L
b10101000011111101110100101010 G
b10101000011111101110100101010 V
0H
#172800
0<
#176400
0-
01
1)
1<
#180000
0<
b1000010110110010010111110000101 =
b1000010110110010010111110000101 S
b1111110100101000111100011111 P
b1111110100101000111100011111 Z
b11110111100101110110100111101 B
b11110111100101110110100111101 T
0?
b1100 N
b1100 Y
b1001011001000010010111110010110 M
b1001011001000010010111110010110 X
b1111111111101011111111101100000011010111 I
b1111111111101011111111101100000011010111 W
0J
b1000100110111100011011110001001 G
b1000100110111100011011110001001 V
1H
#183600
01
0-
1)
1<
#187200
0<
#190000
b11110011000010010001101011100110 =
b11110011000010010001101011100110 S
b1011111110001111110111110111 P
b1011111110001111110111110111 Z
0A
1@
b11 C
b11 U
b1111111111111111111111111111111111010001100010111011010010100011 B
b1111111111111111111111111111111111010001100010111011010010100011 T
b10011100 N
b10011100 Y
b1111111111111111111111111111111111000111000110100000110010001110 M
b1111111111111111111111111111111111000111000110100000110010001110 X
0O
b101100000101010110001101011000 I
b101100000101010110001101011000 W
b100100100010110100101101001001 G
b100100100010110100101101001001 V
#190800
02
11
0-
0)
1<
#194400
0<
#198000
0-
02
1<
#200000
b10110011110110010111011001100111 =
b10110011110110010111011001100111 S
0Q
b1011000011101110110101010110 P
b1011000011101110110101010110 Z
1A
0@
b0 C
b0 U
b111011011111100111100001110 B
b111011011111100111100001110 T
b1000100 N
b1000100 Y
b111100111100010001100101111001 M
b111100111100010001100101111001 X
1O
b1111111111011010100010101110001010110101 I
b1111111111011010100010101110001010110101 W
1J
0L
b1111111111110110100000101110001011101101 G
b1111111111110110100000101110001011101101 V
#201600
0<
#205200
1)
01
0-
12
1<
#208800
0<
#210000
1>
b1111011110100100110000111110111 =
b1111011110100100110000111110111 S
b11000001110001101001000110 P
b11000001110001101001000110 Z
0E
b10 C
b10 U
b1111111111111111111111111111111110110110101001000010011001101101 B
b1111111111111111111111111111111110110110101001000010011001101101 T
1?
1K
b1011001 N
b1011001 Y
b1111111111111111111111111111111110000010001111110010110000000100 M
b1111111111111111111111111111111110000010001111110010110000000100 X
b1001010011101001011111110010100 I
b1001010011101001011111110010100 W
0J
1L
b1111111110011100000011101000101000111000 G
b1111111110011100000011101000101000111000 V
0H
#212400
b0 x
01
1-
1)
1<
#216000
0<
#219600
1%
1+
0)
1<
#220000
0>
b101111001110101011001101011110 =
b101111001110101011001101011110 S
b1001111101010000010001110011 P
b1001111101010000010001110011 Z
0A
1@
b1000011001101010110011110000110 B
b1000011001101010110011110000110 T
0D
b11100 N
b11100 Y
b1111111111111111111111111111111110000100011101111110010000001000 M
b1111111111111111111111111111111110000100011101111110010000001000 X
0O
b1111111111100011110001010011000011000111 I
b1111111111100011110001010011000011000111 W
1J
0L
b1000100000000011000110110001000 G
b1000100000000011000110110001000 V
#223200
0<
#226800
1<
#230000
1>
b1011100101000000100100010111 =
b1011100101000000100100010111 S
1Q
b1101001010001110010011111010 P
b1101001010001110010011111010 Z
1A
1E
b111100000000111111111101111000 B
b111100000000111111111101111000 T
0?
b10110110 N
b10110110 Y
b10011001001011001111100100110 M
b10011001001011001111100100110 X
b1001011001001110011011110010110 I
b1001011001001110011011110010110 W
1L
b1111111110001101001001001111011000011010 G
b1111111110001101001001001111011000011010 V
1H
#230400
0<
#234000
b1111111110001101001001001111 [
b11000 \
b1 x
b11000 "
b11000 z
0!
1$
0,
0s
b1111111110001101001001001111011000011010 q
1<
#237600
0<
#240000
0>
b11001111110101101100000010011111 =
b11001111110101101100000010011111 S
0Q
b111000010111011100100001110 P
b111000010111011100100001110 Z
0@
b1111111111111111111111111111111111000101010100000001011010001010 B
b1111111111111111111111111111111111000101010100000001011010001010 T
1?
b10011000 N
b10011000 Y
b1111111111111111111111111111111111100010111001010111010011000101 M
b1111111111111111111111111111111111100010111001010111010011000101 X
1O
b1111111110010100100110101000101000101001 I
b1111111110010100100110101000101000101001 W
b1111111110101000011000111001011001010000 G
b1111111110101000011000111001011001010000 V
0H
#241200
b11 x
10
b1111111110001101001001001111011000000000 5
b1111111110001101001001001111011000000000 m
14
0$
1<
#244800
0<
#248400
04
1<
#250000
b1111101011011011111010111111010 =
b1111101011011011111010111111010 S
b1111101110110011101101111111 P
b1111101110110011101101111111 Z
0A
0E
1@
b0 C
b0 U
b1011101000001011001110110111010 B
b1011101000001011001110110111010 T
b10011 N
b10011 Y
b1100101001000110100010111001010 M
b1100101001000110100010111001010 X
0O
b1111111110111100110011111010100001111001 I
b1111111110111100110011111010100001111001 W
0J
0L
b1111111111000110101101011111010010001101 G
b1111111111000110101101011111010010001101 V
#252000
0<
#255600
1<
#259200
0<
#260000
b1001101111100111000000110011011 =
b1001101111100111000000110011011 S
b100011001011110011110001000 P
b100011001011110011110001000 Z
1A
1E
b10 C
b10 U
b1100100110010000011110111001001 B
b1100100110010000011110111001001 T
1D
b10001110 N
b10001110 Y
b1111111111111111111111111111111111010000100101011010100010100001 M
b1111111111111111111111111111111111010000100101011010100010100001 X
1O
b1100101010000111100111111001010 I
b1100101010000111100111111001010 W
b1111111111011110110011100101111010111101 G
b1111111111011110110011100101111010111101 V
#262800
b100 x
b1111111110001101001001001111 #
b1111111110001101001001001111 y
1!
1$
b1100100110010000011110111001001 8
b1100100110010000011110111001001 j
b11000 ;
b11000 i
19
00
b1100100110010000011110111001001 l
1<
#266400
0<
#270000
b0 x
1&
b1100100110010000011110111001001 (
b1100100110010000011110111001001 v
09
0$
1<
b111001101011000000001101110011 =
b111001101011000000001101110011 S
b1011001101111101011100010 P
b1011001101111101011100010 Z
0E
b0 C
b0 U
b1111111111111111111111111111111110011101101111110110010000111011 B
b1111111111111111111111111111111110011101101111110110010000111011 T
0?
b11000 N
b11000 Y
b1110110011110011111110111101100 M
b1110110011110011111110111101100 X
b1111111110001111000111001111011000011110 I
b1111111110001111000111001111011000011110 W
1L
b1111111110010110100001001110000000101101 G
b1111111110010110100001001110000000101101 V
#273600
0<
#277200
1,
0&
1<
#280000
1>
b101010110000101101010101010101 =
b101010110000101101010101010101 S
1Q
b1011001000100111000010010110 P
b1011001000100111000010010110 Z
0A
0@
b1111111111111111111111111111111110000010001000100011101000000100 B
b1111111111111111111111111111111110000010001000100011101000000100 T
1?
b11001000 N
b11001000 Y
b1000000100100000101110110000001 M
b1000000100100000101110110000001 X
b1111111111010000110001011101110010100001 I
b1111111111010000110001011101110010100001 W
1J
b1111111111011100000000110100010010111000 G
b1111111111011100000000110100010010111000 V
#280800
0<
#284400
b1111111111010000110001011101 [
b110010 \
b1 x
b110010 "
b110010 z
0!
1$
0%
0+
1s
b11001000 t
b1000000100100000101110110000001 r
b1111111111010000110001011101110010100001 q
1<
#288000
0<
#290000
0>
b10111001010001100001010001110010 =
b10111001010001100001010001110010 S
0Q
b1101000010000010110000011 P
b1101000010000010110000011 Z
1A
b1 C
b1 U
b101000100000111011000101010001 B
b101000100000111011000101010001 T
b10111001 N
b10111001 Y
b1111111111111111111111111111111111110011110101111010011011100111 M
b1111111111111111111111111111111111110011110101111010011011100111 X
b1000010010010011111111110000100 I
b1000010010010011111111110000100 W
b1111010101100010001101111110101 G
b1111010101100010001101111110101 V
1H
#291600
b11 x
10
b1111111111010000110001011101110010000000 5
b1111111111010000110001011101110010000000 m
14
0$
1<
#295200
0<
#298800
b100 x
b1111111111010000110001011101 #
b1111111111010000110001011101 y
1!
1$
b101000100000111011000101010001 8
b101000100000111011000101010001 j
b110010 ;
b110010 i
19
00
b101000100000111011000101010001 l
04
1<
#300000
1>
b1011111000101001110100010111 =
b1011111000101001110100010111 S
1Q
b1010111011000011010100010101 P
b1010111011000011010100010101 Z
0A
b0 C
b0 U
b11100110111100111000100111001 B
b11100110111100111000100111001 T
0D
0?
b11110110 N
b11110110 Y
b1111111111111111111111111111111110010100000010010111011000101000 M
b1111111111111111111111111111111110010100000010010111011000101000 X
0O
b11100011100011001011100111000 I
b11100011100011001011100111000 W
0J
0L
b1111111110110111110111111010101001101111 G
b1111111110110111110111111010101001101111 V
0H
#302400
0<
#306000
b101 x
09
0$
1<
#309600
0<
#310000
0>
b111001011000000000100101110010 =
b111001011000000000100101110010 S
0Q
b1010100011101000100000 P
b1010100011101000100000 Z
1A
b11 C
b11 U
b1011011011000001110010110110110 B
b1011011011000001110010110110110 T
1D
1?
0K
b101100 N
b101100 Y
b11110101100010011100000111 M
b11110101100010011100000111 X
b1111111111000110100111011010001010001101 I
b1111111111000110100111011010001010001101 W
1J
1L
b1111111111000011001101100000010010000110 G
b1111111111000011001101100000010010000110 V
1H
#313200
1)
01
b11001000 .
b11001000 p
b1000000100100000101110110000001 /
b1000000100100000101110110000001 o
b1111111111010000110001011101110010100001 3
b1111111111010000110001011101110010100001 n
1<
#316800
0<
#320000
b1000110110111001011011110001101 =
b1000110110111001011011110001101 S
b1001011110100001010101010010 P
b1001011110100001010101010010 Z
1@
b0 C
b0 U
b1011000111110010011110110110001 B
b1011000111110010011110110110001 T
1K
b10001111 N
b10001111 Y
b1111111111111111111111111111111110111101111000001101001001111011 M
b1111111111111111111111111111111110111101111000001101001001111011 X
1O
b1111111111001111011000111101101010011110 I
b1111111111001111011000111101101010011110 W
b1111111110000110110111001111000000001101 G
b1111111110000110110111001111000000001101 V
#320400
b0 x
02
01
1)
1<
#324000
0<
#327600
b1111111110000110110111001111 [
b0 \
b1 x
b0 "
b0 z
0!
1$
0,
0s
b1111111110000110110111001111000000001101 q
1%
1+
0)
1<
#330000
1>
b10011110110010011100000000111101 =
b10011110110010011100000000111101 S
b100100011110111110001001001 P
b100100011110111110001001001 Z
0A
b10 C
b10 U
b1111111111111111111111111111111111000101101000010110000010001011 B
b1111111111111111111111111111111111000101101000010110000010001011 T
0D
0?
0K
b10101010 N
b10101010 Y
b1000010011110110101011110000100 M
b1000010011110110101011110000100 X
0O
b1011111010101100000100010111 I
b1011111010101100000100010111 W
0J
0L
b100011011010101111110101000110 G
b100011011010101111110101000110 V
0H
#331200
0<
#334800
b11 x
10
b1111111110000110110111001111000000000000 5
b1111111110000110110111001111000000000000 m
14
0$
1<
#338400
0<
#340000
b10011100101001110000010000111001 =
b10011100101001110000010000111001 S
1Q
b10000011101110111110100100 P
b10000011101110111110100100 Z
1A
b11 C
b11 U
b1110100011010101111111111101000 B
b1110100011010101111111111101000 T
1D
1K
b10001100 N
b10001100 Y
b1111111111111111111111111111111110010110001000100101000000101100 M
b1111111111111111111111111111111110010110001000100101000000101100 X
b1111111111011010000001011000101010110100 I
b1111111111011010000001011000101010110100 W
1J
b100011100100000111010101000111 G
b100011100100000111010101000111 V
#342000
b100 x
b1111111110000110110111001111 #
b1111111110000110110111001111 y
1!
1$
b1110100011010101111111111101000 8
b1110100011010101111111111101000 j
b0 ;
b0 i
19
00
b1110100011010101111111111101000 l
1<
#345600
0<
#349200
1&
b1110100011010101111111111101000 (
b1110100011010101111111111101000 v
09
0$
1<
#350000
0>
b10001001011111110001110000010010 =
b10001001011111110001110000010010 S
b101101010011010100000101011 P
b101101010011010100000101011 Z
0A
b0 C
b0 U
b1111111111111111111111111111111110010101010010111000001000101010 B
b1111111111111111111111111111111110010101010010111000001000101010 T
1?
0K
b100000 N
b100000 Y
b1111111111111111111111111111111111101100101110010001101011011001 M
b1111111111111111111111111111111111101100101110010001101011011001 X
1O
b1000001000100000011100110000010 I
b1000001000100000011100110000010 W
0J
1L
b110011100000110110010101100111 G
b110011100000110110010101100111 V
#352800
0<
#356400
b0 x
1&
1<
#360000
0<
b100101001000110110010101001010 =
b100101001000110110010101001010 S
b100111110011010010001101001 P
b100111110011010010001101001 Z
1A
b1 C
b1 U
b101100101010000001100101011001 B
b101100101010000001100101011001 T
0D
1K
b0 N
b0 Y
b1011101100001011101001110111011 M
b1011101100001011101001110111011 X
0O
b1101101100010111000011111011011 I
b1101101100010111000011111011011 W
1J
0L
b1111111111101000001010111001011011010000 G
b1111111111101000001010111001011011010000 V
1H
#363600
b1111111111101000001010111001 [
b11011 \
b1 x
b11011 "
b11011 z
0!
1$
b1111111111101000001010111001011011010000 q
0,
0&
1<
#367200
0<
#370000
1>
b10011000001001111111101000110000 =
b10011000001001111111101000110000 S
b1000111011001111111000010 P
b1000111011001111111000010 Z
0A
1E
b11 C
b11 U
b1110100101000011010110111101001 B
b1110100101000011010110111101001 T
0K
b10110101 N
b10110101 Y
b111011111011010101001101110111 M
b111011111011010101001101110111 X
b1111111111000011011110001110111010000110 I
b1111111111000011011110001110111010000110 W
b1111111111100010000011101001101011000100 G
b1111111111100010000011101001101011000100 V
#370800
b11 x
10
b1111111111101000001010111001011011000000 5
b1111111111101000001010111001011011000000 m
0$
1<
#374400
0<
#378000
04
1<
#380000
0>
b1101010100111111011100111010101 =
b1101010100111111011100111010101 S
b111000101010001010101101110 P
b111000101010001010101101110 Z
1A
b0 C
b0 U
b1111111111111111111111111111111110010100001000001110101000101000 B
b1111111111111111111111111111111110010100001000001110101000101000 T
1D
0?
b10010101 N
b10010101 Y
b1110000111011110011011111100001 M
b1110000111011110011011111100001 X
1O
b1111111110000011011101101010110000000110 I
b1111111110000011011101101010110000000110 W
0J
1L
b1010111111110111011100110101111 G
b1010111111110111011100110101111 V
0H
#381600
0<
#385200
b100 x
b1111111111101000001010111001 #
b1111111111101000001010111001 y
1!
1$
b10010100001000001110101000101000 8
b10010100001000001110101000101000 j
b11011 ;
b11011 i
1:
19
00
b1111111111111111111111111111111110010100001000001110101000101000 l
1<
#388800
0<
#390000
1>
b11011011100110000011101010110111 =
b11011011100110000011101010110111 S
b10110111000100000101100101 P
b10110111000100000101100101 Z
b10 C
b10 U
b1111111111111111111111111111111111010111101000100011110010101111 B
b1111111111111111111111111111111111010111101000100011110010101111 T
1?
1K
b111100 N
b111100 Y
b1111111111111111111111111111111111110001011000011101110011100010 M
b1111111111111111111111111111111111110001011000011101110011100010 X
0O
b1111111110111110100110111011110001111101 I
b1111111110111110100110111011110001111101 W
1J
b1111111111010101011110000000000010101010 G
b1111111111010101011110000000000010101010 V
#392400
b0 x
1&
b1111111111111111111111111111111110010100001000001110101000101000 (
b1111111111111111111111111111111110010100001000001110101000101000 v
09
0$
1<
#396000
0<
#399600
1,
0&
1<
#400000
0>
b10110101010101011101111001101010 =
b10110101010101011101111001101010 S
b1010010000010000010100010 P
b1010010000010000010100010 Z
0A
0E
b11 C
b11 U
b1010111110000011101000110101111 B
b1010111110000011101000110101111 T
b11100101 N
b11100101 Y
b101100111011100101111101011001 M
b101100111011100101111101011001 X
1O
b10101000100111101110100101010 I
b10101000100111101110100101010 W
0J
0L
b1111111110111000111010100011101001110001 G
b1111111110111000111010100011101001110001 V
#403200
0<
#406800
1<
#410000
1>
b1111010010011111011111111110100 =
b1111010010011111011111111110100 S
b1100101000100110111110111001 P
b1100101000100110111110111001 Z
1A
0@
b0 C
b0 U
b1111111111111111111111111111111110111001100001111001010001110011 B
b1111111111111111111111111111111110111001100001111001010001110011 T
0D
0K
b1111001 N
b1111001 Y
b10001110011001001101100100011 M
b10001110011001001101100100011 X
0O
b1111011011110111000100111110110 I
b1111011011110111000100111110110 W
1L
b1111111110111101100001101111010001111011 G
b1111111110111101100001101111010001111011 V
#410400
0<
#414000
1<
#417600
0<
#420000
0>
b10000110111010111011011000001101 =
b10000110111010111011011000001101 S
b1011010011001000000 P
b1011010011001000000 Z
1@
b1110100011100110011000111101000 B
b1110100011100110011000111101000 T
1D
b10111000 N
b10111000 Y
b1001111110010100100000010 M
b1001111110010100100000010 X
b10111110111111100100000101 I
b10111110111111100100000101 W
1J
0L
b1111111110011100111111000111101000111001 G
b1111111110011100111111000111101000111001 V
#421200
1<
#424800
0<
#428400
1<
#430000
1>
b10000011111110100110010000000111 =
b10000011111110100110010000000111 S
0Q
b1101011110010000011011111010 P
b1101011110010000011011111010 Z
0A
0@
b10 C
b10 U
b1111111111111111111111111111111111001010010010000001001010010100 B
b1111111111111111111111111111111111001010010010000001001010010100 T
1K
b1001101 N
b1001101 Y
b1111111111111111111111111111111111010000110011110110101010100001 M
b1111111111111111111111111111111111010000110011110110101010100001 X
b1100000001001110010110111000000 I
b1100000001001110010110111000000 W
0J
b1111111110010100110111101101100000101001 G
b1111111110010100110111101101100000101001 V
1H
#432000
0<
#435600
b1111111110010100110111101101 [
b100000 \
b1 x
b100000 "
b100000 z
0!
1$
0,
b1111111110010100110111101101100000101001 q
1<
#439200
0<
#440000
0>
b1000101111100110010001110001011 =
b1000101111100110010001110001011 S
1Q
b10110011001000100001000101 P
b10110011001000100001000101 Z
1E
b11 C
b11 U
b1011100100110010110011110111001 B
b1011100100110010110011110111001 T
0D
0?
0K
b11110 N
b11110 Y
b1111111111111111111111111111111110110100010010010111011001101000 M
b1111111111111111111111111111111110110100010010010111011001101000 X
b1111111110101100100100111110000001011001 I
b1111111110101100100100111110000001011001 W
1J
1L
b1011011110100111101101110110111 G
b1011011110100111101101110110111 V
#442800
b11 x
10
b1111111110010100110111101101100000000000 5
b1111111110010100110111101101100000000000 m
14
0$
1<
#446400
0<
#450000
1<
1>
b11110100111100000000111011101001 =
b11110100111100000000111011101001 S
0Q
b1001001101001110100110110010 P
b1001001101001110100110110010 Z
1A
0E
b1 C
b1 U
b1100000101100001100100011000 B
b1100000101100001100100011000 T
b11000100 N
b11000100 Y
b1111111111111111111111111111111110101100011110000010110001011000 M
b1111111111111111111111111111111110101100011110000010110001011000 X
1O
b1111111110011111001110011000111000111110 I
b1111111110011111001110011000111000111110 W
b1111111111010010011111110000101010100100 G
b1111111111010010011111110000101010100100 V
0H
#453600
0<
#457200
1<
#460000
b11001011010100000001100110010 =
b11001011010100000001100110010 S
b1011101001111010010101010111 P
b1011101001111010010101010111 Z
0A
1@
b0 C
b0 U
b1111111111111111111111111111111110001101100101001101001000011011 B
b1111111111111111111111111111111110001101100101001101001000011011 T
1D
1?
1K
b1101000 N
b1101000 Y
b1111111111111111111111111111111111010110101000010010100010101101 M
b1111111111111111111111111111111111010110101000010010100010101101 X
b110111100011000111001101101111 I
b110111100011000111001101101111 W
0L
b1111100001011011011100111111000 G
b1111100001011011011100111111000 V
1H
#460800
0<
#464400
b100 x
b1111111110010100110111101101 #
b1111111110010100110111101101 y
1!
1$
b10001101100101001101001000011011 8
b10001101100101001101001000011011 j
b100000 ;
b100000 i
0:
19
00
b1111111111111111111111111111111110001101100101001101001000011011 l
04
1<
#468000
0<
#470000
0>
b11101001101101001001101011010011 =
b11101001101101001001101011010011 S
b1111111101101111011010111111 P
b1111111101101111011010111111 Z
1A
1E
b11 C
b11 U
b1111111111111111111111111111111111100000111000000000010011000001 B
b1111111111111111111111111111111111100000111000000000010011000001 T
0?
0K
b11111011 N
b11111011 Y
b1111111111111111111111111111111110111000110000001100001001110001 M
b1111111111111111111111111111111110111000110000001100001001110001 X
0O
b1111111110010111010110011000100000101110 I
b1111111110010111010110011000100000101110 W
0J
b1111111110001011010000101110110000010110 G
b1111111110001011010000101110110000010110 V
0H
#471600
1&
b1111111111111111111111111111111110001101100101001101001000011011 (
b1111111111111111111111111111111110001101100101001101001000011011 v
09
0$
1<
#475200
0<
#478800
1&
1<
#480000
b11110100001110100011010011101000 =
b11110100001110100011010011101000 S
b1110101011011101110011111101 P
b1110101011011101110011111101 Z
0A
b1 C
b1 U
b1111111111111111111111111111111110010101010000011101011000101010 B
b1111111111111111111111111111111110010101010000011101011000101010 T
0D
b101 N
b101 Y
b1100110100001100001110111001101 M
b1100110100001100001110111001101 X
1O
b1111111110000111011000101000111000001110 I
b1111111110000111011000101000111000001110 W
1J
1L
b1101011000110111010100011010 G
b1101011000110111010100011010 V
#482400
0<
#486000
b0 x
1&
1<
#489600
0<
#490000
b10011101111110101100000100 =
b10011101111110101100000100 S
1Q
b101101011000001000011001011 P
b101101011000001000011001011 Z
0E
0@
b0 C
b0 U
b1111111111111111111111111111111110000111110100000011011000001111 B
b1111111111111111111111111111111110000111110100000011011000001111 T
1D
1?
1K
b11110011 N
b11110011 Y
b11011000011110000110100110110 M
b11011000011110000110100110110 X
0O
b1111111111100010101110100000000011000101 I
b1111111111100010101110100000000011000101 W
0J
0L
b1111111110000011011000011101110000000110 G
b1111111110000011011000011101110000000110 V
#493200
1,
0&
1<
#496800
0<
#500000
1>
b11010000101110011001101010100001 =
b11010000101110011001101010100001 S
0Q
b1100000100000111101000011 P
b1100000100000111101000011 Z
b1111111111111111111111111111111110000111011110001101001000001110 B
b1111111111111111111111111111111110000111011110001101001000001110 T
0?
b111100 N
b111100 Y
b1111111111111111111111111111111110100011011001000011001001000110 M
b1111111111111111111111111111111110100011011001000011001001000110 X
b1111111111100100110111110001011011001001 I
b1111111111100100110111110001011011001001 W
1J
1L
b1111111111110000111010100111000011100001 G
b1111111111110000111010100111000011100001 V
1H
#500400
b1111111111110000111010100111 [
b11 \
b1 x
b11 "
b11 z
0!
1$
0,
b1111111111110000111010100111000011100001 q
1<
#504000
0<
