backend/rv_execute/tb_rv_execute.vcd
$date
	Fri Jun  5 19:21:00 2026
$end
$version
	Icarus Verilog
$end
$timescale
	1ps
$end
$scope module tb_rv_execute $end
$var wire 1 ! valid_out $end
$var wire 64 " rs2_out [63:0] $end
$var wire 1 # reg_write_out $end
$var wire 5 $ rd_out [4:0] $end
$var wire 7 % opcode_out [6:0] $end
$var wire 1 & mul_div_stall $end
$var wire 1 ' mem_write_out $end
$var wire 1 ( mem_read_out $end
$var wire 1 ) lr_valid $end
$var wire 64 * lr_addr [63:0] $end
$var wire 1 + is_amo_out $end
$var wire 3 , funct3_out [2:0] $end
$var wire 64 - branch_target [63:0] $end
$var wire 1 . branch_taken $end
$var wire 5 / amo_funct5_out [4:0] $end
$var wire 64 0 alu_result [63:0] $end
$var reg 5 1 alu_op [4:0] $end
$var reg 5 2 amo_funct5 [4:0] $end
$var reg 1 3 branch $end
$var reg 1 4 clk $end
$var reg 1 5 flush $end
$var reg 1 6 fpu_done $end
$var reg 64 7 fpu_result [63:0] $end
$var reg 1 8 fpu_valid $end
$var reg 3 9 funct3 [2:0] $end
$var reg 7 : funct7 [6:0] $end
$var reg 64 ; fwd_mem_data [63:0] $end
$var reg 5 < fwd_mem_rd [4:0] $end
$var reg 1 = fwd_mem_valid $end
$var reg 64 > fwd_wb_data [63:0] $end
$var reg 5 ? fwd_wb_rd [4:0] $end
$var reg 1 @ fwd_wb_valid $end
$var reg 64 A imm [63:0] $end
$var reg 1 B is_amo $end
$var reg 1 C jal $end
$var reg 1 D jalr $end
$var reg 1 E mem_read $end
$var reg 1 F mem_write $end
$var reg 7 G opcode [6:0] $end
$var reg 64 H pc_in [63:0] $end
$var reg 5 I rd_in [4:0] $end
$var reg 1 J reg_write $end
$var reg 5 K rs1_addr [4:0] $end
$var reg 64 L rs1_data [63:0] $end
$var reg 5 M rs2_addr [4:0] $end
$var reg 64 N rs2_data [63:0] $end
$var reg 1 O rst_n $end
$var reg 1 P stall $end
$var reg 1 Q valid_in $end
$scope module uut $end
$var wire 5 R alu_op [4:0] $end
$var wire 5 S amo_funct5 [4:0] $end
$var wire 1 3 branch $end
$var wire 1 4 clk $end
$var wire 1 5 flush $end
$var wire 1 6 fpu_done $end
$var wire 64 T fpu_result [63:0] $end
$var wire 1 8 fpu_valid $end
$var wire 3 U funct3 [2:0] $end
$var wire 7 V funct7 [6:0] $end
$var wire 64 W fwd_mem_data [63:0] $end
$var wire 5 X fwd_mem_rd [4:0] $end
$var wire 1 = fwd_mem_valid $end
$var wire 64 Y fwd_wb_data [63:0] $end
$var wire 5 Z fwd_wb_rd [4:0] $end
$var wire 1 @ fwd_wb_valid $end
$var wire 64 [ imm [63:0] $end
$var wire 1 B is_amo $end
$var wire 1 \ is_div $end
$var wire 1 ] is_fp_op $end
$var wire 1 ^ is_mext $end
$var wire 1 _ is_mul $end
$var wire 1 C jal $end
$var wire 1 D jalr $end
$var wire 1 E mem_read $end
$var wire 1 F mem_write $end
$var wire 1 & mul_div_stall $end
$var wire 7 ` opcode [6:0] $end
$var wire 64 a pc_in [63:0] $end
$var wire 5 b rd_in [4:0] $end
$var wire 1 J reg_write $end
$var wire 5 c rs1_addr [4:0] $end
$var wire 64 d rs1_data [63:0] $end
$var wire 5 e rs2_addr [4:0] $end
$var wire 64 f rs2_data [63:0] $end
$var wire 1 O rst_n $end
$var wire 1 P stall $end
$var wire 1 g use_imm $end
$var wire 1 Q valid_in $end
$var wire 64 h src2_reg [63:0] $end
$var wire 64 i src2_abs [63:0] $end
$var wire 64 j src2 [63:0] $end
$var wire 64 k src1_abs [63:0] $end
$var wire 64 l src1 [63:0] $end
$var wire 64 m mext_result [63:0] $end
$var wire 1 n flush_ex_4 $end
$var wire 1 o flush_ex_3 $end
$var wire 1 p flush_ex_2 $end
$var wire 1 q flush_ex_1 $end
$var wire 64 r final_alu_res [63:0] $end
$var wire 64 s branch_tgt [63:0] $end
$var reg 64 t alu_res_comb [63:0] $end
$var reg 64 u alu_result [63:0] $end
$var reg 5 v amo_funct5_out [4:0] $end
$var reg 1 w branch_comb $end
$var reg 1 . branch_taken $end
$var reg 64 x branch_target [63:0] $end
$var reg 1 y div_busy $end
$var reg 6 z div_cycle [5:0] $end
$var reg 64 { div_dividend [63:0] $end
$var reg 64 | div_divisor [63:0] $end
$var reg 1 } div_done $end
$var reg 1 ~ div_is_rem $end
$var reg 1 !" div_neg_q $end
$var reg 1 "" div_neg_r $end
$var reg 64 #" div_quotient [63:0] $end
$var reg 64 $" div_remainder [63:0] $end
$var reg 64 %" div_result [63:0] $end
$var reg 1 &" div_signed $end
$var reg 3 '" funct3_out [2:0] $end
$var reg 1 + is_amo_out $end
$var reg 64 (" lr_addr [63:0] $end
$var reg 1 ) lr_valid $end
$var reg 1 ( mem_read_out $end
$var reg 1 ' mem_write_out $end
$var reg 64 )" mul_result [63:0] $end
$var reg 5 *" mul_stage1_op [4:0] $end
$var reg 128 +" mul_stage1_product [127:0] $end
$var reg 1 ," mul_stage1_valid $end
$var reg 7 -" opcode_out [6:0] $end
$var reg 5 ." rd_out [4:0] $end
$var reg 1 # reg_write_out $end
$var reg 64 /" rs2_out [63:0] $end
$var reg 1 ! valid_out $end
$scope module u_buf_flush_ex1 $end
$var wire 1 5 A $end
$var wire 1 q Y $end
$upscope $end
$scope module u_buf_flush_ex2 $end
$var wire 1 5 A $end
$var wire 1 p Y $end
$upscope $end
$scope module u_buf_flush_ex3 $end
$var wire 1 5 A $end
$var wire 1 o Y $end
$upscope $end
$scope module u_buf_flush_ex4 $end
$var wire 1 5 A $end
$var wire 1 n Y $end
$upscope $end
$upscope $end
$upscope $end
$enddefinitions $end
$comment Show the parameter values. $end
$dumpall
$end
#0
$dumpvars
bx /"
bx ."
bx -"
x,"
bx +"
bx *"
bx )"
bx ("
bx '"
x&"
bx %"
bx $"
bx #"
x""
x!"
x~
x}
bx |
bx {
bx z
xy
bx x
0w
bx v
bx u
b0 t
b0 s
b0 r
0q
0p
0o
0n
bx m
b0 l
b0 k
b0 j
b0 i
b0 h
0g
b0 f
b0 e
b0 d
b0 c
b0 b
b0 a
b0 `
0_
0^
0]
0\
b0 [
b0 Z
b0 Y
b0 X
b0 W
b0 V
b0 U
b0 T
b0 S
b0 R
0Q
0P
xO
b0 N
b0 M
b0 L
b0 K
0J
b0 I
b0 H
b0 G
0F
0E
0D
0C
0B
b0 A
0@
b0 ?
b0 >
0=
b0 <
b0 ;
b0 :
b0 9
08
b0 7
06
05
04
03
b0 2
b0 1
bx 0
bx /
x.
bx -
bx ,
x+
bx *
x)
x(
x'
x&
bx %
bx $
x#
bx "
x!
$end
#3600
0,"
0}
14
#7200
04
#10000
b0 m
b0 %"
0&
b0 )"
0.
0!
b0 /
b0 v
0+
0#
0'
0(
b0 %
b0 -"
b0 ,
b0 '"
b0 $
b0 ."
b0 -
b0 x
b0 "
b0 /"
b0 0
b0 u
0)
b0 *
b0 ("
b0 $"
b0 #"
b0 z
0y
b0 *"
b0 +"
0O
#10800
14
#14400
04
#18000
14
#21600
04
#25200
14
#28800
04
#32400
14
#36000
04
#39600
14
#43200
04
#46800
14
#50400
04
#54000
14
#57600
04
#61200
14
#64800
04
#68400
14
#72000
04
#75600
14
#79200
04
#82800
14
#86400
04
#90000
14
#93600
04
#97200
14
#100800
04
#104400
14
#108000
04
#110000
1O
#111600
14
#115200
04
#118800
14
#122400
04
#126000
14
#129600
04
#133200
14
#136800
04
#140000
1&
1^
b110101110010111101100001101 i
1_
b110101110010111101100001101 j
b1001110000011111010100110011101 k
b1111111111111111111111111111111110111000101010011101000101110000 t
b1111111111111111111111111111111110000100100001001101011000001101 r
b1111111111111111111111111111111111111000110011111110111111110000 s
b110101110010111101100001101 h
b1111111111111111111111111111111110110001111100000101011001100011 l
0w
16
18
b1111111111111111111111111111111110010110101010110101100000101101 7
b1111111111111111111111111111111110010110101010110101100000101101 T
b11101 ?
b11101 Z
b1111111111111111111111111111111111100010110010100100111011000101 >
b1111111111111111111111111111111111100010110010100100111011000101 Y
b1000 <
b1000 X
b1111001001100000110100111110010 ;
b1111001001100000110100111110010 W
1Q
b10010 2
b10010 S
1B
1D
13
1F
b1101 1
b1101 R
b111101 G
b111101 `
b1110110 :
b1110110 V
b101 9
b101 U
b1 M
b1 e
b10010 K
b10010 c
b101 I
b101 b
b1000110110111111001100110001101 A
b1000110110111111001100110001101 [
b110101110010111101100001101 N
b110101110010111101100001101 f
b1111111111111111111111111111111110110001111100000101011001100011 L
b1111111111111111111111111111111110110001111100000101011001100011 d
b1111111111111111111111111111111110000100100001001101011000001001 H
b1111111111111111111111111111111110000100100001001101011000001001 a
1q
1p
1o
1n
15
#140400
b1111111111111111111111111111111111111111111111111111111111111111 m
b1111111111111111111111111111111111111111111111111111111111111111 )"
1,"
b1101 *"
b11111111111111111111111111111111111111111111111111111111111111111111110111110011000100110010111101000010010000001111010000000111 +"
14
#144000
04
#147600
14
#150000
b110001001100110011001101100011 i
b1111111111111111111111111111111111001110110011001100110010011101 j
b1010101011110000100010110101010 k
b100100010001010001001001000111 t
b1111111111111111111111111111111111001110110011001100110010011101 h
b1010101011110000100010110101010 l
b1111111111111111111111111111111111011011100001000101111110110110 s
b1111111111111111111111111111111111111111111111111111111111111111 r
06
08
b1010111000101010001001110101110 7
b1010111000101010001001110101110 T
b110 ?
b110 Z
b1110101110001010000110111101011 >
b1110101110001010000110111101011 Y
b1001 <
b1001 X
b1111111111111111111111111111111111101100010010110011010011011000 ;
b1111111111111111111111111111111111101100010010110011010011011000 W
b1010 2
b1010 S
0B
0D
03
1J
1E
b1110 1
b1110 R
b10 G
b10 `
b1010101 :
b1010101 V
b11 9
b11 U
b10011 M
b10011 e
b1101 K
b1101 c
b10011 I
b10011 b
b1111111111111111111111111111111111001011001000000011111010010110 A
b1111111111111111111111111111111111001011001000000011111010010110 [
b1111111111111111111111111111111111001110110011001100110010011101 N
b1111111111111111111111111111111111001110110011001100110010011101 f
b1010101011110000100010110101010 L
b1010101011110000100010110101010 d
b10000011001000010000100100000 H
b10000011001000010000100100000 a
0q
0p
0o
0n
05
#151200
04
#154800
b1010101011110000100010110101001 r
b1010101011110000100010110101001 m
b1010101011110000100010110101001 )"
b1110 *"
b10101010111100001000101101010011110111110010010111000101000110010010001101111100011000101000010 +"
14
#158400
04
#160000
b1100010001100111001111111000101 i
0^
b1111111111111111111111111111111110011101110011000110000000111011 j
b100111111100100101010101001111 k
b1111111111111111111111111111111111000101101111101011010110001010 t
0&
b1000010111100100100000110001001 r
0_
b1111111111111111111111111111111110011101110011000110000000111011 h
b100111111100100101010101001111 l
1w
b1000100111110001000100010001000 s
18
b1111111111111111111111111111111110111011100000100101101001110111 7
b1111111111111111111111111111111110111011100000100101101001110111 T
b1000 ?
b1000 Z
b110000111010111111100001100 >
b110000111010111111100001100 Y
b10110 <
b10110 X
1=
b1111111111111111111111111111111111101011111111101100000011010111 ;
b1111111111111111111111111111111111101011111111101100000011010111 W
0Q
b1001 2
b1001 S
1B
1D
13
0F
b11111 1
b11111 R
b1001100 G
b1001100 `
b1100010 :
b1100010 V
b1 9
b1 U
b10001 M
b10001 e
b10101 K
b10101 c
b11110 I
b11110 b
b11101000001100011001100111010 A
b11101000001100011001100111010 [
b1111111111111111111111111111111110011101110011000110000000111011 N
b1111111111111111111111111111111110011101110011000110000000111011 f
b100111111100100101010101001111 L
b100111111100100101010101001111 d
b1000010111100100100000110000101 H
b1000010111100100100000110000101 a
1q
1p
1o
1n
15
1P
#162000
0,"
14
#165600
04
#169200
14
#170000
b10110000101000000100100101101 i
b1111111111111111111111111111111111101001111010111111011011010011 j
b1111110100101000111100011111 k
b1010010101010111011111010100100 s
b1111111111111111111111111111111111101001111010111111011011010011 h
b1111110100101000111100011111 l
1w
b1001110000101000011000010011 t
b11100110110011110011100111101 r
16
08
b1111111111111111111111111111111111110110100000101110001011101101 7
b1111111111111111111111111111111111110110100000101110001011101101 T
b1001 ?
b1001 Z
b1111111111111111111111111111111111110011000010010001101011100110 >
b1111111111111111111111111111111111110011000010010001101011100110 Y
b1011 <
b1011 X
b100010001010010000110101000100 ;
b100010001010010000110101000100 W
1Q
b10011 2
b10011 S
1C
03
0J
0E
b110 1
b110 R
b1011000 G
b1011000 `
b101010 :
b101010 V
b111 9
b111 U
b1001 M
b1001 e
b11011 K
b11011 c
b11000 I
b11000 b
b1000010110110010010111110000101 A
b1000010110110010010111110000101 [
b1111111111111111111111111111111111101001111010111111011011010011 N
b1111111111111111111111111111111111101001111010111111011011010011 f
b1111110100101000111100011111 L
b1111110100101000111100011111 d
b11100110110011110011100111001 H
b11100110110011110011100111001 a
0P
#172800
04
#176400
14
#180000
b10111100010111111001100110000 i
1]
b1111111111111111111111111111111111101000011101000000110011010000 j
b100010001100011111111101000100 k
b110111001110110000101001101110 s
b1111111111111111111111111111111111101000011101000000110011010000 h
b100010001100011111111101000100 l
1w
b1010101001100000110000010100 t
b111100111100010001100101111101 r
04
06
b1111111111111111111111111111111110111011010001011110001001110110 7
b1111111111111111111111111111111110111011010001011110001001110110 T
b1101 ?
b1101 Z
1@
b1111111111111111111111111111111110100110111111001101111001001101 >
b1111111111111111111111111111111110100110111111001101111001001101 Y
b11011 <
b11011 X
b1111111111111111111111111111111110000010001111110010110000000100 ;
b1111111111111111111111111111111110000010001111110010110000000100 W
b10100 2
b10100 S
0B
0C
1F
b10110 1
b10110 R
b1000011 G
b1000011 `
b1111101 :
b1111101 V
b10 9
b10 U
b11100 M
b11100 e
b1110 K
b1110 c
b1011 I
b1011 b
b10101000010010000101100101010 A
b10101000010010000101100101010 [
b1111111111111111111111111111111111101000011101000000110011010000 N
b1111111111111111111111111111111111101000011101000000110011010000 f
b100010001100011111111101000100 L
b100010001100011111111101000100 d
b111100111100010001100101111001 H
b111100111100010001100101111001 a
1P
#183600
14
#187200
04
#190000
0]
b110100100110000000011101101001 i
b110100100110000000011101101001 j
b1111011110100100110000111110111 k
b10110000011010100110100101100000 t
b1010110010000010001110010101010 s
b110100100110000000011101101001 h
b1111011110100100110000111110111 l
1w
b10011101001001101100001000 r
b11011100001110110000100110111 7
b11011100001110110000100110111 T
b11001 ?
b11001 Z
0@
b1101010100011100000010111010101 >
b1101010100011100000010111010101 Y
b11010 <
b11010 X
0=
b1011101011100011001100110111010 ;
b1011101011100011001100110111010 W
b10000 2
b10000 S
1E
b11100 1
b11100 R
b1000 G
b1000 `
b101110 :
b101110 V
b111 9
b111 U
b1101 M
b1101 e
b1000 K
b1000 c
b1000 I
b1000 b
b1111111111111111111111111111111111011010011011101011101010110100 A
b1111111111111111111111111111111111011010011011101011101010110100 [
b110100100110000000011101101001 N
b110100100110000000011101101001 f
b1111011110100100110000111110111 L
b1111011110100100110000111110111 d
b10011101001001101100000100 H
b10011101001001101100000100 a
0q
0p
0o
0n
05
#190800
14
#194400
04
#198000
14
#200000
b1000011011000010101011110000110 i
b1000011011000010101011110000110 j
b1101110010111110000111111011100 k
b10110001110000000110011101100010 t
b10101010011000110000111101010100 s
b1000011011000010101011110000110 h
b1101110010111110000111111011100 l
1w
b111110100110011000001110000001 r
18
b1010100100111101111110110101001 7
b1010100100111101111110110101001 T
b1000 ?
b1000 Z
b1111111111111111111111111111111111000101010100000001011010001010 >
b1111111111111111111111111111111111000101010100000001011010001010 Y
b1100 <
b1100 X
1=
b100101101100100111101101001011 ;
b100101101100100111101101001011 W
0Q
b101 2
b101 S
1B
1C
13
0F
b10111 1
b10111 R
b1100001 G
b1100001 `
b1111010 :
b1111010 V
b1 9
b1 U
b1111 M
b1111 e
b11011 K
b11011 c
b11110 I
b11110 b
b111100000000111111111101111000 A
b111100000000111111111101111000 [
b1000011011000010101011110000110 N
b1000011011000010101011110000110 f
b1101110010111110000111111011100 L
b1101110010111110000111111011100 d
b111110100110011000001101111101 H
b111110100110011000001101111101 a
0P
#201600
04
#205200
b101 /
b101 v
1+
1(
b1100001 %
b1100001 -"
b1 ,
b1 '"
b11110 $
b11110 ."
b10101010011000110000111101010100 -
b10101010011000110000111101010100 x
b1000011011000010101011110000110 "
b1000011011000010101011110000110 /"
b111110100110011000001110000001 0
b111110100110011000001110000001 u
14
#208800
04
#210000
b111001010010100000101101110011 i
b1111111111111111111111111111111111000110101101011111010010001101 j
b10101010110100001110100101010 k
b1111111111111111111111111111111111000110101101011111010010001101 h
b10101010110100001110100101010 l
b1100100101001011011010011001000 s
0w
b101010101101000011101001010100000000000000 t
b101010101101000011101001010100000000000000 r
b1010100101010000111100110101001 7
b1010100101010000111100110101001 T
b1010 ?
b1010 Z
b1000010010011111100110110000100 >
b1000010010011111100110110000100 Y
b11101 <
b11101 X
0=
b1111111111111111111111111111111111111001001001111001010011110010 ;
b1111111111111111111111111111111111111001001001111001010011110010 W
b110 2
b110 S
0D
0C
0E
b111 1
b111 R
b1101011 G
b1101011 `
b10011 :
b10011 V
b10 9
b10 U
b1000 M
b1000 e
b11001 K
b11001 c
b11000 I
b11000 b
b1001111011101011111111110011110 A
b1001111011101011111111110011110 [
b1111111111111111111111111111111111000110101101011111010010001101 N
b1111111111111111111111111111111111000110101101011111010010001101 f
b10101010110100001110100101010 L
b10101010110100001110100101010 d
b10101001011111011010100101010 H
b10101001011111011010100101010 a
1q
1p
1o
1n
15
#212400
b0 0
b0 u
b0 "
b0 /"
b0 -
b0 x
b0 /
b0 v
0+
0(
b0 %
b0 -"
b0 ,
b0 '"
b0 $
b0 ."
14
#216000
04
#219600
14
#220000
b11011011000001110010100110110 i
b11011011000001110010100110110 j
b1100100110010000011110111001001 k
b1111111111111111111111111111111111110111100000101001000011110011 r
b11011011000001110010100110110 h
b1100100110010000011110111001001 l
1w
b0 t
b1111111111111111111111111111111110110010001100111101100101100100 s
16
08
b1111111111111111111111111111111111110001011001101111101011100010 7
b1111111111111111111111111111111111110001011001101111101011100010 T
b11011 ?
b11011 Z
b101001111011111110100101010011 >
b101001111011111110100101010011 Y
b11000 <
b11000 X
1=
b1111111111111111111111111111111110100000110000000010010001000001 ;
b1111111111111111111111111111111110100000110000000010010001000001 W
b10001 2
b10001 S
0B
1C
03
1F
1E
b1000 1
b1000 R
b10010 G
b10010 `
b11011 :
b11011 V
b110 9
b110 U
b1011 K
b1011 c
b1111 I
b1111 b
b1111111111111111111111111111111110111010101100010100100001110101 A
b1111111111111111111111111111111110111010101100010100100001110101 [
b11011011000001110010100110110 N
b11011011000001110010100110110 f
b1100100110010000011110111001001 L
b1100100110010000011110111001001 d
b1111111111111111111111111111111111110111100000101001000011101111 H
b1111111111111111111111111111111111110111100000101001000011101111 a
1P
#223200
04
#226800
14
#230000
b1101011110000100100100011011 i
b1111111111111111111111111111111111110010100001111011011011100101 j
b1100011011111101110110111000111 k
b1111111111111111111111111111111111110010100001111011011011100101 h
b1111111111111111111111111111111110011100100000010001001000111001 l
1w
b1101110000001101010010011011100 t
b1111111111111111111111111111111101101101010001101110111011011010 s
b1111111111111111111111111111111111011100000000110100010010111100 r
18
b1111111111111111111111111111111111011100111011111001000010111001 7
b1111111111111111111111111111111111011100111011111001000010111001 T
b111 ?
b111 Z
1@
b1000010010010011111111110000100 >
b1000010010010011111111110000100 Y
b111 <
b111 X
b1111010101100010001101111110101 ;
b1111010101100010001101111110101 W
1Q
b1101 2
b1101 S
1B
1D
0C
0F
0E
b100 1
b100 R
b11111 G
b11111 `
b100001 :
b100001 V
b111 9
b111 U
b1 K
b1 c
b1011 I
b1011 b
b1111111111111111111111111111111111010000110001011101110010100001 A
b1111111111111111111111111111111111010000110001011101110010100001 [
b1111111111111111111111111111111111110010100001111011011011100101 N
b1111111111111111111111111111111111110010100001111011011011100101 f
b1111111111111111111111111111111110011100100000010001001000111001 L
b1111111111111111111111111111111110011100100000010001001000111001 d
b1111111111111111111111111111111111011100000000110100010010111000 H
b1111111111111111111111111111111111011100000000110100010010111000 a
0q
0p
0o
0n
05
0P
#230400
04
#234000
1.
1!
b1101 /
b1101 v
1+
b11111 %
b11111 -"
b111 ,
b111 '"
b1011 $
b1011 ."
b1111111111111111111111111111111101101101010001101110111011011010 -
b1111111111111111111111111111111101101101010001101110111011011010 x
b1111111111111111111111111111111111110010100001111011011011100101 "
b1111111111111111111111111111111111110010100001111011011011100101 /"
b1111111111111111111111111111111111011100000000110100010010111100 0
b1111111111111111111111111111111111011100000000110100010010111100 u
14
#237600
04
#240000
1g
b1011101000110011101111110111011 i
b1111111111111111111111111111111110100010111001100010000001000101 j
b10101010001101101110100101010 k
b1111111111111111111111111111111110111000001011001111110101101110 s
b1111101001010100100010111111010 h
b10101010001101101110100101010 l
1w
b10001100000000000000000 t
b1111111111111111111111111111111111010000101111000101111010100101 r
b1011111000101001110100010111 7
b1011111000101001110100010111 T
b1 ?
b1 Z
b110001001001001101001101100010 >
b110001001001001101001101100010 Y
b1010 <
b1010 X
0=
b1111111111111111111111111111111111011000011010100110101010110000 ;
b1111111111111111111111111111111111011000011010100110101010110000 W
b10100 2
b10100 S
0B
b110 1
b110 R
b1101111 G
b1101111 `
b1101000 :
b1101000 V
b110 9
b110 U
b10010 M
b10010 e
b11100 K
b11100 c
b11 I
b11 b
b1111111111111111111111111111111110100010111001100010000001000101 A
b1111111111111111111111111111111110100010111001100010000001000101 [
b1111101001010100100010111111010 N
b1111101001010100100010111111010 f
b10101010001101101110100101010 L
b10101010001101101110100101010 d
b1111111111111111111111111111111111010000101111000101111010100001 H
b1111111111111111111111111111111111010000101111000101111010100001 a
1q
1p
1o
1n
15
1P
#241200
b0 0
b0 u
b0 "
b0 /"
b0 -
b0 x
0.
0!
b0 /
b0 v
0+
b0 %
b0 -"
b0 ,
b0 '"
b0 $
b0 ."
14
#244800
04
#248400
14
#250000
0g
b111001011000100101110101110011 k
b1010010100110000001110110100110 i
b1111111111111111111111111111111110101101011001111110001001011010 h
b1111111111111111111111111111111111000110100111011010001010001101 l
b1100100110011001100010011001000 s
0w
b1111111111111111111111111111111110101101011001111110001001011010 j
b1111111111111111111111111111111101110100000001011000010011100111 t
b1111111111111111111111111111111101110100000001011000010011100111 r
b1110001110000010010100111100011 7
b1110001110000010010100111100011 T
b11 ?
b11 Z
b1111111111111111111111111111111110111101111000001101001001111011 >
b1111111111111111111111111111111110111101111000001101001001111011 Y
b11101 <
b11101 X
b1111111111111111111111111111111110111100110011000100001001111001 ;
b1111111111111111111111111111111110111100110011000100001001111001 W
b1101 2
b1101 S
1B
0D
1F
b11110 1
b11110 R
b1110111 G
b1110111 `
b110110 :
b110110 V
b11 9
b11 U
b10001 M
b10001 e
b1100 K
b1100 c
b1100 I
b1100 b
b11110101100010011100000111 A
b11110101100010011100000111 [
b1111111111111111111111111111111110101101011001111110001001011010 N
b1111111111111111111111111111111110101101011001111110001001011010 f
b1111111111111111111111111111111111000110100111011010001010001101 L
b1111111111111111111111111111111111000110100111011010001010001101 d
b1100000111101101001110111000001 H
b1100000111101101001110111000001 a
0P
#252000
04
#255600
14
#259200
04
#260000
b100000000110111000111000111111 r
b101001011110100001010101010010 i
b1001010111101000011100010011 k
b101001011110100001010101010010 j
b100000000110111000111000111111 t
b101001011110100001010101010010 h
b1111111111111111111111111111111111110110101000010111100011101101 l
b1101100001110111001000011011000 s
06
b1111111111111111111111111111111110101110011010000011000001011100 7
b1111111111111111111111111111111110101110011010000011000001011100 T
b1011 ?
b1011 Z
b1111111111111111111111111111111110001010011001001011000000010100 >
b1111111111111111111111111111111110001010011001001011000000010100 Y
b1001 <
b1001 X
b11001000001011000001100110010 ;
b11001000001011000001100110010 W
b110 2
b110 S
0F
b10111 1
b10111 R
b10000 G
b10000 `
b1100 :
b1100 V
b110 9
b110 U
b100 M
b100 e
b10010 K
b10010 c
b1101 I
b1101 b
b1111100000111100101101111111000 A
b1111100000111100101101111111000 [
b101001011110100001010101010010 N
b101001011110100001010101010010 f
b1111111111111111111111111111111111110110101000010111100011101101 L
b1111111111111111111111111111111111110110101000010111100011101101 d
b1111111111111111111111111111111111110000000111010011010011100000 H
b1111111111111111111111111111111111110000000111010011010011100000 a
#262800
14
#266400
04
#270000
b1000110011111000100010110001100 i
b1101001110111011010111111010100 k
b1000110011111000100010110001100 j
b1101000010100011110010111010100 r
b1000110011111000100010110001100 h
b1111111111111111111111111111111110010110001000100101000000101100 l
b0 t
b1111111111111111111111111111111110011010000011000000011100110010 s
14
16
08
b1111111111111111111111111111111110010101010010111000001000101010 7
b1111111111111111111111111111111110010101010010111000001000101010 T
b11 ?
b11 Z
b1111111111111111111111111111111110001110000001010100110000011100 >
b1111111111111111111111111111111110001110000001010100110000011100 Y
b0 <
b0 X
1=
b100100110100101011111101001001 ;
b100100110100101011111101001001 W
0Q
b10000 2
b10000 S
1D
13
1J
1F
b11 1
b11 R
b1101100 G
b1101100 `
b1110011 :
b1110011 V
b11 9
b11 U
b1000 M
b1000 e
b10001 K
b10001 c
b1010 I
b1010 b
b11111010011011011100000111 A
b11111010011011011100000111 [
b1000110011111000100010110001100 N
b1000110011111000100010110001100 f
b1111111111111111111111111111111110010110001000100101000000101100 L
b1111111111111111111111111111111110010110001000100101000000101100 d
b1101000010100011110010111010000 H
b1101000010100011110010111010000 a
0q
0p
0o
0n
05
1P
#273600
04
#277200
14
#280000
b1110110100000001110001111101110 i
b1111111111111111111111111111111110001001011111110001110000010010 j
b11100100011010111111100111001 k
b1111111111111111111111111111111111000110000011000111111110001010 s
b1111111111111111111111111111111110001001011111110001110000010010 h
b11100100011010111111100111001 l
1w
b1111111111111111111111111111111110100110000011001001101101001011 t
b1111111111111111111111111111111110010101101010011010100000101111 r
06
18
b1011100011110001011000110111000 7
b1011100011110001011000110111000 T
b100 ?
b100 Z
b1111111111111111111111111111111111101100001101110101100011011000 >
b1111111111111111111111111111111111101100001101110101100011011000 Y
b1010 <
b1010 X
b1111111111111111111111111111111110110100111110011010010001101001 ;
b1111111111111111111111111111111110110100111110011010010001101001 W
1Q
1C
03
b11011 1
b11011 R
b100110 G
b100110 `
b1011011 :
b1011011 V
b111 9
b111 U
b1110 M
b1110 e
b10000 K
b10000 c
b11001 I
b11001 b
b1111111111111111111111111111111110101001011111110000000001010010 A
b1111111111111111111111111111111110101001011111110000000001010010 [
b1111111111111111111111111111111110001001011111110001110000010010 N
b1111111111111111111111111111111110001001011111110001110000010010 f
b11100100011010111111100111001 L
b11100100011010111111100111001 d
b1111111111111111111111111111111110010101101010011010100000101011 H
b1111111111111111111111111111111110010101101010011010100000101011 a
0P
#280800
04
#284400
b1111111111111111111111111111111110010101101010011010100000101111 0
b1111111111111111111111111111111110010101101010011010100000101111 u
b1111111111111111111111111111111110001001011111110001110000010010 "
b1111111111111111111111111111111110001001011111110001110000010010 /"
b1111111111111111111111111111111111000110000011000111111110001010 -
b1111111111111111111111111111111111000110000011000111111110001010 x
1.
1!
b10000 /
b10000 v
1+
1#
1'
b100110 %
b100110 -"
b111 ,
b111 '"
b11001 $
b11001 ."
14
#288000
04
#290000
b11100001111000011100000111 i
b11100001111000011100000111 j
b1101010000101011111010111010100 k
b11100001111000011100000111 h
b1101010000101011111010111010100 l
b10010101111000100101111100101011 s
0w
b1101011100101111111011111010111 t
b1011010110101101100011110111001 r
16
b10100101101000011011100101001 7
b10100101101000011011100101001 T
0@
b1111111111111111111111111111111111110010100111000101111011100101 >
b1111111111111111111111111111111111110010100111000101111011100101 Y
b0 <
b0 X
0=
b1111111111111111111111111111111111001010101101000111110010010101 ;
b1111111111111111111111111111111111001010101101000111110010010101 W
b1111 2
b1111 S
0B
0D
13
0J
b101 1
b101 R
b1000010 G
b1000010 `
b0 :
b0 V
b11 9
b11 U
b1 M
b1 e
b1011 K
b1011 c
b1001 I
b1001 b
b111011000010111001011101110110 A
b111011000010111001011101110110 [
b11100001111000011100000111 N
b11100001111000011100000111 f
b1101010000101011111010111010100 L
b1101010000101011111010111010100 d
b1011010110101101100011110110101 H
b1011010110101101100011110110101 a
1q
1p
1o
1n
15
#291600
0.
0!
b0 /
b0 v
0+
0#
0'
b0 %
b0 -"
b0 ,
b0 '"
b0 $
b0 ."
b0 -
b0 x
b0 "
b0 /"
b0 0
b0 u
14
#295200
04
#298800
14
#300000
b1111000011000100111000111110000 i
b1111000011000100111000111110000 j
b110100001101111101010101101000 k
b1111000011000100111000111110000 h
b110100001101111101010101101000 l
1w
b0 t
b1001101011111101011000010010 s
b1101010100111111011100111011001 r
b10101000100111101110100101010 7
b10101000100111101110100101010 T
b1111111111111111111111111111111110111000111010100011101001110001 >
b1111111111111111111111111111111110111000111010100011101001110001 Y
b11010 <
b11010 X
1=
b1111111111111111111111111111111111011011100110000011101010110111 ;
b1111111111111111111111111111111111011011100110000011101010110111 W
b101 2
b101 S
1B
1D
03
1J
1E
b1001 1
b1001 R
b111100 G
b111100 `
b1100010 :
b1100010 V
b110 9
b110 U
b11101 M
b11101 e
b10001 K
b10001 c
b1111 I
b1111 b
b1111111111111111111111111111111111010101011110000000000010101010 A
b1111111111111111111111111111111111010101011110000000000010101010 [
b1111000011000100111000111110000 N
b1111000011000100111000111110000 f
b110100001101111101010101101000 L
b110100001101111101010101101000 d
b1101010100111111011100111010101 H
b1101010100111111011100111010101 a
#302400
04
#306000
14
#309600
04
