peripherals/gem_ethernet/tb_gem_ethernet.vcd
$date
	Fri Jun  5 19:21:02 2026
$end
$version
	Icarus Verilog
$end
$timescale
	1ps
$end
$scope module tb_gem_ethernet $end
$var wire 1 ! gmii_tx_en $end
$var wire 1 " gmii_tx_er $end
$var wire 8 # gmii_txd [7:0] $end
$var wire 40 $ m_araddr [39:0] $end
$var wire 4 % m_arid [3:0] $end
$var wire 8 & m_arlen [7:0] $end
$var wire 3 ' m_arsize [2:0] $end
$var wire 1 ( m_arvalid $end
$var wire 40 ) m_awaddr [39:0] $end
$var wire 4 * m_awid [3:0] $end
$var wire 8 + m_awlen [7:0] $end
$var wire 3 , m_awsize [2:0] $end
$var wire 1 - m_awvalid $end
$var wire 1 . m_bready $end
$var wire 1 / m_rready $end
$var wire 64 0 m_wdata [63:0] $end
$var wire 1 1 m_wlast $end
$var wire 8 2 m_wstrb [7:0] $end
$var wire 1 3 m_wvalid $end
$var wire 1 4 pready $end
$var wire 1 5 pslverr $end
$var wire 32 6 prdata [31:0] $end
$var wire 1 7 mac_irq $end
$var reg 1 8 clk $end
$var reg 1 9 gmii_col $end
$var reg 1 : gmii_crs $end
$var reg 1 ; gmii_rx_dv $end
$var reg 1 < gmii_rx_er $end
$var reg 8 = gmii_rxd [7:0] $end
$var reg 1 > m_arready $end
$var reg 1 ? m_awready $end
$var reg 4 @ m_bid [3:0] $end
$var reg 2 A m_bresp [1:0] $end
$var reg 1 B m_bvalid $end
$var reg 64 C m_rdata [63:0] $end
$var reg 4 D m_rid [3:0] $end
$var reg 1 E m_rlast $end
$var reg 2 F m_rresp [1:0] $end
$var reg 1 G m_rvalid $end
$var reg 1 H m_wready $end
$var reg 32 I paddr [31:0] $end
$var reg 1 J penable $end
$var reg 1 K psel $end
$var reg 32 L pwdata [31:0] $end
$var reg 1 M pwrite $end
$var reg 1 N rst_n $end
$var reg 1 O rx_clk $end
$var reg 1 P tx_clk $end
$scope module uut $end
$var wire 1 Q apb_read $end
$var wire 1 R apb_write $end
$var wire 1 8 clk $end
$var wire 1 9 gmii_col $end
$var wire 1 : gmii_crs $end
$var wire 1 ; gmii_rx_dv $end
$var wire 1 < gmii_rx_er $end
$var wire 8 S gmii_rxd [7:0] $end
$var wire 1 ! gmii_tx_en $end
$var wire 1 " gmii_tx_er $end
$var wire 8 T gmii_txd [7:0] $end
$var wire 40 U m_araddr [39:0] $end
$var wire 4 V m_arid [3:0] $end
$var wire 8 W m_arlen [7:0] $end
$var wire 1 > m_arready $end
$var wire 3 X m_arsize [2:0] $end
$var wire 1 ( m_arvalid $end
$var wire 40 Y m_awaddr [39:0] $end
$var wire 4 Z m_awid [3:0] $end
$var wire 8 [ m_awlen [7:0] $end
$var wire 1 ? m_awready $end
$var wire 3 \ m_awsize [2:0] $end
$var wire 1 - m_awvalid $end
$var wire 4 ] m_bid [3:0] $end
$var wire 1 . m_bready $end
$var wire 2 ^ m_bresp [1:0] $end
$var wire 1 B m_bvalid $end
$var wire 64 _ m_rdata [63:0] $end
$var wire 4 ` m_rid [3:0] $end
$var wire 1 E m_rlast $end
$var wire 1 / m_rready $end
$var wire 2 a m_rresp [1:0] $end
$var wire 1 G m_rvalid $end
$var wire 64 b m_wdata [63:0] $end
$var wire 1 1 m_wlast $end
$var wire 1 H m_wready $end
$var wire 8 c m_wstrb [7:0] $end
$var wire 1 3 m_wvalid $end
$var wire 32 d paddr [31:0] $end
$var wire 1 J penable $end
$var wire 32 e prdata [31:0] $end
$var wire 1 4 pready $end
$var wire 1 K psel $end
$var wire 1 5 pslverr $end
$var wire 32 f pwdata [31:0] $end
$var wire 1 M pwrite $end
$var wire 1 N rst_n $end
$var wire 1 O rx_clk $end
$var wire 1 P tx_clk $end
$var wire 1 7 mac_irq $end
$var wire 1 g _unused $end
$var parameter 32 h AW $end
$var parameter 32 i DW $end
$var parameter 32 j IDW $end
$var reg 32 k irq_mask [31:0] $end
$var reg 32 l irq_status [31:0] $end
$var reg 32 m network_config [31:0] $end
$var reg 32 n network_control [31:0] $end
$var reg 32 o prdata_reg [31:0] $end
$var reg 32 p rx_q_ptr [31:0] $end
$var reg 32 q tx_q_ptr [31:0] $end
$upscope $end
$upscope $end
$enddefinitions $end
$comment Show the parameter values. $end
$dumpall
b100 j
b1000000 i
b101000 h
$end
#0
$dumpvars
bx q
bx p
bx o
bx n
bx m
bx l
bx k
0g
b0 f
bx e
b0 d
b0 c
b0 b
b0 a
b0 `
b0 _
b0 ^
b0 ]
b11 \
b0 [
b0 Z
b0 Y
b11 X
b0 W
b0 V
b0 U
b0 T
b0 S
0R
0Q
0P
0O
xN
0M
b0 L
0K
0J
b0 I
0H
0G
b0 F
0E
b0 D
b0 C
0B
b0 A
b0 @
0?
0>
b0 =
0<
0;
0:
09
08
x7
bx 6
05
14
03
b0 2
01
b0 0
1/
1.
0-
b11 ,
b0 +
b0 *
b0 )
0(
b11 '
b0 &
b0 %
b0 $
b0 #
0"
0!
$end
#3600
1O
1P
18
#7200
0O
0P
08
#10000
07
b0 6
b0 e
b0 o
b0 p
b0 q
b11111111111111111111111111111111 k
b0 m
b0 n
0N
#10800
1O
1P
18
#14400
0O
0P
08
#18000
1O
1P
18
#21600
0O
0P
08
#25200
1O
1P
18
#28800
0O
0P
08
#32400
1O
1P
18
#36000
0O
0P
08
#39600
1O
1P
18
#43200
0O
0P
08
#46800
1O
1P
18
#50400
0O
0P
08
#54000
1O
1P
18
#57600
0O
0P
08
#61200
1O
1P
18
#64800
0O
0P
08
#68400
1O
1P
18
#72000
0O
0P
08
#75600
1O
1P
18
#79200
0O
0P
08
#82800
1O
1P
18
#86400
0O
0P
08
#90000
1O
1P
18
#93600
0O
0P
08
#97200
1O
1P
18
#100800
0O
0P
08
#104400
1O
1P
18
#108000
0O
0P
08
#110000
1N
#111600
1O
1P
18
#115200
0O
0P
08
#118800
1O
1P
18
#122400
0O
0P
08
#126000
1O
1P
18
#129600
0O
0P
08
#133200
1O
1P
18
#136800
0O
0P
08
#140000
1:
1<
b11000101 =
b11000101 S
b11100011001101110010010011000110 L
b11100011001101110010010011000110 f
1M
1K
b11110100011011100110100111101 I
b11110100011011100110100111101 d
b110 D
b110 `
1E
b1 F
b1 a
b1111111111111111111111111111111110001001001101110101001000010010 C
b1111111111111111111111111111111110001001001101110101001000010010 _
1G
1>
b1101 @
b1101 ]
b11 A
b11 ^
1B
1H
#140400
1O
1P
18
#144000
0O
0P
08
#147600
1O
1P
18
#150000
19
1;
b10011 =
b10011 S
b11001011001000000011111010010110 L
b11001011001000000011111010010110 f
0K
b11000000001110110010001010000000 I
b11000000001110110010001010000000 d
b1010 D
b1010 `
b1111111111111111111111111111111110010110101010110101100000101101 C
b1111111111111111111111111111111110010110101010110101100000101101 _
0>
b101 @
b101 ]
b0 A
b0 ^
0B
0H
1?
#151200
0O
0P
08
#154800
1O
1P
18
#158400
0O
0P
08
#160000
0:
0<
0;
b11000110 =
b11000110 S
b1011011000000100110010110110110 L
b1011011000000100110010110110110 f
1J
b11101100010010110011010011011000 I
b11101100010010110011010011011000 d
b1 D
b1 `
0E
b10 F
b10 a
b1111111111111111111111111111111110011110001100010100110000111100 C
b1111111111111111111111111111111110011110001100010100110000111100 _
0G
b11 @
b11 ]
b11 A
b11 ^
1B
0?
#162000
1O
1P
18
#165600
0O
0P
08
#169200
1O
1P
18
#170000
09
1:
1<
1;
b1011100 =
b1011100 S
b11001111110001000101011010011111 L
b11001111110001000101011010011111 f
0J
1K
b1001111101000010101010110011111 I
b1001111101000010101010110011111 d
b1100 D
b1100 `
b1 F
b1 a
b1111000110110011001101111110001 C
b1111000110110011001101111110001 _
1G
b1010 @
b1010 ]
1H
1?
#172800
0O
0P
08
#176400
1O
1P
18
#180000
1R
0O
0P
08
0:
b1011011 =
b1011011 S
b10111100000101001000100001111000 L
b10111100000101001000100001111000 f
1J
b11100110110011110011100111001 I
b11100110110011110011100111001 d
b1101 D
b1101 `
b10 F
b10 a
b11110111100101110110100111101 C
b11110111100101110110100111101 _
b10 @
b10 ]
b0 A
b0 ^
0B
#183600
1O
1P
18
#187200
0O
0P
08
#190000
0R
1Q
19
1:
0;
b11101101 =
b11101101 S
b10100110011111100000100101001 L
b10100110011111100000100101001 f
0M
0J
b1111011111110001111110111110111 I
b1111011111110001111110111110111 d
b100 D
b100 `
1E
b11 F
b11 a
b1111111111111111111111111111111110010111100110011010100000101111 C
b1111111111111111111111111111111110010111100110011010100000101111 _
1>
b110 @
b110 ]
b10 A
b10 ^
0H
0?
#190800
1O
1P
18
#194400
0O
0P
08
#198000
1O
1P
18
#200000
09
0<
b1111001 =
b1111001 S
b10011100000011101000101000111000 L
b10011100000011101000101000111000 f
b100111011110011110100101001110 I
b100111011110011110100101001110 d
b110 D
b110 `
b1 F
b1 a
b1111111111111111111111111111111111001101010111101011110010011010 C
b1111111111111111111111111111111111001101010111101011110010011010 _
0G
0>
b1011 @
b1011 ]
1?
#201600
0O
0P
08
#205200
1O
1P
18
#208800
0O
0P
08
#210000
0:
1;
b101101 =
b101101 S
b10100011111001101100100101000 L
b10100011111001101100100101000 f
b1111011110100100110000111110111 I
b1111011110100100110000111110111 d
b100 D
b100 `
0E
b1011011000101110010110110110110 C
b1011011000101110010110110110110 _
b1101 @
b1101 ]
b1 A
b1 ^
1B
1H
#212400
1O
1P
18
#216000
0O
0P
08
#219600
1O
1P
18
#220000
0Q
19
0;
b10010110 =
b10010110 S
b11011100001110110000100110111 L
b11011100001110110000100110111 f
1M
b1111101010001110111100111111010 I
b1111101010001110111100111111010 d
b1110 D
b1110 `
b11 F
b11 a
b1111111111111111111111111111111110111000010101011100010001110000 C
b1111111111111111111111111111111110111000010101011100010001110000 _
1>
b1010 @
b1010 ]
b10 A
b10 ^
0B
#223200
0O
0P
08
#226800
1O
1P
18
#230000
1:
1;
b11000001 =
b11000001 S
b10010100100110101000101000101001 L
b10010100100110101000101000101001 f
1J
0K
b1000011011101111001000110000110 I
b1000011011101111001000110000110 d
b1 D
b1 `
1E
b1 F
b1 a
b1111111111111111111111111111111111111101001010001110010011111010 C
b1111111111111111111111111111111111111101001010001110010011111010 _
1G
b1011 @
b1011 ]
0H
0?
#230400
0O
0P
08
#234000
1O
1P
18
#237600
0O
0P
08
#240000
09
1<
b11001010 =
b11001010 S
b1100100011001001110001111001000 L
b1100100011001001110001111001000 f
0J
b11000110101101011111010010001101 I
b11000110101101011111010010001101 d
b1010 D
b1010 `
0E
b11 F
b11 a
b1111111111111111111111111111111111110011001101000110011011100110 C
b1111111111111111111111111111111111110011001101000110011011100110 _
0G
b1001 @
b1001 ]
b0 A
b0 ^
#241200
1O
1P
18
#244800
0O
0P
08
#248400
1O
1P
18
#250000
19
b10001110 =
b10001110 S
b11010000100101011010100010100001 L
b11010000100101011010100010100001 f
b1000010010011111100110110000100 I
b1000010010011111100110110000100 d
b1101 D
b1101 `
b10 F
b10 a
b1111101011011011111010111111010 C
b1111101011011011111010111111010 _
b100 @
b100 ]
b10 A
b10 ^
1B
#252000
0O
0P
08
#255600
1O
1P
18
#259200
0O
0P
08
#260000
09
0;
b11010001 =
b11010001 S
b1100000000111001110100011000 L
b1100000000111001110100011000 f
0M
1J
b11100001011010011011000011000010 I
b11100001011010011011000011000010 d
b1011 D
b1011 `
1E
b0 F
b0 a
b1001001001111100100010110010010 C
b1001001001111100100010110010010 _
1G
0>
b1000 @
b1000 ]
b11 A
b11 ^
1H
#262800
1O
1P
18
#266400
0O
0P
08
#270000
1O
1P
18
0:
0<
1;
b10100001 =
b10100001 S
b10011101101010101010100100111 L
b10011101101010101010100100111 f
1K
b11010000110001011101110010100001 I
b11010000110001011101110010100001 d
b101 D
b101 `
b1001001111100100110100010010 C
b1001001111100100110100010010 _
0G
1>
b100 @
b100 ]
b10 A
b10 ^
0H
1?
#273600
0O
0P
08
#277200
1O
1P
18
#280000
1R
1<
b11001001 =
b11001001 S
b1101101111001011011101111011011 L
b1101101111001011011101111011011 f
1M
b11010011101010001110010010100111 I
b11010011101010001110010010100111 d
b100 D
b100 `
b1 F
b1 a
b1111010101100010001101111110101 C
b1111010101100010001101111110101 _
1G
b101 @
b101 ]
b1 A
b1 ^
0B
0?
#280800
0O
0P
08
#284400
1O
1P
18
#288000
0O
0P
08
#290000
0R
0<
0;
b111001 =
b111001 S
b111010011000100101111101110100 L
b111010011000100101111101110100 f
0M
0K
b10010100000010010111011000101000 I
b10010100000010010111011000101000 d
b0 D
b0 `
0E
b0 F
b0 a
b1000011010001100000110110000110 C
b1000011010001100000110110000110 _
0>
b1110 @
b1110 ]
b10 A
b10 ^
1H
1?
#291600
1O
1P
18
#295200
0O
0P
08
#298800
1O
1P
18
#300000
1:
b11110111 =
b11110111 S
b1011011011000001110010110110110 L
b1011011011000001110010110110110 f
1M
b10110010110110111101100101100 I
b10110010110110111101100101100 d
b111 D
b111 `
b1 F
b1 a
b1100000111101101001110111000001 C
b1100000111101101001110111000001 _
b1001 @
b1001 ]
b11 A
b11 ^
1B
#302400
0O
0P
08
#306000
1O
1P
18
#309600
0O
0P
08
#310000
1R
0:
1<
b10010101 =
b10010101 S
b100010000100011001111101000100 L
b100010000100011001111101000100 f
1K
b10000001110000111001101000000011 I
b10000001110000111001101000000011 d
b1111 D
b1111 `
1E
b1111111111111111111111111111111111001111011000111101101010011110 C
b1111111111111111111111111111111111001111011000111101101010011110 _
1>
b1101 @
b1101 ]
b1 A
b1 ^
0B
0H
0?
#313200
1O
1P
18
#316800
0O
0P
08
#320000
0R
19
b110010 =
b110010 S
b10010010100000110001111000100101 L
b10010010100000110001111000100101 f
0M
0K
b10110000010100100000001001100000 I
b10110000010100100000001001100000 d
b1100 D
b1100 `
0E
b0 F
b0 a
b110101001011010110000101101010 C
b110101001011010110000101101010 _
0>
b1100 @
b1100 ]
b10 A
b10 ^
1?
#320400
1O
1P
18
#324000
0O
0P
08
#327600
1O
1P
18
#330000
1:
b100011 =
b100011 S
b1110110001010010101101111101100 L
b1110110001010010101101111101100 f
1M
b1000100101011111100100010001 I
b1000100101011111100100010001 d
b1010 D
b1010 `
1E
b1111111111111111111111111111111110010110001000100101000000101100 C
b1111111111111111111111111111111110010110001000100101000000101100 _
0G
b1001 @
b1001 ]
1B
#331200
0O
0P
08
#334800
1O
1P
18
#338400
0O
0P
08
#340000
0:
0<
1;
b101011 =
b101011 S
b1000010001001101010100110000100 L
b1000010001001101010100110000100 f
0M
b10010101010010111000001000101010 I
b10010101010010111000001000101010 d
b11 D
b11 `
b10000000000001011011100100000 C
b10000000000001011011100100000 _
1G
1>
b10 @
b10 ]
b0 A
b0 ^
1H
0?
#342000
1O
1P
18
#345600
0O
0P
08
#349200
1O
1P
18
#350000
09
1:
0;
b1110111 =
b1110111 S
b10110100111110011010010001101001 L
b10110100111110011010010001101001 f
1M
0J
1K
b1100010111111010100100111000101 I
b1100010111111010100100111000101 d
b1001 D
b1001 `
0E
b1 F
b1 a
b1111111111111111111111111111111110000111111001000100110000001111 C
b1111111111111111111111111111111110000111111001000100110000001111 _
0G
b110 @
b110 ]
b11 A
b11 ^
0H
#352800
0O
0P
08
#356400
1O
1P
18
#360000
1Q
0O
0P
08
19
1;
b110000 =
b110000 S
b11100010111011001101101011000101 L
b11100010111011001101101011000101 f
0M
b111100100101111100000001 I
b111100100101111100000001 d
b1011 D
b1011 `
1E
b10 F
b10 a
b11100001111000011100000111 C
b11100001111000011100000111 _
b111 @
b111 ]
b0 A
b0 ^
0B
1H
#363600
1O
1P
18
#367200
0O
0P
08
#370000
0Q
0;
b1101000 =
b1101000 S
b1101010100111111011100111010101 L
b1101010100111111011100111010101 f
1M
b11110000111011101010111011100001 I
b11110000111011101010111011100001 d
b1001 D
b1001 `
0E
b0 F
b0 a
b1111111111111111111111111111111111110010100111000101111011100101 C
b1111111111111111111111111111111111110010100111000101111011100101 _
0>
b101 @
b101 ]
b1 A
b1 ^
1B
0H
#370800
1O
1P
18
#374400
0O
0P
08
#378000
1O
1P
18
#380000
1R
09
0:
1;
b111010 =
b111010 S
b11001100100110000001000010011001 L
b11001100100110000001000010011001 f
1J
b1001110010000011010100010011 I
b1001110010000011010100010011 d
b11 D
b11 `
1E
b10 F
b10 a
b1111111111111111111111111111111111010111101000100011110010101111 C
b1111111111111111111111111111111111010111101000100011110010101111 _
1G
1>
b1001 @
b1001 ]
b0 A
b0 ^
0B
1?
#381600
0O
0P
08
#385200
1O
1P
18
#388800
0O
0P
08
#390000
0R
1Q
b1111011 =
b1111011 S
b10101000011011000101111001010000 L
b10101000011011000101111001010000 f
0M
0J
b11010001010010000010000010100010 I
b11010001010010000010000010100010 d
b110 D
b110 `
0E
b1 F
b1 a
b1111111111111111111111111111111111101101101001110001110011011011 C
b1111111111111111111111111111111111101101101001110001110011011011 _
b1 A
b1 ^
1B
1H
#392400
1O
1P
18
#396000
0O
0P
08
#399600
1O
1P
18
#400000
0Q
1<
b10 =
b10 S
b10011100111111000111101000111001 L
b10011100111111000111101000111001 f
1J
0K
b11011001101110001100000010110011 I
b11011001101110001100000010110011 d
b1001 D
b1001 `
1E
b0 F
b0 a
b1111111111111111111111111111111111100111000011111001100011001110 C
b1111111111111111111111111111111111100111000011111001100011001110 _
0G
b1110 @
b1110 ]
b11 A
b11 ^
0B
#403200
0O
0P
08
#406800
1O
1P
18
#410000
19
1:
0<
0;
b110000 =
b110000 S
b1011110001001010101000110111100 L
b1011110001001010101000110111100 f
1M
b10000110111010111011011000001101 I
b10000110111010111011011000001101 d
b101 D
b101 `
0E
b11 F
b11 a
b1111111111111111111111111111111110100110001000001001000001001100 C
b1111111111111111111111111111111110100110001000001001000001001100 _
1G
0>
b1000 @
b1000 ]
1B
0H
0?
#410400
0O
0P
08
#414000
1O
1P
18
#417600
0O
0P
08
#420000
1R
09
0:
b1011001 =
b1011001 S
b10110001100000000000101001100011 L
b10110001100000000000101001100011 f
1K
b11001001110010111011110010010011 I
b11001001110010111011110010010011 d
b111 D
b111 `
b10 F
b10 a
b1111111111111111111111111111111111001111001100001001110010011110 C
b1111111111111111111111111111111111001111001100001001110010011110 _
0G
b1010 @
b1010 ]
b0 A
b0 ^
1H
1?
#421200
1O
1P
18
#424800
0O
0P
08
#428400
1O
1P
18
#430000
0R
b11110011 =
b11110011 S
b10011111001110011000111000111110 L
b10011111001110011000111000111110 f
0K
b1101110000111100001111111011100 I
b1101110000111100001111111011100 d
b1100 D
b1100 `
1E
b1 F
b1 a
b1111111111111111111111111111111110100010110011001000100001000101 C
b1111111111111111111111111111111110100010110011001000100001000101 _
1>
b0 @
b0 ]
b11 A
b11 ^
0H
0?
#432000
0O
0P
08
#435600
1O
1P
18
#439200
0O
0P
08
#440000
19
1:
1<
b10101101 =
b10101101 S
b1101111000010100101100011011 L
b1101111000010100101100011011 f
b1111100001011011011100111111000 I
b1111100001011011011100111111000 d
b1011 D
b1011 `
b110001100110110001100001100 C
b110001100110110001100001100 _
b1010 @
b1010 ]
b10 A
b10 ^
#442800
1O
1P
18
#446400
0O
0P
08
#450000
1O
1P
18
0<
b11111011 =
b11111011 S
b10111000110000001100001001110001 L
b10111000110000001100001001110001 f
0M
0J
b11010101011111111110110010101010 I
b11010101011111111110110010101010 d
b110 D
b110 `
0E
b11001011010100000001100110010 C
b11001011010100000001100110010 _
b100 @
b100 ]
1?
#453600
0O
0P
08
#457200
1O
1P
18
#460000
0:
b11100 =
b11100 S
b10101111010100001100000101 L
b10101111010100001100000101 f
1M
1J
b11101011100010000000010011010111 I
b11101011100010000000010011010111 d
b1 D
b1 `
b10 F
b10 a
b1111111111111111111111111111111111101011000111010000001011010110 C
b1111111111111111111111111111111111101011000111010000001011010110 _
1G
0>
b1111 @
b1111 ]
b11 A
b11 ^
1H
#460800
0O
0P
08
#464400
1O
1P
18
#468000
0O
0P
08
#470000
09
1<
1;
b1101011 =
b1101011 S
b1111101110111011010101111111011 L
b1111101110111011010101111111011 f
0J
b11100010101110100000000011000101 I
b11100010101110100000000011000101 d
b1000 D
b1000 `
b1011000000010011000100110110000 C
b1011000000010011000100110110000 _
0G
b1110 @
b1110 ]
b1 A
b1 ^
0B
#471600
1O
1P
18
#475200
0O
0P
08
#478800
1O
1P
18
#480000
0<
0;
b1110011 =
b1110011 S
b101100000011000101010101011000 L
b101100000011000101010101011000 f
b10110000010111111000111001100000 I
b10110000010111111000111001100000 d
b1001 D
b1001 `
1E
b1 F
b1 a
b1111111111111111111111111111111111110000111010100111000011100001 C
b1111111111111111111111111111111111110000111010100111000011100001 _
1G
b100 @
b100 ]
b11 A
b11 ^
1B
0H
0?
#482400
0O
0P
08
#486000
1O
1P
18
#489600
0O
0P
08
#490000
1Q
b10101 =
b10101 S
b110110110110110101100001101 L
b110110110110110101100001101 f
0M
1K
b10110101101101001110100001101011 I
b10110101101101001110100001101011 d
b0 D
b0 `
b10 F
b10 a
b1111111111111111111111111111111111000011101111101001001010000111 C
b1111111111111111111111111111111111000011101111101001001010000111 _
b11 @
b11 ]
b1 A
b1 ^
0B
1H
#493200
1O
1P
18
#496800
0O
0P
08
#500000
19
1:
1;
b100100 =
b100100 S
b11100011100011100010001011000111 L
b11100011100011100010001011000111 f
b1100100111100101011110111001001 I
b1100100111100101011110111001001 d
b10 D
b10 `
0E
b11 F
b11 a
b10001110000000101101100100011 C
b10001110000000101101100100011 _
1>
b1000 @
b1000 ]
b0 A
b0 ^
1B
1?
#500400
1O
1P
18
#504000
0O
0P
08
#507600
1O
1P
18
#510000
0Q
1<
b10110101 =
b10110101 S
b1111100000111011111001111111000 L
b1111100000111011111001111111000 f
1M
0K
b10101101111100110100000001011011 I
b10101101111100110100000001011011 d
b100 D
b100 `
b10 F
b10 a
b110010110000111101111101100101 C
b110010110000111101111101100101 _
0G
b0 @
b0 ]
0B
0H
0?
#511200
0O
0P
08
#514800
1O
1P
18
#518400
0O
0P
08
#520000
09
0:
b1011000 =
b1011000 S
b1110100110111000110100111101001 L
b1110100110111000110100111101001 f
0M
1J
b10000101110011100101000000001011 I
b10000101110011100101000000001011 d
b1111 D
b1111 `
1E
b1 F
b1 a
b110000111000100000111101100001 C
b110000111000100000111101100001 _
b1000 @
b1000 ]
1B
1H
#522000
1O
1P
18
#525600
0O
0P
08
#529200
1O
1P
18
#530000
19
0;
b10011100 =
b10011100 S
b11000101111010110001100110001 L
b11000101111010110001100110001 f
0J
b11111100011001110000101011111000 I
b11111100011001110000101011111000 d
b101 D
b101 `
b11 F
b11 a
b100010111010101101101101000101 C
b100010111010101101101101000101 _
1G
0>
b0 @
b0 ]
b11 A
b11 ^
0H
#532800
0O
0P
08
#536400
1O
1P
18
#540000
0O
0P
08
1;
b1111011 =
b1111011 S
b110000100111001101101101100001 L
b110000100111001101101101100001 f
1J
b1100001000100010100110111000010 I
b1100001000100010100110111000010 d
b1011 D
b1011 `
b10 F
b10 a
b1101001111001110101000111010011 C
b1101001111001110101000111010011 _
0G
b1000 @
b1000 ]
b10 A
b10 ^
#543600
1O
1P
18
#547200
0O
0P
08
#550000
09
1:
0<
b11111100 =
b11111100 S
b10001001011001000110000000010010 L
b10001001011001000110000000010010 f
b11111000110110100001101011110001 I
b11111000110110100001101011110001 d
b111 D
b111 `
b1 F
b1 a
b1111111111111111111111111111111110101101111011100000000001011011 C
b1111111111111111111111111111111110101101111011100000000001011011 _
1G
b111 @
b111 ]
b1 A
b1 ^
#550800
1O
1P
18
#554400
0O
0P
08
#558000
1O
1P
18
#560000
19
0:
1<
b1010100 =
b1010100 S
b1011010000010100000111110110100 L
b1011010000010100000111110110100 f
1M
b1000000101111100101100010000 I
b1000000101111100101100010000 d
b1111 D
b1111 `
0E
b11 F
b11 a
b1111111111111111111111111111111111110001011010010100100011100010 C
b1111111111111111111111111111111111110001011010010100100011100010 _
0G
1>
b100 @
b100 ]
b10 A
b10 ^
0B
1?
#561600
0O
0P
08
#565200
1O
1P
18
#568800
0O
0P
08
#570000
09
1:
0<
b11101000 =
b11101000 S
b11011010110010011000011010110101 L
b11011010110010011000011010110101 f
b10110100110000010110110001101001 I
b10110100110000010110110001101001 d
b1 D
b1 `
b1 F
b1 a
b1111111111111111111111111111111111010011111111100011011010100111 C
b1111111111111111111111111111111111010011111111100011011010100111 _
0>
b101 @
b101 ]
b0 A
b0 ^
1B
1H
#572400
1O
1P
18
#576000
0O
0P
08
#579600
1O
1P
18
#580000
1<
b10010 =
b10010 S
b11000101110010110101010010001011 L
b11000101110010110101010010001011 f
0J
b10110111000001001110001001101110 I
b10110111000001001110001001101110 d
b1011 D
b1011 `
1E
b1111000111100101000100011110 C
b1111000111100101000100011110 _
b1100 @
b1100 ]
b10 A
b10 ^
0B
0H
0?
#583200
0O
0P
08
#586800
1O
1P
18
#590000
19
b1111000 =
b1111000 S
b1111111110110111011001111111111 L
b1111111110110111011001111111111 f
1K
b101110000100111000110101011100 I
b101110000100111000110101011100 d
b1101 D
b1101 `
b0 F
b0 a
b1111111111111111111111111111111111110001101000110010111011100011 C
b1111111111111111111111111111111111110001101000110010111011100011 _
b100 @
b100 ]
b0 A
b0 ^
1B
1H
#590400
0O
0P
08
#594000
1O
1P
18
#597600
0O
0P
08
#600000
0;
b1111011 =
b1111011 S
b1001010110100111001010110010101 L
b1001010110100111001010110010101 f
1J
0K
b110011011000111000100101100110 I
b110011011000111000100101100110 d
0E
b1 F
b1 a
b1001011000111001110100110010110 C
b1001011000111001110100110010110 _
b1010 @
b1010 ]
b1 A
b1 ^
0B
#601200
1O
1P
18
#604800
0O
0P
08
#608400
1O
1P
18
#610000
09
0:
0<
1;
b10110000 =
b10110000 S
b1000010011110010111010110000100 L
b1000010011110010111010110000100 f
b11011110011110110100000110 I
b11011110011110110100000110 d
b1001 D
b1001 `
b0 F
b0 a
b1111111111111111111111111111111110101000110001101100010001010001 C
b1111111111111111111111111111111110101000110001101100010001010001 _
1G
b1101 @
b1101 ]
b11 A
b11 ^
1B
0H
#612000
0O
0P
08
#615600
1O
1P
18
#619200
0O
0P
08
#620000
1:
b1100010 =
b1100010 S
b11001101101111110011101010011011 L
b11001101101111110011101010011011 f
0M
b101110110101100110101101011101 I
b101110110101100110101101011101 d
b110 D
b110 `
1E
b10 F
b10 a
b10111101111011000011100101111 C
b10111101111011000011100101111 _
0G
1>
b1 @
b1 ]
b1 A
b1 ^
1H
1?
#622800
1O
1P
18
#626400
0O
0P
08
#630000
1O
1P
18
19
1<
b11010111 =
b11010111 S
b1100010010010110110001111000100 L
b1100010010010110110001111000100 f
1M
0J
1K
b11001111111101010101000010011111 I
b11001111111101010101000010011111 d
b1000 D
b1000 `
b11 F
b11 a
b1011101100000110110001110111011 C
b1011101100000110110001110111011 _
1G
b1000 @
b1000 ]
b0 A
b0 ^
0H
0?
#633600
0O
0P
08
#637200
1O
1P
18
#640000
0:
0<
0;
b11010011 =
b11010011 S
b100100111010010000011101001001 L
b100100111010010000011101001001 f
0M
0K
b110100100011101101010101101001 I
b110100100011101101010101101001 d
b11 D
b11 `
b1 F
b1 a
b1111111010100110111110111111110 C
b1111111010100110111110111111110 _
b1 @
b1 ]
b1 A
b1 ^
0B
1H
#640800
0O
0P
08
#644400
1O
1P
18
#648000
0O
0P
08
#650000
1Q
1:
1<
b11000000 =
b11000000 S
b1101100000110011000011111011000 L
b1101100000110011000011111011000 f
1K
b1110110011010010010100011101 I
b1110110011010010010100011101 d
b0 D
b0 `
0E
b0 F
b0 a
b1010110000011010101111110101100 C
b1010110000011010101111110101100 _
0G
0>
b11 @
b11 ]
b0 A
b0 ^
1?
#651600
1O
1P
18
#655200
0O
0P
08
#658800
1O
1P
18
#660000
0Q
0:
b10011110 =
b10011110 S
b1000111001011011111101110001110 L
b1000111001011011111101110001110 f
1M
0K
b101001000100000000 I
b101001000100000000 d
b1111 D
b1111 `
1E
b11 F
b11 a
b1111111111111111111111111111111110011000101101001101110000110001 C
b1111111111111111111111111111111110011000101101001101110000110001 _
1G
b1100 @
b1100 ]
#662400
0O
0P
08
#666000
1O
1P
18
#669600
0O
0P
08
#670000
0<
b11110111 =
b11110111 S
b10100000101100111010111001000001 L
b10100000101100111010111001000001 f
b11001001011000011110010010010010 I
b11001001011000011110010010010010 d
b100 D
b100 `
0E
b1111111111111111111111111111111111000001110011110101101010000011 C
b1111111111111111111111111111111111000001110011110101101010000011 _
b1000 @
b1000 ]
1B
#673200
1O
1P
18
#676800
0O
0P
08
#680000
1Q
09
1:
b101 =
b101 S
b10011001000110000011000000110010 L
b10011001000110000011000000110010 f
0M
1K
b11000001000110001011111010000010 I
b11000001000110001011111010000010 d
b1000 D
b1000 `
1E
b1 F
b1 a
b101111010010010101001101011110 C
b101111010010010101001101011110 _
1>
b1011 @
b1011 ]
b1 A
b1 ^
0B
0?
#680400
1O
1P
18
#684000
0O
0P
08
#687600
1O
1P
18
#690000
0Q
19
1<
1;
b10011011 =
b10011011 S
b11000101010001001101100010001010 L
b11000101010001001101100010001010 f
0K
b111001110100111001100001110 I
b111001110100111001100001110 d
b100 D
b100 `
0E
b10110100100011010001100101101 C
b10110100100011010001100101101 _
0>
b101 @
b101 ]
b0 A
b0 ^
1B
1?
#691200
0O
0P
08
#694800
1O
1P
18
#698400
0O
0P
08
#700000
0<
b1110110 =
b1110110 S
b10101011111010001100000001010111 L
b10101011111010001100000001010111 f
1M
1J
b10110101110001011100000001101011 I
b10110101110001011100000001101011 d
b1100 D
b1100 `
1E
b10011000110000000001100100110 C
b10011000110000000001100100110 _
1>
b1111 @
b1111 ]
0B
#702000
1O
1P
18
#705600
0O
0P
08
#709200
1O
1P
18
