backend/rv_mem/tb_rv_mem.vcd
$date
	Thu Jun  4 09:22:39 2026
$end
$version
	Icarus Verilog
$end
$timescale
	1ps
$end
$scope module tb_rv_mem $end
$var wire 1 ! valid_out $end
$var wire 1 " result $end
$var wire 1 # reg_write_out $end
$var wire 1 $ rd_out $end
$var wire 1 % mem_stall $end
$var wire 1 & fwd_mem_valid $end
$var wire 1 ' fwd_mem_rd $end
$var wire 1 ( fwd_mem_data $end
$var wire 1 ) dmem_wvalid $end
$var wire 1 * dmem_wstrb $end
$var wire 1 + dmem_wdata $end
$var wire 1 , dmem_rready $end
$var wire 1 - dmem_bready $end
$var wire 1 . dmem_awvalid $end
$var wire 1 / dmem_awaddr $end
$var wire 1 0 dmem_arvalid $end
$var wire 1 1 dmem_araddr $end
$var reg 1 2 alu_result $end
$var reg 1 3 clk $end
$var reg 1 4 dmem_arready $end
$var reg 1 5 dmem_awready $end
$var reg 1 6 dmem_bvalid $end
$var reg 1 7 dmem_rdata $end
$var reg 1 8 dmem_rresp $end
$var reg 1 9 dmem_rvalid $end
$var reg 1 : dmem_wready $end
$var reg 1 ; flush $end
$var reg 1 < funct3 $end
$var reg 1 = mem_read $end
$var reg 1 > mem_write $end
$var reg 1 ? opcode $end
$var reg 1 @ rd_in $end
$var reg 1 A reg_write $end
$var reg 1 B rs2_data $end
$var reg 1 C rst_n $end
$var reg 1 D valid_in $end
$scope module uut $end
$var wire 64 E alu_result [63:0] $end
$var wire 1 3 clk $end
$var wire 1 4 dmem_arready $end
$var wire 1 5 dmem_awready $end
$var wire 1 6 dmem_bvalid $end
$var wire 64 F dmem_rdata [63:0] $end
$var wire 2 G dmem_rresp [1:0] $end
$var wire 1 9 dmem_rvalid $end
$var wire 1 : dmem_wready $end
$var wire 1 ; flush $end
$var wire 3 H funct3 [2:0] $end
$var wire 64 I fwd_mem_data [63:0] $end
$var wire 5 J fwd_mem_rd [4:0] $end
$var wire 1 & fwd_mem_valid $end
$var wire 1 = mem_read $end
$var wire 1 % mem_stall $end
$var wire 1 > mem_write $end
$var wire 7 K opcode [6:0] $end
$var wire 5 L rd_in [4:0] $end
$var wire 1 A reg_write $end
$var wire 64 M rs2_data [63:0] $end
$var wire 1 C rst_n $end
$var wire 1 D valid_in $end
$var parameter 2 N MS_ADDR $end
$var parameter 2 O MS_DATA $end
$var parameter 2 P MS_DONE $end
$var parameter 2 Q MS_IDLE $end
$var reg 40 R dmem_araddr [39:0] $end
$var reg 1 0 dmem_arvalid $end
$var reg 40 S dmem_awaddr [39:0] $end
$var reg 1 . dmem_awvalid $end
$var reg 1 - dmem_bready $end
$var reg 1 , dmem_rready $end
$var reg 64 T dmem_wdata [63:0] $end
$var reg 8 U dmem_wstrb [7:0] $end
$var reg 1 ) dmem_wvalid $end
$var reg 64 V load_data [63:0] $end
$var reg 1 W mem_active $end
$var reg 2 X mstate [1:0] $end
$var reg 5 Y rd_out [4:0] $end
$var reg 1 # reg_write_out $end
$var reg 64 Z result [63:0] $end
$var reg 1 ! valid_out $end
$scope function extend_load $end
$var reg 3 [ f3 [2:0] $end
$var reg 64 \ raw [63:0] $end
$upscope $end
$scope function wstrb_from_f3 $end
$var reg 3 ] f3 [2:0] $end
$upscope $end
$upscope $end
$upscope $end
$enddefinitions $end
$comment Show the parameter values. $end
$dumpall
b0 Q
b11 P
b10 O
b1 N
$end
#0
$dumpvars
bx ]
bx \
bx [
bx Z
bx Y
bx X
xW
bx V
bx U
bx T
bx S
bx R
b0 M
b0 L
b0 K
bx J
bx I
b0 H
b0 G
b0 F
b0 E
0D
xC
0B
0A
0@
0?
0>
0=
0<
0;
0:
09
08
07
06
05
04
03
02
x1
x0
x/
x.
x-
x,
x+
x*
x)
x(
x'
x&
x%
x$
x#
x"
x!
$end
#3600
b0 X
13
#7200
03
#10000
0%
0&
0'
0$
0(
0"
01
0*
0+
0/
0W
b0 V
0!
0#
b0 J
b0 Y
b0 I
b0 Z
0,
b0 R
00
0-
b0 U
b0 T
0)
b0 S
0.
0C
#10800
13
#14400
03
#18000
13
#21600
03
#25200
13
#28800
03
#32400
13
#36000
03
#39600
13
#43200
03
#46800
13
#50400
03
#54000
13
#57600
03
#61200
13
#64800
03
#68400
13
#72000
03
#75600
13
#79200
03
#82800
13
#86400
03
#90000
13
#93600
03
#97200
13
#100800
03
#104400
13
#108000
03
#110000
1C
#111600
13
#115200
03
#118800
13
#122400
03
#126000
13
#129600
03
#133200
13
#136800
03
#140000
b1 G
18
19
16
1:
1D
1A
1=
b1 K
1?
b1 H
1<
b1 L
1@
b1 M
1B
b1 E
12
#140400
1'
1$
1%
11
1#
b1 J
b1 Y
b10 X
1W
1,
b1 R
10
13
#144000
03
#147600
0%
1&
0,
b0 X
0W
1!
b0 \
b1 [
13
#150000
b0 G
08
09
14
15
0D
0=
b0 K
0?
b0 L
0@
#151200
03
#154800
0&
0'
0$
1(
1"
0!
b0 J
b0 Y
b1 I
b1 Z
13
#158400
03
#160000
04
0A
1>
1=
b1 K
1?
b1 L
1@
b0 M
0B
#162000
1'
1$
0#
b1 J
b1 Y
13
#165600
03
#169200
13
#170000
b1 F
17
19
14
05
0>
0=
b0 L
0@
#172800
03
#176400
0'
0$
b0 J
b0 Y
13
#180000
03
b1 G
18
b0 F
07
0:
15
1D
1>
1=
b0 K
0?
b0 H
0<
b1 L
1@
b1 M
1B
#183600
1'
1$
1%
1*
1+
1/
b1 J
b1 Y
b10 X
1W
1-
b1 U
b1 T
1)
b1 S
1.
b0 ]
13
#187200
03
#190000
b1 F
17
09
1:
0>
b1 K
1?
b0 L
0@
b0 M
0B
b0 E
02
1;
#190800
0%
0'
0$
0(
0"
01
0*
0+
0/
b0 X
0W
b0 J
b0 Y
b0 I
b0 Z
b0 R
00
0-
b0 U
b0 T
0)
b0 S
0.
13
#194400
03
#198000
13
#200000
b0 G
08
19
04
1A
0=
b0 K
0?
#201600
03
#205200
13
#208800
03
#210000
b1 G
18
09
06
05
0D
0A
1>
1=
b1 K
1?
b1 H
1<
b1 M
1B
b1 E
12
0;
#212400
1(
1"
b1 I
b1 Z
13
#216000
03
#219600
13
#220000
b0 G
08
19
14
16
1D
0>
b0 K
0?
b0 H
0<
b0 E
02
#223200
03
#226800
1%
b10 X
1W
1,
10
13
#230000
b1 G
18
09
04
06
15
0D
b1 K
1?
#230400
03
#234000
13
#237600
03
#240000
b0 G
08
b0 F
07
14
16
0:
b0 K
0?
b1 L
1@
b0 M
0B
#241200
0%
b0 X
0W
1!
00
13
#244800
03
#248400
1'
1$
0(
0"
0!
b1 J
b1 Y
b0 I
b0 Z
13
#250000
b1 G
18
b1 F
17
04
1:
1A
1>
b0 L
0@
b1 E
12
#252000
03
#255600
0'
0$
1(
1"
1#
b0 J
b0 Y
b1 I
b1 Z
13
#259200
03
#260000
b0 G
08
b0 F
07
19
06
0A
0>
0=
b1 K
1?
b1 H
1<
b1 M
1B
1;
#262800
0(
0"
0#
b0 I
b0 Z
0,
13
#266400
03
#270000
13
b1 F
17
09
16
0:
05
1A
1>
1=
b0 K
0?
b0 H
0<
b1 L
1@
b0 M
0B
b0 E
02
#273600
03
#277200
13
#280000
b1 G
18
14
1:
15
0=
0;
#280800
03
#284400
1'
1$
1#
b1 J
b1 Y
13
#288000
03
#290000
06
0:
0A
1=
1;
#291600
0'
0$
0#
b0 J
b0 Y
13
#295200
03
#298800
13
#300000
b0 F
07
19
16
1:
0>
b1 E
12
0;
#302400
03
#306000
1'
1$
1(
1"
b1 J
b1 Y
b1 I
b1 Z
13
#309600
03
#310000
1D
1A
0=
b0 L
0@
1;
#313200
0'
0$
0(
0"
b0 J
b0 Y
b0 I
b0 Z
13
#316800
03
#320000
b0 G
08
b1 F
17
09
04
06
0:
0A
1=
b1 K
1?
b1 H
1<
b1 L
1@
b1 M
1B
#320400
13
#324000
03
#327600
13
#330000
b1 G
18
19
14
05
0D
1A
0=
b0 H
0<
b0 L
0@
b0 M
0B
b0 E
02
0;
#331200
03
#334800
1#
13
#338400
03
#340000
b0 G
08
09
04
16
15
1D
0A
1=
b0 K
0?
b1 H
1<
b1 L
1@
b1 M
1B
1;
#342000
0#
13
#345600
03
#349200
13
#350000
b1 G
18
b0 F
07
19
14
1:
1A
b1 K
1?
b0 M
0B
0;
#352800
03
#356400
1'
1$
1%
1#
b1 J
b1 Y
b10 X
1W
1,
10
13
#360000
03
b0 G
08
09
04
06
0:
0D
0A
0=
b0 K
0?
b0 L
0@
b1 E
12
#363600
13
#367200
03
#370000
16
1A
1>
b1 K
1?
b0 H
0<
b1 M
1B
b0 E
02
1;
#370800
0%
0'
0$
b0 X
0W
0#
b0 J
b0 Y
0,
00
13
#374400
03
#378000
13
#380000
19
14
06
1:
1D
0A
b1 H
1<
#381600
03
#385200
13
#388800
03
#390000
b1 F
17
09
04
16
05
0D
1A
0>
b0 M
0B
b1 E
12
#392400
13
#396000
03
#399600
13
#400000
19
14
06
15
1D
0A
1>
1=
b0 K
0?
b1 M
1B
0;
#403200
03
#406800
1(
1"
1%
1*
1+
1/
b1 I
b1 Z
b10 X
1W
1-
b11 U
b1 T
1)
b1 S
1.
b1 ]
13
#410000
16
0:
0D
1A
0=
b0 M
0B
#410400
03
#414000
0%
b1 V
b0 X
0W
1!
0-
0.
b1 \
13
#417600
03
#420000
b0 F
07
04
06
1:
1D
0A
0>
1=
b1 K
1?
b0 H
0<
b1 L
1@
#421200
1'
1$
1%
11
b1 J
b1 Y
b10 X
1W
1,
b1 R
10
13
#424800
03
#428400
0%
0(
0"
b0 X
0W
0,
b0 I
b0 Z
b0 V
0)
b0 \
b0 [
13
#430000
b1 G
18
b1 F
17
09
0=
b1 H
1<
b0 L
0@
b1 M
1B
1;
#432000
03
#435600
0'
0$
01
0*
0+
0/
0!
b0 J
b0 Y
b0 R
00
b0 U
b0 T
b0 S
13
#439200
03
#440000
05
1A
1>
1=
b1 L
1@
b0 M
0B
#442800
13
#446400
03
#450000
13
b0 G
08
19
0:
15
0D
0A
0>
b1 M
1B
#453600
03
#457200
13
#460000
09
14
16
1:
05
1>
0=
b0 H
0<
b0 E
02
0;
#460800
03
#464400
1'
1$
b1 J
b1 Y
13
#468000
03
#470000
b1 G
18
b0 F
07
19
04
0:
1D
1A
0>
b0 K
0?
1;
#471600
0'
0$
b0 J
b0 Y
13
#475200
03
#478800
13
#480000
b0 G
08
09
1:
15
#482400
03
#486000
13
#489600
03
#490000
b1 G
18
06
0:
05
1>
1=
b1 K
1?
b1 H
1<
b0 M
0B
0;
#493200
1'
1$
1%
1*
1#
b1 J
b1 Y
b10 X
1W
1-
b11 U
1)
1.
13
#496800
03
#500000
b0 G
08
14
1:
15
0D
0A
0>
b0 L
0@
b1 M
1B
1;
#500400
0%
0'
0$
0*
b0 X
0W
0#
b0 J
b0 Y
0-
b0 U
0)
0.
13
#504000
03
#507600
13
#510000
b1 G
18
b1 F
17
19
04
1D
b0 K
0?
b0 H
0<
b1 L
1@
b0 M
0B
0;
#511200
03
#514800
1'
1$
1%
b1 J
b1 Y
b10 X
1W
1,
10
13
#518400
03
#520000
b0 G
08
b0 F
07
09
14
0:
0D
1>
0=
b1 K
1?
b1 H
1<
b1 M
1B
1;
#522000
0%
0'
0$
b0 X
0W
b0 J
b0 Y
0,
00
13
#525600
03
#529200
13
#530000
b1 F
17
16
1:
1D
1A
b0 K
0?
b0 M
0B
0;
#532800
03
#536400
1'
1$
1%
1*
1#
b1 J
b1 Y
b10 X
1W
1-
b11 U
1)
1.
13
#540000
03
b1 G
18
b0 F
07
19
0:
05
0D
0A
1=
b1 K
1?
b0 H
0<
b1 M
1B
#543600
0%
1&
b0 X
0W
1!
0-
13
#547200
03
#550000
b0 G
08
1:
15
0=
b0 K
0?
b0 L
0@
b0 M
0B
#550800
0&
0'
0$
0!
0#
b0 J
b0 Y
13
#554400
03
#558000
13
#560000
b1 G
18
04
06
0:
1D
1A
1=
b1 L
1@
b1 M
1B
#561600
03
#565200
1'
1$
1%
1+
1#
b1 J
b1 Y
b10 X
1W
1-
b1 U
b1 T
b0 ]
13
#568800
03
#570000
b1 F
17
09
14
1:
0D
0=
b1 K
1?
b0 L
0@
b0 M
0B
#572400
0)
0.
13
#576000
03
#579600
13
#580000
19
0:
1D
0>
b0 K
0?
b1 L
1@
b1 M
1B
#583200
03
#586800
0%
1&
1(
1"
b0 X
0W
1!
b1 I
b1 Z
b1 V
b1 \
13
#590000
b0 G
08
b0 F
07
09
04
1:
0D
1=
#590400
03
#594000
0&
0(
0"
0!
b0 I
b0 Z
13
#597600
03
#600000
b1 F
17
19
14
16
05
1D
0A
b0 L
0@
1;
#601200
0'
0$
0*
0+
b0 V
0#
b0 J
b0 Y
0-
b0 U
b0 T
13
#604800
03
#608400
13
#610000
b1 G
18
b0 F
07
04
0:
15
1A
1>
b1 H
1<
b0 M
0B
b1 E
12
#612000
03
#615600
13
#619200
03
#620000
b0 G
08
09
14
1:
0A
0>
b1 K
1?
b0 H
0<
b0 E
02
#622800
13
#626400
03
#630000
1%
11
b10 X
1W
1,
b1 R
10
13
b1 G
18
19
04
06
0:
05
b0 K
0?
b1 H
1<
b1 E
12
0;
#633600
03
#637200
0%
b0 X
0W
1!
0,
b0 \
b1 [
13
#640000
b0 G
08
b1 F
17
14
15
0D
1A
1>
b1 K
1?
b0 H
0<
b1 L
1@
b0 E
02
1;
#640800
03
#644400
01
0!
b0 R
00
13
#648000
03
#650000
09
1:
05
0A
0=
b1 H
1<
b1 M
1B
b1 E
12
#651600
13
#655200
03
#658800
13
#660000
b1 G
18
04
16
1A
0>
1=
b0 K
0?
b0 H
0<
b0 M
0B
b0 E
02
0;
#662400
03
#666000
1'
1$
1#
b1 J
b1 Y
13
#669600
03
#670000
14
0:
15
1D
0A
b1 H
1<
b1 M
1B
b1 E
12
#673200
1%
11
0#
b10 X
1W
1,
b1 R
10
13
#676800
03
#680000
19
04
06
05
0D
0=
b0 L
0@
b0 E
02
1;
#680400
0%
0'
0$
01
b0 X
0W
b0 J
b0 Y
0,
b0 R
00
13
#684000
03
#687600
13
#690000
b0 G
08
b0 F
07
09
16
1:
1A
1>
1=
b1 L
1@
b0 M
0B
0;
#691200
03
#694800
1'
1$
1#
b1 J
b1 Y
13
#698400
03
#700000
b1 F
17
14
15
0=
b1 K
1?
b0 H
0<
b1 M
1B
1;
#702000
0'
0$
0#
b0 J
b0 Y
13
#705600
03
#709200
13
#710000
b1 G
18
0A
b0 L
0@
b0 M
0B
#712800
03
#716400
13
#720000
03
b0 G
08
19
04
06
05
1A
b1 H
1<
b1 L
1@
#723600
13
#727200
03
#730000
b1 G
18
b0 F
07
16
0:
15
1D
1=
b0 H
0<
b0 L
0@
b1 E
12
0;
#730800
1(
1"
1%
1*
1/
b1 I
b1 Z
1#
b10 X
1W
1-
b1 U
1)
b1 S
1.
13
#734400
03
#738000
0(
0"
0%
1&
b0 I
b0 Z
b0 X
0W
1!
0-
0.
b0 [
13
#740000
b1 F
17
06
1:
05
0D
0A
0=
b1 L
1@
#741600
03
#745200
0&
1'
1$
1(
1"
0!
0#
b1 J
b1 Y
b1 I
b1 Z
13
#748800
03
#750000
b0 F
07
16
15
1D
1A
0>
1=
b0 K
0?
b1 H
1<
1;
#752400
0'
0$
0(
0"
0*
0/
b0 J
b0 Y
b0 I
b0 Z
b0 U
0)
b0 S
13
#756000
03
#759600
13
#760000
09
05
0D
0A
1>
b1 K
1?
b0 L
0@
b1 M
1B
#763200
03
#766800
13
#770000
b0 G
08
0>
0=
b0 K
0?
b0 M
0B
#770400
03
#774000
13
#777600
03
#780000
19
14
15
b1 K
1?
b1 L
1@
b1 M
1B
0;
#781200
1'
1$
1(
1"
b1 J
b1 Y
b1 I
b1 Z
13
#784800
03
#788400
13
#790000
b1 G
18
b1 F
17
04
06
0:
1D
1A
1>
b0 H
0<
b0 L
0@
b0 M
0B
#792000
03
#795600
0'
0$
1%
1*
1/
1#
b0 J
b0 Y
b10 X
1W
1-
b1 U
1)
b1 S
1.
13
#799200
03
#800000
09
14
1:
05
0D
0A
1=
b0 E
02
#802800
0)
13
#806400
03
#810000
0%
0(
0"
0*
0/
b0 X
0W
0#
b0 I
b0 Z
0-
b0 U
b0 S
0.
13
b0 F
07
19
04
0=
b0 K
0?
b1 H
1<
b1 L
1@
b1 E
12
1;
#813600
03
#817200
13
#820000
b1 F
17
09
0:
1=
b1 K
1?
b0 H
0<
#820800
03
#824400
13
#828000
03
#830000
b0 F
07
19
16
1:
1D
1A
0=
b0 K
0?
b1 H
1<
b1 M
1B
#831600
13
#835200
03
#838800
13
#840000
09
06
0:
15
0D
0A
0>
1=
b1 K
1?
b0 H
0<
b0 M
0B
#842400
03
#846000
13
#849600
03
#850000
b1 F
17
19
14
05
1A
b0 E
02
0;
#853200
1'
1$
1#
b1 J
b1 Y
13
#856800
03
#860000
b0 G
08
b0 F
07
16
1:
1D
b1 H
1<
b0 L
0@
b1 M
1B
#860400
0'
0$
1%
b0 J
b0 Y
b10 X
1W
1,
10
13
#864000
03
#867600
0%
1&
0,
b0 X
0W
1!
00
b1 [
13
#870000
b1 G
18
04
0:
0=
b0 H
0<
b1 L
1@
b1 E
12
#871200
03
#874800
1'
1$
1(
1"
b1 J
b1 Y
b1 I
b1 Z
13
#878400
03
#880000
b0 G
08
06
1:
0D
b0 K
0?
b1 H
1<
b0 E
02
1;
#882000
0&
0'
0$
0(
0"
0!
0#
b0 J
b0 Y
b0 I
b0 Z
13
#885600
03
#889200
13
#890000
b1 F
17
14
1D
1=
b1 K
1?
b0 H
0<
b0 L
0@
b0 M
0B
b1 E
12
#892800
03
#896400
13
#900000
03
b1 G
18
04
15
0=
b1 L
1@
#903600
13
#907200
03
#910000
b0 G
08
b0 F
07
0:
0D
1>
1=
b1 M
1B
b0 E
02
0;
#910800
1'
1$
1#
b1 J
b1 Y
13
#914400
03
#918000
13
#920000
14
1:
0A
0>
b0 K
0?
b0 L
0@
1;
#921600
03
#925200
0'
0$
0#
b0 J
b0 Y
13
#928800
03
#930000
b1 G
18
b1 F
17
09
16
0:
1A
b1 H
1<
b1 L
1@
b0 M
0B
b1 E
12
0;
#932400
1'
1$
1(
1"
1#
b1 J
b1 Y
b1 I
b1 Z
13
#936000
03
#939600
13
#940000
b0 G
08
b0 F
07
04
06
0A
b0 H
0<
#943200
03
#946800
0#
13
#950000
16
1:
1D
1A
b1 M
1B
#950400
03
#954000
1%
11
1#
b10 X
1W
1,
b1 R
10
13
#957600
03
#960000
19
0:
0=
b1 H
1<
#961200
0(
0"
0%
1&
0,
b0 I
b0 Z
b0 X
0W
1!
13
#964800
03
#968400
1(
1"
b1 I
b1 Z
13
#970000
b1 G
18
b1 F
17
09
1:
b0 H
0<
b0 L
0@
b0 M
0B
b0 E
02
#972000
03
#975600
0'
0$
0(
0"
b0 J
b0 Y
b0 I
b0 Z
13
#979200
03
#980000
b0 G
08
14
0:
b1 L
1@
b1 E
12
#982800
1'
1$
1(
1"
b1 J
b1 Y
b1 I
b1 Z
13
#986400
03
#990000
0(
0"
1%
1*
1+
b0 I
b0 Z
b10 X
1W
1-
b1 U
b1 T
1)
1.
13
19
04
06
1>
1=
b1 M
1B
b0 E
02
#993600
03
#997200
0%
1(
1"
b0 X
0W
b1 I
b1 Z
b1 V
0.
b1 \
b0 [
13
#1000000
b0 F
07
14
1:
05
0D
0A
0>
b1 H
1<
1;
#1000800
03
#1004400
0&
0'
0$
0(
0"
01
0*
0+
b0 V
0!
0#
b0 J
b0 Y
b0 I
b0 Z
b0 R
00
0-
b0 U
b0 T
0)
13
#1008000
03
#1010000
b1 G
18
b1 F
17
15
1D
1>
b0 L
0@
b1 E
12
0;
#1011600
1(
1"
1%
1*
1+
1/
b1 I
b1 Z
b10 X
1W
1-
b11 U
b1 T
1)
b1 S
1.
b1 ]
13
#1015200
03
#1018800
0%
b0 X
0W
1!
b1 V
0)
0.
b1 [
13
#1020000
b0 F
07
05
1A
0=
b1 K
1?
b1 L
1@
#1022400
03
#1026000
1&
1'
1$
1%
1#
b1 J
b1 Y
b10 X
1W
1)
1.
13
#1029600
03
#1030000
b1 F
17
04
16
0:
0>
1=
b0 K
0?
b0 L
0@
b0 M
0B
b0 E
02
#1033200
0%
b0 X
0W
0-
13
#1036800
03
#1040000
b0 G
08
b0 F
07
06
1:
15
0D
1>
0=
b1 K
1?
b0 H
0<
b1 L
1@
b1 M
1B
1;
#1040400
0&
0'
0$
0(
0"
0*
0+
0/
b0 V
0!
0#
b0 J
b0 Y
b0 I
b0 Z
b0 U
b0 T
0)
b0 S
0.
13
#1044000
03
#1047600
13
#1050000
05
0A
b0 K
0?
b1 H
1<
0;
#1051200
03
#1054800
1'
1$
b1 J
b1 Y
13
#1058400
03
#1060000
b1 F
17
09
16
0:
15
1D
0>
1=
b1 K
1?
b0 M
0B
b1 E
12
#1062000
1%
11
b10 X
1W
1,
b1 R
10
13
#1065600
03
#1069200
0%
b0 X
0W
1!
13
#1070000
19
14
06
1:
05
1>
0=
b1 M
1B
1;
#1072800
03
#1076400
0'
0$
01
0!
b0 J
b0 Y
0,
b0 R
00
13
#1080000
03
b0 F
07
0:
15
0D
1A
1=
b0 K
0?
b0 H
0<
b0 L
0@
b0 E
02
#1083600
13
#1087200
03
#1090000
04
1:
05
1D
b1 K
1?
#1090800
13
#1094400
03
#1098000
13
#1100000
b1 F
17
14
15
0D
0=
b0 M
0B
b1 E
12
#1101600
03
#1105200
13
#1108800
03
#1110000
b1 G
18
0:
05
1D
1=
b0 K
0?
b1 H
1<
b1 M
1B
0;
#1112400
1(
1"
1%
1*
1+
1/
b1 I
b1 Z
1#
b10 X
1W
1-
b11 U
b1 T
1)
b1 S
1.
13
#1116000
03
#1119600
0%
1&
b0 X
0W
1!
b1 V
13
#1120000
b0 F
07
04
16
1:
0D
0>
0=
b1 K
1?
b0 H
0<
b0 M
0B
b0 E
02
1;
#1123200
03
#1126800
0&
0(
0"
0*
0+
0/
b0 V
0!
0#
b0 I
b0 Z
0-
b0 U
b0 T
0)
b0 S
0.
13
#1130000
09
14
06
0:
15
b0 K
0?
b1 E
12
0;
#1130400
03
#1134000
1(
1"
1#
b1 I
b1 Z
13
#1137600
03
#1140000
19
05
0A
1>
b1 L
1@
b0 E
02
1;
#1141200
0(
0"
0#
b0 I
b0 Z
13
#1144800
03
#1148400
13
#1150000
b0 G
08
b1 F
17
16
1D
1A
0>
b0 L
0@
#1152000
03
#1155600
13
#1159200
03
#1160000
b1 G
18
09
06
1:
15
1>
b1 K
1?
b1 L
1@
0;
#1162800
1'
1$
1%
1*
1#
b1 J
b1 Y
b10 X
1W
1-
b1 U
1)
1.
b0 ]
13
#1166400
03
#1170000
0%
0'
0$
0*
b0 X
0W
0#
b0 J
b0 Y
0-
b0 U
0)
0.
13
b0 F
07
19
04
0D
0A
1=
b0 K
0?
b1 H
1<
1;
#1173600
03
#1177200
13
#1180000
b1 F
17
14
16
0:
1D
1A
b1 K
1?
b0 L
0@
b1 M
1B
b1 E
12
0;
#1180800
03
#1184400
1(
1"
1%
1*
1+
1/
b1 I
b1 Z
1#
b10 X
1W
1-
b11 U
b1 T
1)
b1 S
1.
b1 ]
13
#1188000
03
#1190000
b0 G
08
09
06
1:
0D
0=
b0 K
0?
b1 L
1@
#1191600
0)
0.
13
#1195200
03
#1198800
13
#1200000
b1 G
18
04
16
0:
1D
0A
0>
b0 H
0<
b0 L
0@
b0 M
0B
b0 E
02
1;
#1202400
03
#1206000
0%
0(
0"
0*
0+
0/
b0 X
0W
0#
b0 I
b0 Z
0-
b0 U
b0 T
b0 S
13
#1209600
03
#1210000
14
06
1:
05
0D
1>
1=
b1 K
1?
b1 E
12
#1213200
13
#1216800
03
#1220000
b0 G
08
b0 F
07
04
0:
15
0>
0=
b1 H
1<
b1 M
1B
0;
#1220400
1(
1"
b1 I
b1 Z
13
#1224000
03
#1227600
13
#1230000
b1 F
17
05
1D
1=
b0 H
0<
b1 L
1@
#1231200
03
#1234800
1'
1$
1%
11
b1 J
b1 Y
b10 X
1W
1,
b1 R
10
13
#1238400
03
#1240000
b1 G
18
16
15
1A
1>
b1 H
1<
b0 E
02
#1242000
0%
b0 X
0W
1!
13
#1245600
03
#1249200
0(
0"
1&
1%
1*
1+
b0 I
b0 Z
1#
b10 X
1W
1-
b11 U
b1 T
1)
1.
13
#1250000
b0 G
08
b0 F
07
19
14
05
0D
0A
0>
b0 K
0?
b0 H
0<
b0 M
0B
1;
#1252800
03
#1256400
0%
0&
0'
0$
01
0*
0+
b0 X
0W
0!
0#
b0 J
b0 Y
0,
b0 R
00
0-
b0 U
b0 T
0)
0.
13
#1260000
03
b1 G
18
b1 F
17
b1 H
1<
b1 M
1B
#1263600
13
#1267200
03
#1270000
b0 G
08
b0 F
07
04
1:
0=
0;
#1270800
1'
1$
b1 J
b1 Y
13
#1274400
03
#1278000
13
#1280000
09
14
06
15
1D
1A
b0 H
0<
b0 L
0@
b0 M
0B
1;
#1281600
03
#1285200
0'
0$
b0 J
b0 Y
13
#1288800
03
#1290000
b1 F
17
0D
0A
1>
1=
b1 L
1@
b1 E
12
0;
#1292400
1'
1$
1(
1"
b1 J
b1 Y
b1 I
b1 Z
13
#1296000
03
#1299600
13
#1300000
b1 G
18
04
0:
05
1A
0>
#1303200
03
#1306800
1#
13
#1310000
19
16
1D
1>
b1 K
1?
b1 H
1<
b0 E
02
#1310400
03
#1314000
0(
0"
1%
1*
b0 I
b0 Z
b10 X
1W
1-
b11 U
1)
1.
13
#1317600
03
#1320000
b0 F
07
09
14
1:
0D
0A
0=
b1 M
1B
1;
#1321200
0%
0'
0$
0*
b0 X
0W
0#
b0 J
b0 Y
0-
b0 U
0)
0.
13
#1324800
03
#1328400
13
#1330000
b0 G
08
04
0:
15
b0 K
0?
b0 H
0<
b0 L
0@
0;
#1332000
03
#1335600
13
#1339200
03
#1340000
b1 G
18
06
1:
1A
1=
b1 K
1?
b1 L
1@
1;
#1342800
13
#1346400
03
#1350000
13
19
14
0:
05
1D
0A
0=
b1 E
12
#1353600
03
#1357200
13
#1360000
b0 G
08
b1 F
17
09
15
0D
1A
0>
b0 K
0?
b1 H
1<
0;
#1360800
03
#1364400
1'
1$
1(
1"
1#
b1 J
b1 Y
b1 I
b1 Z
13
#1368000
03
#1370000
b0 F
07
16
1:
05
1D
1>
1=
b0 H
0<
b0 M
0B
#1371600
1%
1*
1/
b10 X
1W
1-
b1 U
1)
b1 S
1.
b0 ]
13
#1375200
03
#1378800
0%
1&
b0 X
0W
1!
0-
0)
13
#1380000
b1 G
18
06
0D
0>
0=
b0 E
02
#1382400
03
#1386000
0&
0(
0"
0!
b0 I
b0 Z
13
#1389600
03
#1390000
b0 G
08
19
16
0:
1D
0A
1=
b1 H
1<
b0 L
0@
#1393200
0'
0$
1%
0#
b0 J
b0 Y
b10 X
1W
1,
10
13
#1396800
03
#1400000
b1 G
18
0D
1>
b1 K
1?
b1 M
1B
b1 E
12
1;
#1400400
0%
0*
0/
b0 X
0W
0,
00
b0 U
b0 S
0.
13
#1404000
03
#1407600
13
#1410000
b0 G
08
09
04
06
0>
b0 K
0?
b0 H
0<
b0 M
0B
b0 E
02
#1411200
03
#1414800
13
#1418400
03
#1420000
b1 F
17
14
16
1D
1A
0=
b1 M
1B
0;
#1422000
1&
1!
1#
13
#1425600
03
#1429200
13
#1430000
04
06
15
1>
1=
b1 H
1<
b1 L
1@
b0 M
0B
#1432800
03
#1436400
1'
1$
1%
1*
b1 J
b1 Y
b10 X
1W
1-
b11 U
1)
1.
b1 ]
13
#1440000
03
14
1:
05
0D
0A
0>
0=
b1 M
1B
b1 E
12
1;
#1443600
0%
0&
0'
0$
0*
b0 X
0W
0!
0#
b0 J
b0 Y
0-
b0 U
0)
0.
13
#1447200
03
#1450000
b0 F
07
0:
1>
1=
b0 L
0@
b0 M
0B
#1450800
13
#1454400
03
#1458000
13
#1460000
b1 G
18
1:
1D
0>
0=
b1 M
1B
0;
#1461600
03
#1465200
1(
1"
1!
b1 I
b1 Z
13
#1468800
03
#1470000
b0 G
08
b1 F
17
19
1>
1=
b1 K
1?
b0 H
0<
b0 M
0B
#1472400
1%
1*
1/
b10 X
1W
1-
b1 U
1)
b1 S
1.
b0 ]
13
#1476000
03
#1479600
0%
b0 X
0W
b1 V
0)
b0 [
13
#1480000
b1 G
18
b0 F
07
04
16
0D
0>
b1 L
1@
b0 E
02
1;
#1483200
03
#1486800
0(
0"
0*
0/
b0 V
0!
b0 I
b0 Z
0-
b0 U
b0 S
0.
13
#1490000
b0 G
08
b1 F
17
06
15
1D
1>
b0 K
0?
b0 L
0@
#1490400
03
#1494000
13
#1497600
03
#1500000
b1 G
18
14
16
0>
0=
b1 K
1?
0;
#1501200
1!
13
#1504800
03
#1508400
13
#1510000
09
04
06
0:
05
0D
1=
b1 H
1<
b1 M
1B
b1 E
12
1;
#1512000
03
#1515600
0!
13
#1519200
03
#1520000
b0 G
08
b0 F
07
14
16
1:
b0 H
0<
b1 L
1@
0;
#1522800
1'
1$
1(
1"
b1 J
b1 Y
b1 I
b1 Z
13
#1526400
03
#1530000
0'
0$
0(
0"
b0 J
b0 Y
b0 I
b0 Z
13
b1 F
17
19
04
06
15
1D
0=
b0 K
0?
1;
#1533600
03
#1537200
13
#1540000
b1 G
18
b0 F
07
14
16
0:
05
1=
b1 H
1<
b0 M
0B
0;
#1540800
03
#1544400
1'
1$
1%
11
b1 J
b1 Y
b10 X
1W
1,
b1 R
10
13
#1548000
03
#1550000
b0 G
08
b1 F
17
09
1:
1A
0=
b1 K
1?
b0 H
0<
1;
#1551600
0%
0'
0$
01
b0 X
0W
b0 J
b0 Y
0,
b0 R
00
13
#1555200
03
#1558800
13
