peripherals/aes_engine/tb_aes_engine.vcd
$date
	Thu Jun  4 21:39:17 2026
$end
$version
	Icarus Verilog
$end
$timescale
	1ps
$end
$scope module tb_aes_engine $end
$var wire 1 ! pready $end
$var wire 1 " pslverr $end
$var wire 1 # s_axis_tready $end
$var wire 1 $ prdata $end
$var wire 1 % m_axis_tvalid $end
$var wire 1 & m_axis_tlast $end
$var wire 1 ' m_axis_tdata $end
$var wire 1 ( aes_irq $end
$var reg 1 ) clk $end
$var reg 1 * m_axis_tready $end
$var reg 1 + paddr $end
$var reg 1 , penable $end
$var reg 1 - psel $end
$var reg 1 . pwdata $end
$var reg 1 / pwrite $end
$var reg 1 0 rst_n $end
$var reg 1 1 s_axis_tdata $end
$var reg 1 2 s_axis_tlast $end
$var reg 1 3 s_axis_tvalid $end
$scope module uut $end
$var wire 1 ) clk $end
$var wire 32 4 m_axis_tdata [31:0] $end
$var wire 1 & m_axis_tlast $end
$var wire 1 * m_axis_tready $end
$var wire 1 % m_axis_tvalid $end
$var wire 32 5 paddr [31:0] $end
$var wire 1 , penable $end
$var wire 1 ! pready $end
$var wire 1 - psel $end
$var wire 1 " pslverr $end
$var wire 32 6 pwdata [31:0] $end
$var wire 1 / pwrite $end
$var wire 1 0 rst_n $end
$var wire 32 7 s_axis_tdata [31:0] $end
$var wire 1 2 s_axis_tlast $end
$var wire 1 # s_axis_tready $end
$var wire 1 3 s_axis_tvalid $end
$var wire 32 8 prdata [31:0] $end
$var wire 1 ( aes_irq $end
$var reg 32 9 aad_len [31:0] $end
$var reg 32 : ctrl_reg [31:0] $end
$var reg 32 ; data_pipe [31:0] $end
$var reg 1 < last_pipe $end
$var reg 32 = prdata_reg [31:0] $end
$var reg 32 > stat_reg [31:0] $end
$var reg 1 ? valid_pipe $end
$upscope $end
$upscope $end
$enddefinitions $end
$comment Show the parameter values. $end
$dumpall
$end
#0
$dumpvars
x?
bx >
bx =
x<
bx ;
bx :
bx 9
bx 8
b0 7
b0 6
b0 5
bx 4
03
02
01
x0
0/
0.
0-
0,
0+
0*
0)
x(
x'
x&
x%
x$
x#
0"
1!
$end
#3600
1)
#7200
0)
#10000
0$
0'
1#
0(
b0 8
b0 =
0&
0<
b0 4
b0 ;
0%
0?
b0 9
b0 >
b0 :
00
#10800
1)
#14400
0)
#18000
1)
#21600
0)
#25200
1)
#28800
0)
#32400
1)
#36000
0)
#39600
1)
#43200
0)
#46800
1)
#50400
0)
#54000
1)
#57600
0)
#61200
1)
#64800
0)
#68400
1)
#72000
0)
#75600
1)
#79200
0)
#82800
1)
#86400
0)
#90000
1)
#93600
0)
#97200
1)
#100800
0)
#104400
1)
#108000
0)
#110000
10
#111600
1)
#115200
0)
#118800
1)
#122400
0)
#126000
1)
#129600
0)
#133200
1)
#136800
0)
#140000
1*
13
b1 7
11
b1 6
1.
1/
1,
1-
#140400
1$
b1 8
b1 =
x'
b1 :
b1 >
1%
1?
bx 4
bx ;
1)
#144000
0)
#147600
1)
#150000
0$
0#
b0 8
b0 =
0*
12
03
b0 6
0.
0-
b1 5
1+
#151200
0)
#154800
1)
#158400
0)
#160000
b0 7
01
0,
1-
#162000
1)
#165600
0)
#169200
1)
#170000
1#
1*
02
1,
#172800
0)
#176400
0%
0?
1)
#180000
1$
b1 8
b1 =
0)
b1 7
11
b1 6
1.
b0 5
0+
#183600
1)
#187200
0)
#190000
0$
b0 8
b0 =
0*
12
b0 7
01
b0 6
0.
0/
0,
b1 5
1+
#190800
1)
#194400
0)
#198000
1)
#200000
1$
b1 8
b1 =
1*
02
1,
b0 5
0+
#201600
0)
#205200
1)
#208800
0)
#210000
0$
b0 8
b0 =
12
13
1/
b1 5
1+
#212400
1(
b11 >
1&
1<
1%
1?
1)
#216000
0)
#219600
1)
#220000
1$
b1 8
b1 =
02
b1 7
11
0-
b0 5
0+
#223200
0)
#226800
0&
0<
1)
#230000
0$
0#
b0 8
b0 =
0*
03
b0 7
01
b1 6
1.
0,
1-
b1 5
1+
#230400
0)
#234000
1)
#237600
0)
#240000
1#
1*
12
13
b1 7
11
0/
#241200
1&
1<
1)
#244800
0)
#248400
1)
#250000
1$
0#
b1 8
b1 =
0*
02
03
b0 7
01
b0 6
0.
1/
1,
b0 5
0+
#252000
0)
#255600
0$
b0 8
b0 =
b0 :
1)
#259200
0)
#260000
1#
1*
13
b1 7
11
b1 6
1.
0-
#262800
0&
0<
1)
#266400
0)
#270000
1&
1<
1)
12
b0 7
01
0,
b1 5
1+
#273600
0)
#277200
1)
#280000
02
03
0/
#280800
0)
#284400
b10 >
0%
0?
1)
#288000
0)
#290000
0*
12
b0 6
0.
1/
#291600
1)
#295200
0)
#298800
1)
#300000
13
b1 7
11
b1 6
1.
1-
b0 5
0+
#302400
0)
#306000
0#
b11 >
1%
1?
1)
#309600
0)
#310000
02
b0 6
0.
0/
1,
0-
#313200
1)
#316800
0)
#320000
12
b0 7
01
1-
#320400
1)
#324000
0)
#327600
1)
#330000
02
03
b1 7
11
0-
#331200
0)
#334800
1)
#338400
0)
#340000
1#
1*
b0 7
01
1/
b1 5
1+
#342000
b10 >
0%
0?
1)
#345600
0)
#349200
1)
#350000
13
b1 7
11
b1 6
1.
0/
0,
b0 5
0+
#352800
0)
#356400
b11 >
0&
0<
1%
1?
1)
#360000
0)
12
1-
b1 5
1+
#363600
1&
1<
1)
#367200
0)
#370000
03
b0 7
01
b0 6
0.
1,
b0 5
0+
#370800
b10 >
0%
0?
1)
#374400
0)
#378000
1)
#380000
02
b1 7
11
0-
#381600
0)
#385200
1)
#388800
0)
#390000
b0 7
01
b1 6
1.
1/
#392400
1)
#396000
0)
#399600
1)
#400000
0*
12
b0 6
0.
0/
#403200
0)
#406800
1)
#410000
1*
13
b1 7
11
1/
#410400
0)
#414000
b11 >
1%
1?
1)
#417600
0)
#420000
0#
0*
02
b0 7
01
1-
#421200
1)
#424800
0)
#428400
1)
#430000
12
03
b1 6
1.
0/
0,
b1 5
1+
#432000
0)
#435600
1)
#439200
0)
#440000
1#
1*
02
b1 7
11
b0 6
0.
1/
#442800
b10 >
0%
0?
1)
#446400
0)
#450000
0#
b11 >
1%
1?
1)
0*
12
13
b1 6
1.
0-
b0 5
0+
#453600
0)
#457200
1)
#460000
02
03
b0 7
01
b0 6
0.
0/
1,
1-
b1 5
1+
#460800
0)
#464400
1)
#468000
0)
#470000
1#
1*
13
b1 7
11
b1 6
1.
1/
#471600
0&
0<
1)
#475200
0)
#478800
1)
#480000
0#
0*
#482400
0)
#486000
1)
#489600
0)
#490000
b0 7
01
b0 6
0.
0/
0,
#493200
1)
#496800
0)
#500000
12
03
b1 6
1.
0-
b0 5
0+
#500400
1)
#504000
0)
#507600
1)
#510000
13
b1 7
11
1/
#511200
0)
#514800
1)
#518400
0)
#520000
1#
1*
03
b0 7
01
0/
1,
1-
b1 5
1+
#522000
0%
0?
1)
#525600
0)
#529200
1)
#530000
0*
02
0,
b0 5
0+
#532800
0)
#536400
1)
#540000
0)
1*
12
13
b1 7
11
b0 6
0.
1/
1,
b1 5
1+
#543600
1&
1<
1%
1?
1)
#547200
0)
#550000
0#
0*
02
b0 7
01
b1 6
1.
0/
#550800
1)
#554400
0)
#558000
1)
#560000
b0 6
0.
0,
0-
#561600
0)
#565200
1)
#568800
0)
#570000
b1 6
1.
b0 5
0+
#572400
1)
#576000
0)
#579600
1)
#580000
12
03
b1 7
11
b0 6
0.
1/
1,
b1 5
1+
#583200
0)
#586800
1)
#590000
1#
1*
0,
b0 5
0+
#590400
0)
#594000
b10 >
0%
0?
1)
#597600
0)
#600000
b1 6
1.
1-
#601200
1)
#604800
0)
#608400
1)
#610000
0*
13
b0 7
01
b0 6
0.
1,
0-
#612000
0)
#615600
0#
b11 >
1%
1?
1)
#619200
0)
#620000
1#
1*
02
03
b1 7
11
b1 6
1.
0/
0,
1-
#622800
b10 >
0%
0?
1)
#626400
0)
#630000
1)
12
b0 6
0.
1/
1,
0-
#633600
0)
#637200
1)
#640000
0*
13
1-
#640800
0)
#644400
0#
b11 >
1%
1?
1)
#648000
0)
#650000
1#
1*
03
b0 7
01
b1 6
1.
0/
0,
#651600
b10 >
0%
0?
1)
#655200
0)
#658800
1)
#660000
0*
02
13
b1 7
11
1/
#662400
0)
#666000
0#
b11 >
0&
0<
1%
1?
1)
#669600
0)
#670000
1#
1*
03
0/
1,
0-
b1 5
1+
#673200
0%
0?
1)
#676800
0)
#680000
12
b0 7
01
0,
1-
#680400
1)
#684000
0)
#687600
1)
#690000
b0 6
0.
1/
1,
0-
#691200
0)
#694800
1)
#698400
0)
#700000
0*
13
b1 7
11
b1 6
1.
0/
0,
#702000
0#
1&
1<
1%
1?
1)
#705600
0)
#709200
1)
#710000
1#
1*
02
1/
1,
1-
#712800
0)
#716400
0&
0<
1)
#720000
0)
12
0,
0-
b0 5
0+
#723600
1&
1<
1)
#727200
0)
#730000
0#
0*
02
b0 7
01
b0 6
0.
0/
1,
1-
b1 5
1+
#730800
1)
#734400
0)
#738000
1)
#740000
12
b0 5
0+
#741600
0)
#745200
1)
#748800
0)
#750000
1#
1*
0-
b1 5
1+
#752400
1)
#756000
0)
#759600
1)
#760000
0#
0*
02
b1 7
11
1/
0,
1-
b0 5
0+
#763200
0)
#766800
1)
#770000
1#
1*
b0 7
01
1,
0-
#770400
0)
#774000
0&
0<
1)
#777600
0)
#780000
0#
0*
03
b1 7
11
b1 6
1.
0/
1-
#781200
1)
#784800
0)
#788400
1)
#790000
1/
#792000
0)
#795600
1$
b1 8
b1 =
b1 :
1)
#799200
0)
#800000
1#
1*
12
13
0/
0,
0-
#802800
1&
1<
1)
#806400
0)
#810000
b10 >
0%
0?
0$
b0 8
b0 =
1)
02
03
b0 7
01
b0 6
0.
1-
b1 5
1+
#813600
0)
#817200
1)
#820000
0*
13
b1 7
11
b1 6
1.
1,
0-
#820800
0)
#824400
0#
b11 >
0&
0<
1%
1?
1)
#828000
0)
#830000
1$
b1 8
b1 =
03
b0 7
01
1-
b0 5
0+
#831600
1)
#835200
0)
#838800
1)
#840000
1#
1*
b1 7
11
b0 6
0.
0-
#842400
0)
#846000
0%
0?
1)
#849600
0)
#850000
0$
b0 8
b0 =
0*
12
13
b1 6
1.
0,
1-
b1 5
1+
#853200
0#
1&
1<
1%
1?
1)
#856800
0)
#860000
1#
1*
02
03
b0 6
0.
1/
1,
#860400
b10 >
0%
0?
1)
#864000
0)
#867600
1)
#870000
1$
b1 8
b1 =
0*
b0 7
01
0/
0-
b0 5
0+
#871200
0)
#874800
1)
#878400
0)
#880000
0$
b0 8
b0 =
1*
12
13
b1 7
11
b1 6
1.
0,
1-
b1 5
1+
#882000
b11 >
1%
1?
1)
#885600
0)
#889200
1)
#890000
03
b0 7
01
b0 6
0.
1/
#892800
0)
#896400
b10 >
0%
0?
1)
#900000
1$
b1 8
b1 =
0)
02
1,
b0 5
0+
#903600
0$
b0 8
b0 =
b0 :
1)
#907200
0)
#910000
0*
0,
b1 5
1+
#910800
1)
#914400
0)
#918000
1)
#920000
1*
12
13
b1 7
11
0/
1,
0-
b0 5
0+
#921600
0)
#925200
b11 >
1%
1?
1)
#928800
0)
#930000
0#
0*
02
0,
b1 5
1+
#932400
1)
#936000
0)
#939600
1)
#940000
1#
1*
03
b0 7
01
b1 6
1.
1/
1,
1-
#943200
0)
#946800
b10 >
0%
0?
1)
#950000
0*
12
b0 6
0.
0/
0,
b0 5
0+
#950400
0)
#954000
1)
#957600
0)
#960000
1*
02
13
b1 6
1.
1/
b1 5
1+
#961200
b11 >
0&
0<
1%
1?
1)
#964800
0)
#968400
1)
#970000
0#
0*
03
0-
#972000
0)
#975600
1)
#979200
0)
#980000
1#
1*
12
13
b1 7
11
b0 6
0.
0/
1,
1-
#982800
1&
1<
1)
#986400
0)
#990000
0&
0<
1)
02
b0 7
01
1/
0-
b0 5
0+
#993600
0)
#997200
1)
#1000000
03
0/
1-
#1000800
0)
#1004400
0%
0?
1)
#1008000
0)
#1010000
b1 7
11
0,
#1011600
1)
#1015200
0)
#1018800
1)
#1020000
12
b1 6
1.
1/
1,
#1022400
0)
#1026000
1$
b1 8
b1 =
b1 :
1)
#1029600
0)
#1030000
13
0/
0-
#1033200
1&
1<
1%
1?
1)
#1036800
0)
#1040000
0#
0*
02
b0 6
0.
1/
0,
1-
#1040400
1)
#1044000
0)
#1047600
1)
#1050000
1#
1*
12
b0 7
01
1,
0-
#1051200
0)
#1054800
1)
#1058400
0)
#1060000
0$
0#
b0 8
b0 =
0*
02
0/
0,
1-
b1 5
1+
#1062000
1)
#1065600
0)
#1069200
1)
#1070000
03
b1 7
11
1,
0-
#1072800
0)
#1076400
1)
#1080000
1$
b1 8
b1 =
0)
12
b0 7
01
b1 6
1.
1/
0,
1-
b0 5
0+
#1083600
1)
#1087200
0)
#1090000
0$
1#
b0 8
b0 =
1*
02
b1 7
11
b0 6
0.
1,
b1 5
1+
#1090800
b10 >
0%
0?
1)
#1094400
0)
#1098000
1)
#1100000
12
13
b1 6
1.
0,
#1101600
0)
#1105200
b11 >
1%
1?
1)
#1108800
0)
#1110000
1$
0#
b1 8
b1 =
0*
03
b0 6
0.
0/
b0 5
0+
#1112400
1)
#1116000
0)
#1119600
1)
#1120000
0$
1#
b0 8
b0 =
1*
02
0-
b1 5
1+
#1123200
0)
#1126800
b10 >
0%
0?
1)
#1130000
1$
b1 8
b1 =
b1 6
1.
1-
b0 5
0+
#1130400
0)
#1134000
1)
#1137600
0)
#1140000
0$
b0 8
b0 =
0*
12
1/
1,
0-
b1 5
1+
#1141200
1)
#1144800
0)
#1148400
1)
#1150000
1$
b1 8
b1 =
1*
0/
1-
b0 5
0+
#1152000
0)
#1155600
1)
#1159200
0)
#1160000
0$
b0 8
b0 =
0*
02
b0 7
01
0-
b1 5
1+
#1162800
1)
#1166400
0)
#1170000
0#
b11 >
1%
1?
1$
b1 8
b1 =
1)
12
13
b1 7
11
b0 6
0.
0,
b0 5
0+
#1173600
0)
#1177200
1)
#1180000
1/
1,
#1180800
0)
#1184400
1)
#1188000
0)
#1190000
03
b0 7
01
0/
1-
#1191600
1)
#1195200
0)
#1198800
1)
#1200000
0$
1#
b0 8
b0 =
1*
02
13
b1 7
11
1/
0,
b1 5
1+
#1202400
0)
#1206000
0&
0<
1)
#1209600
0)
#1210000
0#
0*
b0 7
01
b1 6
1.
0/
1,
#1213200
1)
#1216800
0)
#1220000
1$
1#
b1 8
b1 =
1*
12
03
0-
b0 5
0+
#1220400
0%
0?
1)
#1224000
0)
#1227600
1)
#1230000
0$
b0 8
b0 =
02
b1 7
11
1/
0,
1-
b1 5
1+
#1231200
0)
#1234800
1)
#1238400
0)
#1240000
0*
12
b0 7
01
#1242000
1)
#1245600
0)
#1249200
1)
#1250000
1$
b1 8
b1 =
02
b1 7
11
b0 6
0.
0/
1,
b0 5
0+
#1252800
0)
#1256400
1)
#1260000
0$
b0 8
b0 =
0)
12
b1 6
1.
1/
b1 5
1+
#1263600
1)
#1267200
0)
#1270000
1*
02
13
b0 7
01
0/
0-
#1270800
1%
1?
1)
#1274400
0)
#1278000
1)
#1280000
1$
b1 8
b1 =
03
b1 7
11
b0 6
0.
0,
1-
b0 5
0+
#1281600
0)
#1285200
0%
0?
1)
#1288800
0)
#1290000
0$
b0 8
b0 =
13
1/
1,
b1 5
1+
#1292400
1%
1?
1)
#1296000
0)
#1299600
1)
#1300000
1$
0#
b1 8
b1 =
0*
12
03
b1 6
1.
b0 5
0+
#1303200
0)
#1306800
1)
#1310000
0$
1#
b0 8
b0 =
1*
13
b0 6
0.
b1 5
1+
#1310400
0)
#1314000
1&
1<
1)
#1317600
0)
#1320000
1$
b1 8
b1 =
02
03
b0 7
01
b1 6
1.
0,
0-
b0 5
0+
#1321200
b10 >
0%
0?
1)
#1324800
0)
#1328400
1)
#1330000
0$
b0 8
b0 =
0*
0/
1-
b1 5
1+
#1332000
0)
#1335600
1)
#1339200
0)
#1340000
1$
b1 8
b1 =
b0 6
0.
1/
1,
0-
b0 5
0+
#1342800
1)
#1346400
0)
#1350000
0$
b0 8
b0 =
1)
b1 6
1.
1-
b1 5
1+
#1353600
0)
#1357200
1)
#1360000
1*
#1360800
0)
#1364400
1)
#1368000
0)
#1370000
1$
b1 8
b1 =
12
13
b1 7
11
b0 6
0.
0,
0-
b0 5
0+
#1371600
b11 >
1%
1?
1)
#1375200
0)
#1378800
1)
#1380000
0#
0*
02
03
b1 6
1.
#1382400
0)
#1386000
1)
#1389600
0)
#1390000
1#
1*
b0 7
01
1,
#1393200
b10 >
0%
0?
1)
#1396800
0)
#1400000
13
b1 7
11
0,
1-
#1400400
b11 >
0&
0<
1%
1?
1)
#1404000
0)
#1407600
1)
#1410000
0$
0#
b0 8
b0 =
0*
12
03
b0 7
01
b0 6
0.
0-
b1 5
1+
#1411200
0)
#1414800
1)
#1418400
0)
#1420000
1$
b1 8
b1 =
b1 7
11
b1 6
1.
1-
b0 5
0+
#1422000
1)
#1425600
0)
#1429200
1)
#1430000
0$
b0 8
b0 =
02
b0 7
01
b0 6
0.
0/
1,
b1 5
1+
#1432800
0)
#1436400
1)
#1440000
1$
b1 8
b1 =
0)
12
13
b1 7
11
b1 6
1.
1/
b0 5
0+
#1443600
1)
#1447200
0)
#1450000
1#
1*
02
b0 6
0.
#1450800
0$
b0 8
b0 =
b0 :
1)
#1454400
0)
#1458000
1)
#1460000
12
03
#1461600
0)
#1465200
0%
0?
1)
#1468800
0)
#1470000
0*
02
b0 7
01
0,
0-
#1472400
1)
#1476000
0)
#1479600
1)
#1480000
12
13
b1 6
1.
0/
b1 5
1+
#1483200
0)
#1486800
0#
1&
1<
1%
1?
1)
#1490000
1#
1*
b1 7
11
b0 6
0.
#1490400
0)
#1494000
1)
#1497600
0)
#1500000
02
b1 6
1.
1,
b0 5
0+
#1501200
0&
0<
1)
#1504800
0)
#1508400
1)
#1510000
0#
0*
03
1/
b1 5
1+
#1512000
0)
#1515600
1)
#1519200
0)
#1520000
1#
1*
12
b0 7
01
0/
1-
#1522800
0%
0?
1)
#1526400
0)
#1530000
0#
1&
1<
1%
1?
1)
0*
13
0-
b0 5
0+
#1533600
0)
#1537200
1)
#1540000
02
b0 6
0.
1-
b1 5
1+
#1540800
0)
#1544400
1)
#1548000
0)
#1550000
12
1/
0,
0-
#1551600
1)
#1555200
0)
#1558800
1)
#1560000
1#
1*
02
b1 7
11
1,
b0 5
0+
#1562400
0)
#1566000
0&
0<
1)
#1569600
0)
#1570000
1-
#1573200
1)
#1576800
0)
#1580000
0#
0*
12
b1 6
1.
0/
0,
#1580400
1)
#1584000
0)
#1587600
1)
#1590000
b0 7
01
b0 6
0.
1/
1,
#1591200
0)
#1594800
1)
#1598400
0)
#1600000
02
03
b1 7
11
b1 5
1+
#1602000
1)
#1605600
0)
#1609200
1)
#1610000
0,
0-
#1612800
0)
#1616400
1)
#1620000
1#
0)
1*
12
b1 6
1.
0/
#1623600
0%
0?
1)
#1627200
0)
#1630000
02
13
b0 6
0.
1/
b0 5
0+
#1630800
1%
1?
1)
#1634400
0)
#1638000
1)
#1640000
1-
#1641600
0)
#1645200
1)
#1648800
0)
#1650000
0#
0*
12
03
b0 7
01
b1 6
1.
0/
1,
0-
b1 5
1+
#1652400
1)
#1656000
0)
#1659600
1)
#1660000
02
b0 6
0.
b0 5
0+
#1663200
0)
#1666800
1)
#1670000
1#
1*
13
1/
1-
#1670400
0)
#1674000
1)
#1677600
0)
#1680000
0#
0*
03
b1 5
1+
#1681200
1)
#1684800
0)
#1688400
1)
#1690000
1#
1*
12
#1692000
0)
#1695600
0%
0?
1)
#1699200
0)
#1700000
0*
02
b1 6
1.
0/
0-
#1702800
1)
#1706400
0)
#1710000
1&
1<
1%
1?
1)
1*
12
13
b0 6
0.
0,
b0 5
0+
#1713600
0)
#1717200
1)
#1720000
0#
0*
03
b1 7
11
b1 6
1.
1-
b1 5
1+
#1720800
0)
#1724400
1)
#1728000
0)
#1730000
13
b0 6
0.
0-
#1731600
1)
#1735200
0)
#1738800
1)
#1740000
1#
1*
03
b0 7
01
1/
1-
#1742400
0)
#1746000
b10 >
0%
0?
1)
#1749600
0)
#1750000
0*
02
13
b1 7
11
b1 6
1.
1,
0-
b0 5
0+
#1753200
0#
b11 >
0&
0<
1%
1?
1)
#1756800
0)
#1760000
1#
1*
12
b0 7
01
0/
1-
#1760400
1&
1<
1)
#1764000
0)
#1767600
1)
#1770000
02
b0 6
0.
0,
#1771200
0)
#1774800
0&
0<
1)
#1778400
0)
#1780000
0#
0*
12
03
b1 7
11
b1 6
1.
0-
b1 5
1+
#1782000
1)
#1785600
0)
#1789200
1)
#1790000
1#
1*
1/
1-
#1792800
0)
#1796400
0%
0?
1)
#1800000
0)
0*
13
#1803600
0#
1&
1<
1%
1?
1)
#1807200
0)
#1810000
b0 7
01
0/
1,
#1810800
1)
#1814400
0)
#1818000
1)
#1820000
03
b1 7
11
b0 6
0.
0,
0-
#1821600
0)
#1825200
1)
#1828800
0)
#1830000
1#
1*
13
b0 7
01
b1 6
1.
1-
#1832400
1)
#1836000
0)
#1839600
1)
#1840000
03
b1 7
11
b0 6
0.
1/
1,
0-
#1843200
0)
#1846800
b10 >
0%
0?
1)
#1850000
0*
02
0/
1-
b0 5
0+
#1850400
0)
#1854000
1)
#1857600
0)
#1860000
13
b0 7
01
1/
#1861200
0#
b11 >
0&
0<
1%
1?
1)
#1864800
0)
#1868400
1)
#1870000
1#
1*
03
b1 6
1.
0/
0,
#1872000
0)
#1875600
0%
0?
1)
#1879200
0)
#1880000
12
1/
1,
#1882800
1$
b1 8
b1 =
b1 :
1)
#1886400
0)
#1890000
1&
1<
1%
1?
1)
13
0/
0,
#1893600
0)
#1897200
1)
#1900000
0$
b0 8
b0 =
02
1,
b1 5
1+
#1900800
0)
#1904400
0&
0<
1)
#1908000
0)
#1910000
1$
0#
b1 8
b1 =
0*
12
03
b1 7
11
b0 6
0.
1/
b0 5
0+
#1911600
0$
b0 8
b0 =
b0 :
1)
#1915200
0)
#1918800
1)
#1920000
02
13
b0 7
01
b1 6
1.
0-
#1922400
0)
#1926000
1)
#1929600
0)
#1930000
0/
0,
1-
b1 5
1+
#1933200
1)
#1936800
0)
#1940000
1/
1,
#1940400
1)
#1944000
0)
#1947600
1)
#1950000
1#
1*
03
0,
0-
#1951200
0)
#1954800
0%
0?
1)
#1958400
0)
#1960000
12
b1 7
11
0/
1,
1-
b0 5
0+
#1962000
1)
#1965600
0)
#1969200
1)
#1970000
02
13
b0 7
01
1/
0,
0-
b1 5
1+
#1972800
0)
#1976400
1%
1?
1)
#1980000
0)
12
b0 6
0.
0/
1,
1-
#1983600
1&
1<
1)
#1987200
0)
#1990000
0#
0*
02
0,
#1990800
1)
#1994400
0)
#1998000
1)
#2000000
1#
1*
b1 6
1.
1/
0-
#2001600
0)
#2005200
0&
0<
1)
#2008800
0)
#2010000
03
b0 6
0.
0/
1-
b0 5
0+
#2012400
0%
0?
1)
#2016000
0)
#2019600
1)
#2020000
12
b1 6
1.
#2023200
0)
#2026800
1)
#2030000
0*
02
13
b0 6
0.
1,
0-
#2030400
0)
#2034000
0#
1%
1?
1)
#2037600
0)
#2040000
12
b1 6
1.
1/
0,
#2041200
1)
#2044800
0)
#2048400
1)
#2050000
b0 6
0.
0/
#2052000
0)
#2055600
1)
#2059200
0)
#2060000
02
03
b1 6
1.
1/
1,
1-
#2062800
1$
b1 8
b1 =
b1 :
1)
#2066400
0)
#2070000
1&
1<
0$
1#
b0 8
b0 =
1)
1*
12
13
b1 7
11
0/
0-
b1 5
1+
#2073600
0)
#2077200
1)
#2080000
1$
b1 8
b1 =
02
03
1/
0,
1-
b0 5
0+
#2080800
0)
#2084400
b10 >
0%
0?
1)
#2088000
0)
#2090000
0$
b0 8
b0 =
0*
12
13
b0 7
01
b0 6
0.
1,
0-
b1 5
1+
#2091600
0#
b11 >
1%
1?
1)
#2095200
0)
#2098800
1)
#2100000
1$
1#
b1 8
b1 =
1*
02
b1 7
11
0,
1-
b0 5
0+
#2102400
0)
#2106000
0&
0<
1)
#2109600
0)
#2110000
0$
b0 8
b0 =
12
03
b1 6
1.
1,
b1 5
1+
#2113200
0%
0?
1)
#2116800
0)
#2120000
0*
13
0/
#2120400
0#
1&
1<
1%
1?
1)
#2124000
0)
#2127600
1)
#2130000
1$
b1 8
b1 =
03
b0 5
0+
#2131200
0)
#2134800
1)
#2138400
0)
#2140000
0$
b0 8
b0 =
02
b0 7
01
b0 6
0.
0-
b1 5
1+
#2142000
1)
#2145600
0)
#2149200
1)
#2150000
1$
1#
b1 8
b1 =
1*
b1 7
11
1/
b0 5
0+
#2152800
0)
#2156400
b10 >
0%
0?
1)
#2160000
0$
b0 8
b0 =
0)
12
13
b0 7
01
0/
1-
b1 5
1+
#2163600
b11 >
1%
1?
1)
#2167200
0)
#2170000
1$
b1 8
b1 =
03
b1 7
11
1/
0,
0-
b0 5
0+
#2170800
b10 >
0%
0?
1)
#2174400
0)
#2178000
1)
#2180000
0*
02
b1 6
1.
0/
1,
1-
#2181600
0)
#2185200
1)
#2188800
0)
#2190000
b0 7
01
b0 6
0.
0,
#2192400
1)
#2196000
0)
#2199600
1)
#2200000
0$
b0 8
b0 =
1*
b1 7
11
b1 6
1.
1,
b1 5
1+
#2203200
0)
#2206800
1)
#2210000
1$
b1 8
b1 =
0*
b0 6
0.
0,
0-
b0 5
0+
#2210400
0)
#2214000
1)
#2217600
0)
#2220000
0$
b0 8
b0 =
1*
12
13
b1 6
1.
1/
1,
1-
b1 5
1+
#2221200
b11 >
1%
1?
1)
#2224800
0)
#2228400
1)
#2230000
1$
0#
b1 8
b1 =
0*
02
0/
0,
b0 5
0+
#2232000
0)
#2235600
1)
#2239200
0)
#2240000
0$
b0 8
b0 =
03
b0 7
01
b0 6
0.
1/
0-
b1 5
1+
#2242800
1)
#2246400
0)
#2250000
b10 >
0%
0?
1#
1)
1*
12
b1 7
11
0/
1,
1-
#2253600
0)
#2257200
1)
#2260000
02
b0 7
01
0-
#2260800
0)
#2264400
1)
#2268000
0)
#2270000
12
13
1/
1-
#2271600
b11 >
1%
1?
1)
#2275200
0)
#2278800
1)
#2280000
1$
0#
b1 8
b1 =
0*
0/
0,
0-
b0 5
0+
#2282400
0)
#2286000
1)
#2289600
0)
#2290000
0$
b0 8
b0 =
02
03
1/
b1 5
1+
#2293200
1)
#2296800
0)
#2300000
1$
b1 8
b1 =
12
b1 7
11
b1 6
1.
1,
b0 5
0+
#2300400
1)
#2304000
0)
#2307600
1)
#2310000
1#
1*
02
b0 6
0.
0,
#2311200
0)
#2314800
b10 >
0%
0?
1)
#2318400
0)
#2320000
0$
b0 8
b0 =
13
b0 7
01
b1 6
1.
b1 5
1+
#2322000
b11 >
0&
0<
1%
1?
1)
#2325600
0)
#2329200
1)
#2330000
1$
0#
b1 8
b1 =
0*
12
03
0/
1,
b0 5
0+
#2332800
0)
#2336400
1)
#2340000
0$
1#
b0 8
b0 =
0)
1*
b0 6
0.
0,
b1 5
1+
#2343600
0%
0?
1)
#2347200
0)
#2350000
1$
b1 8
b1 =
13
b1 7
11
b1 6
1.
1/
b0 5
0+
#2350800
1&
1<
1%
1?
1)
#2354400
0)
#2358000
1)
#2360000
0$
b0 8
b0 =
b0 6
0.
b1 5
1+
#2361600
0)
#2365200
1)
#2368800
0)
#2370000
1$
0#
b1 8
b1 =
0*
02
b0 7
01
b1 6
1.
1,
1-
b0 5
0+
#2372400
1)
#2376000
0)
#2379600
1)
#2380000
b0 6
0.
#2383200
0)
#2386800
0$
b0 8
b0 =
b0 :
1)
#2390000
1#
1*
03
b1 7
11
0/
0,
0-
b1 5
1+
#2390400
0)
#2394000
b10 >
0%
0?
1)
#2397600
0)
#2400000
13
b0 7
01
1-
b0 5
0+
#2401200
b11 >
0&
0<
1%
1?
1)
#2404800
0)
#2408400
1)
#2410000
12
03
b1 7
11
b1 6
1.
1/
1,
0-
b1 5
1+
#2412000
0)
#2415600
0%
0?
1)
#2419200
0)
#2420000
13
0/
0,
b0 5
0+
#2422800
1&
1<
1%
1?
1)
#2426400
0)
#2430000
0#
1)
0*
02
03
b0 6
0.
1/
1-
#2433600
0)
#2437200
1)
#2440000
1#
1*
12
13
b1 5
1+
#2440800
0)
#2444400
1)
#2448000
0)
#2450000
02
03
0-
b0 5
0+
#2451600
b10 >
0%
0?
1)
#2455200
0)
#2458800
1)
#2460000
0*
13
b0 7
01
b1 6
1.
0/
1-
#2462400
0)
#2466000
0#
b11 >
0&
0<
1%
1?
1)
#2469600
0)
#2470000
12
b1 7
11
b0 6
0.
1/
1,
b1 5
1+
#2473200
1)
#2476800
0)
#2480000
02
03
0/
0,
0-
b0 5
0+
#2480400
1)
#2484000
0)
#2487600
1)
#2490000
13
b0 7
01
b1 6
1.
1-
#2491200
0)
#2494800
1)
#2498400
0)
#2500000
12
03
b1 7
11
b0 6
0.
0-
b1 5
1+
#2502000
1)
#2505600
0)
#2509200
1)
#2510000
02
13
b1 6
1.
1-
b0 5
0+
#2512800
0)
#2516400
1)
#2520000
0)
12
1,
b1 5
1+
#2523600
1)
#2527200
0)
#2530000
1#
1*
03
1/
0,
0-
b0 5
0+
#2530800
0%
0?
1)
#2534400
0)
#2538000
1)
#2540000
0*
02
b0 6
0.
0/
#2541600
0)
#2545200
1)
#2548800
0)
#2550000
b0 7
01
#2552400
1)
#2556000
0)
#2559600
1)
#2560000
12
13
b1 5
1+
#2563200
0)
#2566800
0#
1&
1<
1%
1?
1)
#2570000
02
03
b1 6
1.
1,
1-
b0 5
0+
#2570400
0)
#2574000
1)
#2577600
0)
#2580000
12
13
b1 7
11
1/
0,
b1 5
1+
#2581200
1)
#2584800
0)
#2588400
1)
