interconnect/mmu_arbiter/tb_mmu_arbiter.vcd
$date
	Fri Jun  5 11:17:34 2026
$end
$version
	Icarus Verilog
$end
$timescale
	1ps
$end
$scope module tb_mmu_arbiter $end
$var wire 1 ! s_rvalid $end
$var wire 1 " s_rresp $end
$var wire 1 # s_rdata $end
$var wire 1 $ s_arready $end
$var wire 1 % m_rready $end
$var wire 1 & m_arvalid $end
$var wire 1 ' m_araddr $end
$var reg 1 ( clk $end
$var reg 1 ) m_arready $end
$var reg 1 * m_rdata $end
$var reg 1 + m_rresp $end
$var reg 1 , m_rvalid $end
$var reg 1 - rst_n $end
$var reg 1 . s_araddr $end
$var reg 1 / s_arvalid $end
$var reg 1 0 s_rready $end
$scope module uut $end
$var wire 1 ( clk $end
$var wire 1 ) m_arready $end
$var wire 1 & m_arvalid $end
$var wire 64 1 m_rdata [63:0] $end
$var wire 2 2 m_rresp [1:0] $end
$var wire 1 , m_rvalid $end
$var wire 1 - rst_n $end
$var wire 200 3 s_araddr [199:0] $end
$var wire 5 4 s_arvalid [4:0] $end
$var wire 5 5 s_rready [4:0] $end
$var wire 5 6 s_rvalid [4:0] $end
$var wire 10 7 s_rresp [9:0] $end
$var wire 320 8 s_rdata [319:0] $end
$var wire 5 9 s_arready [4:0] $end
$var wire 1 % m_rready $end
$var wire 40 : m_araddr [39:0] $end
$var parameter 32 ; AW $end
$var parameter 32 < DW $end
$var parameter 32 = N $end
$var reg 3 > grant_idx [2:0] $end
$var reg 1 ? req_active $end
$var integer 32 @ i [31:0] $end
$scope begin gen_demux[0] $end
$var parameter 2 A g $end
$upscope $end
$scope begin gen_demux[1] $end
$var parameter 2 B g $end
$upscope $end
$scope begin gen_demux[2] $end
$var parameter 3 C g $end
$upscope $end
$scope begin gen_demux[3] $end
$var parameter 3 D g $end
$upscope $end
$scope begin gen_demux[4] $end
$var parameter 4 E g $end
$upscope $end
$upscope $end
$upscope $end
$enddefinitions $end
$comment Show the parameter values. $end
$dumpall
b100 E
b11 D
b10 C
b1 B
b0 A
b101 =
b1000000 <
b101000 ;
$end
#0
$dumpvars
bx @
x?
bx >
bx :
b0 9
b0 8
b0 7
b0 6
b0 5
b0 4
b0 3
b0 2
b0 1
00
0/
0.
x-
0,
0+
0*
0)
0(
x'
x&
x%
0$
0#
0"
0!
$end
#3600
b110 @
1(
#7200
0(
#10000
0&
0'
1%
0?
b0 :
b0 >
0-
#10800
1(
#14400
0(
#18000
1(
#21600
0(
#25200
1(
#28800
0(
#32400
1(
#36000
0(
#39600
1(
#43200
0(
#46800
1(
#50400
0(
#54000
1(
#57600
0(
#61200
1(
#64800
0(
#68400
1(
#72000
0(
#75600
1(
#79200
0(
#82800
1(
#86400
0(
#90000
1(
#93600
0(
#97200
1(
#100800
0(
#104400
1(
#108000
0(
#110000
1-
#111600
b110 @
1(
#115200
0(
#118800
b110 @
1(
#122400
0(
#126000
b110 @
1(
#129600
0(
#133200
b110 @
1(
#136800
0(
#140000
1"
1#
1'
b101010101 7
b1 2
1+
b10000000000000000000000000000000000000000000000000000000000000001000000000000000000000000000000000000000000000000000000000000000100000000000000000000000000000000000000000000000000000000000000010000000000000000000000000000000000000000000000000000000000000001 8
b1 1
1*
1,
1)
b1 5
10
b1 :
b1 3
1.
#140400
b110 @
1(
#144000
0(
#147600
b110 @
1(
#150000
0"
b0 7
b0 2
0+
0)
#151200
0(
#154800
b110 @
1(
#158400
0(
#160000
0'
b0 :
b0 3
0.
b1 4
1/
#162000
1!
b1 6
1&
1?
1(
#165600
0(
#169200
0!
b0 6
0&
b1 >
0?
1(
#170000
1"
0#
b101010101 7
b1 2
1+
b0 8
b0 1
0*
b0 5
00
#172800
0(
#176400
1!
b1 6
0%
1&
1?
b0 >
b110 @
1(
#180000
0!
0"
b0 6
1%
1'
0(
b0 7
b0 2
0+
0,
b1 5
10
b1 :
b1 3
1.
#183600
1(
#187200
0(
#190000
1!
1$
1"
1#
b1 6
b1 9
0'
b101010101 7
b1 2
1+
b10000000000000000000000000000000000000000000000000000000000000001000000000000000000000000000000000000000000000000000000000000000100000000000000000000000000000000000000000000000000000000000000010000000000000000000000000000000000000000000000000000000000000001 8
b1 1
1*
1,
1)
b0 :
b0 3
0.
#190800
0$
0!
b0 9
b0 6
0&
b1 >
0?
1(
#194400
0(
#198000
1$
1!
b1 9
b1 6
1&
1?
b0 >
b110 @
1(
#200000
0"
0#
0&
b0 7
b0 2
0+
b0 8
b0 1
0*
b0 4
0/
#201600
0(
#205200
0$
0!
b0 9
b0 6
b1 >
0?
1(
#208800
0(
#210000
1"
b101010101 7
b1 2
1+
0,
b0 5
00
#212400
b110 @
1(
#216000
0(
#219600
b110 @
1(
#220000
0)
b1 4
1/
#223200
0(
#226800
0%
1&
1?
b0 >
b110 @
1(
#230000
1$
b1 9
1%
1'
1)
b1 5
10
b1 :
b1 3
1.
#230400
0(
#234000
1(
#237600
0(
#240000
1!
0$
0"
1#
b1 6
b0 9
0%
b0 7
b0 2
0+
b10000000000000000000000000000000000000000000000000000000000000001000000000000000000000000000000000000000000000000000000000000000100000000000000000000000000000000000000000000000000000000000000010000000000000000000000000000000000000000000000000000000000000001 8
b1 1
1*
1,
0)
b0 5
00
#241200
1(
#244800
0(
#248400
1(
#250000
1$
b1 9
1)
#252000
0(
#255600
1(
#259200
0(
#260000
0!
0$
1"
0#
b0 6
b0 9
b101010101 7
b1 2
1+
b0 8
b0 1
0*
0,
0)
#262800
1(
#266400
0(
#270000
1!
1$
1#
b1 6
b1 9
0'
1(
b10000000000000000000000000000000000000000000000000000000000000001000000000000000000000000000000000000000000000000000000000000000100000000000000000000000000000000000000000000000000000000000000010000000000000000000000000000000000000000000000000000000000000001 8
b1 1
1*
1,
1)
b0 :
b0 3
0.
#273600
0(
#277200
1(
#280000
0"
0#
1%
b0 7
b0 2
0+
b0 8
b0 1
0*
b1 5
10
#280800
0(
#284400
0$
0!
b0 9
b0 6
0&
b1 >
0?
1(
#288000
0(
#290000
1"
1#
b101010101 7
b1 2
1+
b10000000000000000000000000000000000000000000000000000000000000001000000000000000000000000000000000000000000000000000000000000000100000000000000000000000000000000000000000000000000000000000000010000000000000000000000000000000000000000000000000000000000000001 8
b1 1
1*
0,
0)
b0 5
00
b0 4
0/
#291600
b110 @
1(
#295200
0(
#298800
b110 @
1(
#300000
0"
b0 7
b0 2
0+
1,
b1 5
10
b1 3
1.
b1 4
1/
#302400
0(
#306000
1!
b1 6
1&
1'
1?
b1 :
b0 >
b110 @
1(
#309600
0(
#310000
1"
0&
b101010101 7
b1 2
1+
b0 4
0/
#313200
0!
b0 6
0'
b0 :
b1 >
0?
1(
#316800
0(
#320000
0"
0#
b0 7
b0 2
0+
b0 8
b0 1
0*
b0 5
00
b0 3
0.
b1 4
1/
#320400
1!
b1 6
0%
1&
1?
b0 >
b110 @
1(
#324000
0(
#327600
1(
#330000
0!
1#
b0 6
1%
1'
0&
b10000000000000000000000000000000000000000000000000000000000000001000000000000000000000000000000000000000000000000000000000000000100000000000000000000000000000000000000000000000000000000000000010000000000000000000000000000000000000000000000000000000000000001 8
b1 1
1*
0,
b1 5
10
b1 :
b1 3
1.
b0 4
0/
#331200
0(
#334800
1(
#338400
0(
#340000
0'
b0 :
b0 3
0.
#342000
1(
#345600
0(
#349200
1(
#350000
1!
1$
0#
b1 6
b1 9
1'
1&
b0 8
b0 1
0*
1,
1)
b1 :
b1 3
1.
b1 4
1/
#352800
0(
#356400
0$
0!
b0 9
b0 6
0'
0&
b0 :
b1 >
0?
1(
#360000
1#
0(
b10000000000000000000000000000000000000000000000000000000000000001000000000000000000000000000000000000000000000000000000000000000100000000000000000000000000000000000000000000000000000000000000010000000000000000000000000000000000000000000000000000000000000001 8
b1 1
1*
0)
b0 5
00
b0 4
0/
#363600
b110 @
1(
#367200
0(
#370000
0#
b0 8
b0 1
0*
0,
1)
b1 5
10
b0 3
0.
#370800
b110 @
1(
#374400
0(
#378000
b110 @
1(
#380000
1#
b10000000000000000000000000000000000000000000000000000000000000001000000000000000000000000000000000000000000000000000000000000000100000000000000000000000000000000000000000000000000000000000000010000000000000000000000000000000000000000000000000000000000000001 8
b1 1
1*
0)
b0 5
00
b1 3
1.
b1 4
1/
#381600
0(
#385200
0%
1&
1'
1?
b1 :
b0 >
b110 @
1(
#388800
0(
#390000
0&
b0 4
0/
#392400
1(
#396000
0(
#399600
1(
#400000
1"
0#
1&
b101010101 7
b1 2
1+
b0 8
b0 1
0*
b1 4
1/
#403200
0(
#406800
1(
#410000
1!
1#
b1 6
0'
0&
b10000000000000000000000000000000000000000000000000000000000000001000000000000000000000000000000000000000000000000000000000000000100000000000000000000000000000000000000000000000000000000000000010000000000000000000000000000000000000000000000000000000000000001 8
b1 1
1*
1,
b0 :
b0 3
0.
b0 4
0/
#410400
0(
#414000
1(
#417600
0(
#420000
0!
1$
0#
b0 6
b1 9
1%
1'
b0 8
b0 1
0*
0,
1)
b1 5
10
b1 :
b1 3
1.
#421200
1(
#424800
0(
#428400
1(
#430000
1#
1&
b10000000000000000000000000000000000000000000000000000000000000001000000000000000000000000000000000000000000000000000000000000000100000000000000000000000000000000000000000000000000000000000000010000000000000000000000000000000000000000000000000000000000000001 8
b1 1
1*
b1 4
1/
#432000
0(
#435600
1(
#439200
0(
#440000
1!
0$
0"
b1 6
b0 9
0%
0'
0&
b0 7
b0 2
0+
1,
0)
b0 5
00
b0 :
b0 3
0.
b0 4
0/
#442800
1(
#446400
0(
#450000
0#
1'
1(
b0 8
b0 1
0*
b1 :
b1 3
1.
#453600
0(
#457200
1(
#460000
1$
1#
b1 9
0'
1&
b10000000000000000000000000000000000000000000000000000000000000001000000000000000000000000000000000000000000000000000000000000000100000000000000000000000000000000000000000000000000000000000000010000000000000000000000000000000000000000000000000000000000000001 8
b1 1
1*
1)
b0 :
b0 3
0.
b1 4
1/
#460800
0(
#464400
1(
#468000
0(
#470000
0!
0$
b0 6
b0 9
1%
0&
0,
0)
b1 5
10
b0 4
0/
#471600
1(
#475200
0(
#478800
1(
#480000
1$
0#
b1 9
0%
b0 8
b0 1
0*
1)
b0 5
00
#482400
0(
#486000
1(
#489600
0(
#490000
1!
1"
1#
b1 6
1'
1&
b101010101 7
b1 2
1+
b10000000000000000000000000000000000000000000000000000000000000001000000000000000000000000000000000000000000000000000000000000000100000000000000000000000000000000000000000000000000000000000000010000000000000000000000000000000000000000000000000000000000000001 8
b1 1
1*
1,
b1 :
b1 3
1.
b1 4
1/
#493200
1(
#496800
0(
#500000
0!
0#
b0 6
1%
0&
b0 8
b0 1
0*
0,
b1 5
10
b0 4
0/
#500400
1(
#504000
0(
#507600
1(
#510000
0'
b0 :
b0 3
0.
#511200
0(
#514800
1(
#518400
0(
#520000
1!
0$
0"
1#
b1 6
b0 9
b0 7
b0 2
0+
b10000000000000000000000000000000000000000000000000000000000000001000000000000000000000000000000000000000000000000000000000000000100000000000000000000000000000000000000000000000000000000000000010000000000000000000000000000000000000000000000000000000000000001 8
b1 1
1*
1,
0)
#522000
0!
b0 6
b1 >
0?
1(
#525600
0(
#529200
b110 @
1(
#530000
0,
b1 4
1/
#532800
0(
#536400
1&
1?
b0 >
b110 @
1(
#540000
1!
1$
1"
b1 6
b1 9
0&
0(
b101010101 7
b1 2
1+
1,
1)
b0 4
0/
#543600
0$
0!
b0 9
b0 6
b1 >
0?
1(
#547200
0(
#550000
0"
0#
b0 7
b0 2
0+
b0 8
b0 1
0*
0,
b1 3
1.
#550800
b110 @
1(
#554400
0(
#558000
b110 @
1(
#560000
1"
1#
b101010101 7
b1 2
1+
b10000000000000000000000000000000000000000000000000000000000000001000000000000000000000000000000000000000000000000000000000000000100000000000000000000000000000000000000000000000000000000000000010000000000000000000000000000000000000000000000000000000000000001 8
b1 1
1*
1,
b0 5
00
b0 3
0.
#561600
0(
#565200
b110 @
1(
#568800
0(
#570000
0)
b1 5
10
b1 3
1.
b1 4
1/
#572400
1!
b1 6
1&
1'
1?
b1 :
b0 >
b110 @
1(
#576000
0(
#579600
0!
b0 6
0'
0&
b0 :
b1 >
0?
1(
#580000
0"
0#
b0 7
b0 2
0+
b0 8
b0 1
0*
1)
#583200
0(
#586800
1$
1!
b1 9
b1 6
1&
1'
1?
b1 :
b0 >
b110 @
1(
#590000
0!
0$
1"
b0 6
b0 9
0%
b101010101 7
b1 2
1+
0,
0)
b0 5
00
#590400
0(
#594000
1(
#597600
0(
#600000
0'
0&
b0 :
b0 3
0.
b0 4
0/
#601200
1(
#604800
0(
#608400
1(
#610000
0"
1%
b0 7
b0 2
0+
b1 5
10
#612000
0(
#615600
1(
#619200
0(
#620000
1!
1$
1"
b1 6
b1 9
1'
1&
b101010101 7
b1 2
1+
1,
1)
b1 :
b1 3
1.
b1 4
1/
#622800
0$
0!
b0 9
b0 6
0'
0&
b0 :
b1 >
0?
1(
#626400
0(
#630000
1$
b1 9
0%
1&
1'
1?
b1 :
b0 >
b110 @
1(
0,
b0 5
00
#633600
0(
#637200
1(
#640000
0$
0"
1#
b0 9
1%
0'
b0 7
b0 2
0+
b10000000000000000000000000000000000000000000000000000000000000001000000000000000000000000000000000000000000000000000000000000000100000000000000000000000000000000000000000000000000000000000000010000000000000000000000000000000000000000000000000000000000000001 8
b1 1
1*
0)
b1 5
10
b0 :
b0 3
0.
#640800
0(
#644400
1(
#648000
0(
#650000
1!
1$
1"
b1 6
b1 9
0%
0&
b101010101 7
b1 2
1+
1,
1)
b0 5
00
b0 4
0/
#651600
1(
#655200
0(
#658800
1(
#660000
1%
1'
b1 5
10
b1 :
b1 3
1.
#662400
0(
#666000
0$
0!
b0 9
b0 6
0'
b0 :
b1 >
0?
1(
#669600
0(
#670000
0"
0#
b0 7
b0 2
0+
b0 8
b0 1
0*
0)
b0 3
0.
b1 4
1/
#673200
1!
b1 6
1&
1?
b0 >
b110 @
1(
#676800
0(
#680000
0!
1"
b0 6
0%
b101010101 7
b1 2
1+
0,
b0 5
00
#680400
1(
#684000
0(
#687600
1(
#690000
0&
b0 4
0/
#691200
0(
#694800
1(
#698400
0(
#700000
1!
b1 6
1'
1,
b1 :
b1 3
1.
#702000
1(
#705600
0(
#709200
1(
#710000
0"
1%
0'
1&
b0 7
b0 2
0+
b1 5
10
b0 :
b0 3
0.
b1 4
1/
#712800
0(
#716400
0!
b0 6
0&
b1 >
0?
1(
#720000
1"
0(
b101010101 7
b1 2
1+
b0 4
0/
#723600
b110 @
1(
#727200
0(
#730000
1#
b10000000000000000000000000000000000000000000000000000000000000001000000000000000000000000000000000000000000000000000000000000000100000000000000000000000000000000000000000000000000000000000000010000000000000000000000000000000000000000000000000000000000000001 8
b1 1
1*
b1 4
1/
#730800
1!
b1 6
1&
1?
b0 >
b110 @
1(
#734400
0(
#738000
0!
b0 6
0&
b1 >
0?
1(
#740000
0,
b1 3
1.
b0 4
0/
#741600
0(
#745200
b110 @
1(
#748800
0(
#750000
0#
b0 8
b0 1
0*
1)
b0 3
0.
#752400
b110 @
1(
#756000
0(
#759600
b110 @
1(
#763200
0(
#766800
b110 @
1(
#770000
0"
1#
b0 7
b0 2
0+
b10000000000000000000000000000000000000000000000000000000000000001000000000000000000000000000000000000000000000000000000000000000100000000000000000000000000000000000000000000000000000000000000010000000000000000000000000000000000000000000000000000000000000001 8
b1 1
1*
#770400
0(
#774000
b110 @
1(
#777600
0(
#780000
1,
b0 5
00
b1 3
1.
b1 4
1/
#781200
1$
1!
b1 9
b1 6
0%
1&
1'
1?
b1 :
b0 >
b110 @
1(
#784800
0(
#788400
1(
#790000
0!
0$
b0 6
b0 9
1%
0,
0)
b1 5
10
#792000
0(
#795600
1(
#799200
0(
#800000
1!
b1 6
0%
0&
1,
b0 5
00
b0 4
0/
#802800
1(
#806400
0(
#810000
0!
b0 6
b1 >
0?
0$
b0 9
1%
0'
0&
1(
1)
b1 5
10
b0 :
b0 3
0.
b1 4
1/
#813600
0(
#817200
1$
1!
b1 9
b1 6
1&
1?
b0 >
b110 @
1(
#820000
0!
1"
b0 6
0%
1'
0&
b101010101 7
b1 2
1+
0,
b0 5
00
b1 :
b1 3
1.
b0 4
0/
#820800
0(
#824400
1(
#828000
0(
#830000
1!
0"
0#
b1 6
1%
0'
b0 7
b0 2
0+
b0 8
b0 1
0*
1,
b1 5
10
b0 :
b0 3
0.
#831600
0$
0!
b0 9
b0 6
b1 >
0?
1(
#835200
0(
#838800
b110 @
1(
#840000
1#
b10000000000000000000000000000000000000000000000000000000000000001000000000000000000000000000000000000000000000000000000000000000100000000000000000000000000000000000000000000000000000000000000010000000000000000000000000000000000000000000000000000000000000001 8
b1 1
1*
b0 5
00
b1 4
1/
#842400
0(
#846000
1$
1!
b1 9
b1 6
0%
1&
1?
b0 >
b110 @
1(
#849600
0(
#850000
0!
0$
1"
b0 6
b0 9
1'
b101010101 7
b1 2
1+
0,
0)
b1 :
b1 3
1.
#853200
1(
#856800
0(
#860000
1!
b1 6
0'
1,
b0 :
b0 3
0.
#860400
1(
#864000
0(
#867600
1(
#870000
1$
b1 9
1%
1)
b1 5
10
#871200
0(
#874800
0$
0!
b0 9
b0 6
0&
b1 >
0?
1(
#878400
0(
#880000
0"
0#
b0 7
b0 2
0+
b0 8
b0 1
0*
0,
b0 5
00
b1 3
1.
#882000
1$
b1 9
0%
1&
1'
1?
b1 :
b0 >
b110 @
1(
#885600
0(
#889200
1(
#890000
1!
1"
1#
b1 6
1%
b101010101 7
b1 2
1+
b10000000000000000000000000000000000000000000000000000000000000001000000000000000000000000000000000000000000000000000000000000000100000000000000000000000000000000000000000000000000000000000000010000000000000000000000000000000000000000000000000000000000000001 8
b1 1
1*
1,
b1 5
10
#892800
0(
#896400
0$
0!
b0 9
b0 6
0'
0&
b0 :
b1 >
0?
1(
#900000
0"
0(
b0 7
b0 2
0+
0,
0)
b0 5
00
#903600
0%
1&
1'
1?
b1 :
b0 >
b110 @
1(
#907200
0(
#910000
1$
0#
b1 9
1%
0'
0&
b0 8
b0 1
0*
1)
b1 5
10
b0 :
b0 3
0.
b0 4
0/
#910800
1(
#914400
0(
#918000
1(
#920000
1#
0%
1'
1&
b10000000000000000000000000000000000000000000000000000000000000001000000000000000000000000000000000000000000000000000000000000000100000000000000000000000000000000000000000000000000000000000000010000000000000000000000000000000000000000000000000000000000000001 8
b1 1
1*
b0 5
00
b1 :
b1 3
1.
b1 4
1/
#921600
0(
#925200
1(
#928800
0(
#930000
1!
1"
0#
b1 6
1%
0'
0&
b101010101 7
b1 2
1+
b0 8
b0 1
0*
1,
b1 5
10
b0 :
b0 3
0.
b0 4
0/
#932400
0$
0!
b0 9
b0 6
b1 >
0?
1(
#936000
0(
#939600
b110 @
1(
#940000
0"
b0 7
b0 2
0+
b0 5
00
b1 3
1.
#943200
0(
#946800
b110 @
1(
#950000
1"
b101010101 7
b1 2
1+
0,
b1 5
10
b0 3
0.
#950400
0(
#954000
b110 @
1(
#957600
0(
#960000
1,
b0 5
00
b1 3
1.
#961200
b110 @
1(
#964800
0(
#968400
b110 @
1(
#970000
1#
b10000000000000000000000000000000000000000000000000000000000000001000000000000000000000000000000000000000000000000000000000000000100000000000000000000000000000000000000000000000000000000000000010000000000000000000000000000000000000000000000000000000000000001 8
b1 1
1*
0,
0)
b0 3
0.
b1 4
1/
#972000
0(
#975600
0%
1&
1?
b0 >
b110 @
1(
#979200
0(
#980000
0"
0#
1%
1'
b0 7
b0 2
0+
b0 8
b0 1
0*
b1 5
10
b1 :
b1 3
1.
#982800
1(
#986400
0(
#990000
1!
1$
1"
1#
b1 6
b1 9
0%
0'
0&
1(
b101010101 7
b1 2
1+
b10000000000000000000000000000000000000000000000000000000000000001000000000000000000000000000000000000000000000000000000000000000100000000000000000000000000000000000000000000000000000000000000010000000000000000000000000000000000000000000000000000000000000001 8
b1 1
1*
1,
1)
b0 5
00
b0 :
b0 3
0.
b0 4
0/
#993600
0(
#997200
1(
#1000000
0!
0$
0"
0#
b0 6
b0 9
1%
1'
1&
b0 7
b0 2
0+
b0 8
b0 1
0*
0,
0)
b1 5
10
b1 :
b1 3
1.
b1 4
1/
#1000800
0(
#1004400
1(
#1008000
0(
#1010000
1$
1#
b1 9
0'
0&
b10000000000000000000000000000000000000000000000000000000000000001000000000000000000000000000000000000000000000000000000000000000100000000000000000000000000000000000000000000000000000000000000010000000000000000000000000000000000000000000000000000000000000001 8
b1 1
1*
1)
b0 :
b0 3
0.
b0 4
0/
#1011600
1(
#1015200
0(
#1018800
1(
#1020000
0$
1"
0#
b0 9
1'
1&
b101010101 7
b1 2
1+
b0 8
b0 1
0*
0)
b1 :
b1 3
1.
b1 4
1/
#1022400
0(
#1026000
1(
#1029600
0(
#1030000
0"
0'
b0 7
b0 2
0+
b0 :
b0 3
0.
#1033200
1(
#1036800
0(
#1040000
1#
0&
b10000000000000000000000000000000000000000000000000000000000000001000000000000000000000000000000000000000000000000000000000000000100000000000000000000000000000000000000000000000000000000000000010000000000000000000000000000000000000000000000000000000000000001 8
b1 1
1*
b0 4
0/
#1040400
1(
#1044000
0(
#1047600
1(
#1050000
1$
1"
0#
b1 9
1'
b101010101 7
b1 2
1+
b0 8
b0 1
0*
1)
b1 :
b1 3
1.
#1051200
0(
#1054800
1(
#1058400
0(
#1060000
1!
0$
1#
b1 6
b0 9
1&
b10000000000000000000000000000000000000000000000000000000000000001000000000000000000000000000000000000000000000000000000000000000100000000000000000000000000000000000000000000000000000000000000010000000000000000000000000000000000000000000000000000000000000001 8
b1 1
1*
1,
0)
b1 4
1/
#1062000
0!
b0 6
0'
0&
b0 :
b1 >
0?
1(
#1065600
0(
#1069200
1!
b1 6
1&
1'
1?
b1 :
b0 >
b110 @
1(
#1070000
0!
0"
b0 6
0'
b0 7
b0 2
0+
0,
b0 :
b0 3
0.
#1072800
0(
#1076400
1(
#1080000
0#
0%
1'
0&
0(
b0 8
b0 1
0*
b0 5
00
b1 :
b1 3
1.
b0 4
0/
#1083600
1(
#1087200
0(
#1090000
1"
1#
1%
b101010101 7
b1 2
1+
b10000000000000000000000000000000000000000000000000000000000000001000000000000000000000000000000000000000000000000000000000000000100000000000000000000000000000000000000000000000000000000000000010000000000000000000000000000000000000000000000000000000000000001 8
b1 1
1*
b1 5
10
#1090800
1(
#1094400
0(
#1098000
1(
#1100000
1!
1$
0#
b1 6
b1 9
1&
b0 8
b0 1
0*
1,
1)
b1 4
1/
#1101600
0(
#1105200
0$
0!
b0 9
b0 6
0'
0&
b0 :
b1 >
0?
1(
#1108800
0(
#1110000
b0 5
00
b0 3
0.
b0 4
0/
#1112400
b110 @
1(
#1116000
0(
#1119600
b110 @
1(
#1120000
0,
0)
b1 3
1.
b1 4
1/
#1123200
0(
#1126800
0%
1&
1'
1?
b1 :
b0 >
b110 @
1(
#1130000
1$
0"
b1 9
b0 7
b0 2
0+
1)
#1130400
0(
#1134000
1(
#1137600
0(
#1140000
1!
0$
b1 6
b0 9
0'
0&
1,
0)
b0 :
b0 3
0.
b0 4
0/
#1141200
1(
#1144800
0(
#1148400
1(
#1150000
1$
b1 9
1%
1'
1&
1)
b1 5
10
b1 :
b1 3
1.
b1 4
1/
#1152000
0(
#1155600
0$
0!
b0 9
b0 6
0'
0&
b0 :
b1 >
0?
1(
#1159200
0(
#1160000
1"
b101010101 7
b1 2
1+
0,
b0 3
0.
b0 4
0/
#1162800
b110 @
1(
#1166400
0(
#1170000
1$
b1 9
1&
1'
1?
b1 :
b0 >
b110 @
0"
1(
b0 7
b0 2
0+
b1 3
1.
b1 4
1/
#1173600
0(
#1177200
1(
#1180000
0$
b0 9
0'
0)
b0 :
b0 3
0.
#1180800
0(
#1184400
1(
#1188000
0(
#1190000
1!
1$
1"
b1 6
b1 9
0%
1'
0&
b101010101 7
b1 2
1+
1,
1)
b0 5
00
b1 :
b1 3
1.
b0 4
0/
#1191600
1(
#1195200
0(
#1198800
1(
#1200000
0$
0"
1#
b0 9
1%
0'
1&
b0 7
b0 2
0+
b10000000000000000000000000000000000000000000000000000000000000001000000000000000000000000000000000000000000000000000000000000000100000000000000000000000000000000000000000000000000000000000000010000000000000000000000000000000000000000000000000000000000000001 8
b1 1
1*
0)
b1 5
10
b0 :
b0 3
0.
b1 4
1/
#1202400
0(
#1206000
0!
b0 6
0&
b1 >
0?
1(
#1209600
0(
#1210000
0#
b0 8
b0 1
0*
0,
b1 3
1.
b0 4
0/
#1213200
b110 @
1(
#1216800
0(
#1220000
1"
1#
b101010101 7
b1 2
1+
b10000000000000000000000000000000000000000000000000000000000000001000000000000000000000000000000000000000000000000000000000000000100000000000000000000000000000000000000000000000000000000000000010000000000000000000000000000000000000000000000000000000000000001 8
b1 1
1*
b1 4
1/
#1220400
1&
1'
1?
b1 :
b0 >
b110 @
1(
#1224000
0(
#1227600
1(
#1230000
1!
0"
b1 6
0%
b0 7
b0 2
0+
1,
b0 5
00
#1231200
0(
#1234800
1(
#1238400
0(
#1240000
0!
1$
1"
b0 6
b1 9
0&
b101010101 7
b1 2
1+
0,
1)
b0 4
0/
#1242000
1(
#1245600
0(
#1249200
1(
#1250000
0$
0"
b0 9
0'
b0 7
b0 2
0+
0)
b0 :
b0 3
0.
#1252800
0(
#1256400
1(
#1260000
1!
0#
b1 6
1&
0(
b0 8
b0 1
0*
1,
b1 4
1/
#1263600
1(
#1267200
0(
#1270000
1$
1"
1#
b1 9
1%
b101010101 7
b1 2
1+
b10000000000000000000000000000000000000000000000000000000000000001000000000000000000000000000000000000000000000000000000000000000100000000000000000000000000000000000000000000000000000000000000010000000000000000000000000000000000000000000000000000000000000001 8
b1 1
1*
1)
b1 5
10
#1270800
0$
0!
b0 9
b0 6
0&
b1 >
0?
1(
#1274400
0(
#1278000
1$
1!
b1 9
b1 6
1&
1?
b0 >
b110 @
1(
#1280000
0!
0$
0"
b0 6
b0 9
1'
0&
b0 7
b0 2
0+
0,
0)
b1 :
b1 3
1.
b0 4
0/
#1281600
0(
#1285200
1(
#1288800
0(
#1290000
1!
1$
1"
0#
b1 6
b1 9
1&
b101010101 7
b1 2
1+
b0 8
b0 1
0*
1,
1)
b1 4
1/
#1292400
0$
0!
b0 9
b0 6
0'
0&
b0 :
b1 >
0?
1(
#1296000
0(
#1299600
1$
1!
b1 9
b1 6
1&
1'
1?
b1 :
b0 >
b110 @
1(
#1300000
0"
0%
0&
b0 7
b0 2
0+
b0 5
00
b0 4
0/
#1303200
0(
#1306800
1(
#1310000
0!
1"
b0 6
1%
0'
b101010101 7
b1 2
1+
0,
b1 5
10
b0 :
b0 3
0.
#1310400
0(
#1314000
1(
#1317600
0(
#1320000
0"
1'
1&
b0 7
b0 2
0+
b1 :
b1 3
1.
b1 4
1/
#1321200
1(
#1324800
0(
#1328400
1(
#1330000
1!
0$
1"
b1 6
b0 9
0%
0&
b101010101 7
b1 2
1+
1,
0)
b0 5
00
b0 4
0/
#1332000
0(
#1335600
1(
#1339200
0(
#1340000
0!
0"
b0 6
1%
0'
b0 7
b0 2
0+
0,
b1 5
10
b0 :
b0 3
0.
#1342800
1(
#1346400
0(
#1350000
1$
1"
b1 9
1&
1(
b101010101 7
b1 2
1+
1)
b1 4
1/
#1353600
0(
#1357200
1(
#1360000
1!
b1 6
1'
0&
1,
b1 :
b1 3
1.
b0 4
0/
#1360800
0(
#1364400
0$
0!
b0 9
b0 6
0'
b0 :
b1 >
0?
1(
#1368000
0(
#1370000
b0 3
0.
#1371600
b110 @
1(
#1375200
0(
#1378800
b110 @
1(
#1380000
b1 3
1.
b1 4
1/
#1382400
0(
#1386000
1$
1!
b1 9
b1 6
1&
1'
1?
b1 :
b0 >
b110 @
1(
#1389600
0(
#1390000
0!
0"
1#
b0 6
0%
0'
0&
b0 7
b0 2
0+
b10000000000000000000000000000000000000000000000000000000000000001000000000000000000000000000000000000000000000000000000000000000100000000000000000000000000000000000000000000000000000000000000010000000000000000000000000000000000000000000000000000000000000001 8
b1 1
1*
0,
b0 5
00
b0 :
b0 3
0.
b0 4
0/
#1393200
1(
#1396800
0(
#1400000
0$
b0 9
1&
0)
b1 4
1/
#1400400
1(
#1404000
0(
#1407600
1(
#1410000
1$
1"
0#
b1 9
1'
0&
b101010101 7
b1 2
1+
b0 8
b0 1
0*
1)
b1 :
b1 3
1.
b0 4
0/
#1411200
0(
#1414800
1(
#1418400
0(
#1420000
1!
b1 6
0'
1&
1,
b0 :
b0 3
0.
b1 4
1/
#1422000
1(
#1425600
0(
#1429200
1(
#1430000
0$
0"
b0 9
1%
1'
b0 7
b0 2
0+
0)
b1 5
10
b1 :
b1 3
1.
#1432800
0(
#1436400
0!
b0 6
0'
0&
b0 :
b1 >
0?
1(
#1440000
1"
0(
b101010101 7
b1 2
1+
1)
b0 5
00
#1443600
1$
1!
b1 9
b1 6
0%
1&
1'
1?
b1 :
b0 >
b110 @
1(
#1447200
0(
#1450000
0!
0"
1#
b0 6
b0 7
b0 2
0+
b10000000000000000000000000000000000000000000000000000000000000001000000000000000000000000000000000000000000000000000000000000000100000000000000000000000000000000000000000000000000000000000000010000000000000000000000000000000000000000000000000000000000000001 8
b1 1
1*
0,
#1450800
1(
#1454400
0(
#1458000
1(
#1460000
0$
0#
b0 9
0'
0&
b0 8
b0 1
0*
0)
b0 :
b0 3
0.
b0 4
0/
#1461600
0(
#1465200
1(
#1468800
0(
#1470000
1$
b1 9
1%
1'
1)
b1 5
10
b1 :
b1 3
1.
#1472400
1(
#1476000
0(
#1479600
1(
#1480000
1!
1#
b1 6
0%
1&
b10000000000000000000000000000000000000000000000000000000000000001000000000000000000000000000000000000000000000000000000000000000100000000000000000000000000000000000000000000000000000000000000010000000000000000000000000000000000000000000000000000000000000001 8
b1 1
1*
1,
b0 5
00
b1 4
1/
#1483200
0(
#1486800
1(
