interconnect/qos_controller/tb_qos_controller.vcd
$date
	Fri Jun  5 19:23:37 2026
$end
$version
	Icarus Verilog
$end
$timescale
	1ps
$end
$scope module tb_qos_controller $end
$var reg 16 ! cfg_time_win [15:0] $end
$var reg 1 " clk $end
$var reg 15 # m_arready [14:0] $end
$var reg 15 $ m_arvalid [14:0] $end
$var reg 15 % m_awready [14:0] $end
$var reg 15 & m_awvalid [14:0] $end
$var reg 1 ' rst_n $end
$var integer 32 ( i [31:0] $end
$scope module uut $end
$var wire 16 ) cfg_time_win [15:0] $end
$var wire 1 " clk $end
$var wire 15 * m_arready [14:0] $end
$var wire 15 + m_arvalid [14:0] $end
$var wire 15 , m_awready [14:0] $end
$var wire 15 - m_awvalid [14:0] $end
$var wire 1 ' rst_n $end
$var parameter 32 . IDW $end
$var parameter 32 / NM $end
$var reg 16 0 time_cnt [15:0] $end
$var integer 32 1 i [31:0] $end
$scope begin gen_qos_out[0] $end
$var parameter 2 2 g $end
$upscope $end
$scope begin gen_qos_out[1] $end
$var parameter 2 3 g $end
$upscope $end
$scope begin gen_qos_out[2] $end
$var parameter 3 4 g $end
$upscope $end
$scope begin gen_qos_out[3] $end
$var parameter 3 5 g $end
$upscope $end
$scope begin gen_qos_out[4] $end
$var parameter 4 6 g $end
$upscope $end
$scope begin gen_qos_out[5] $end
$var parameter 4 7 g $end
$upscope $end
$scope begin gen_qos_out[6] $end
$var parameter 4 8 g $end
$upscope $end
$scope begin gen_qos_out[7] $end
$var parameter 4 9 g $end
$upscope $end
$scope begin gen_qos_out[8] $end
$var parameter 5 : g $end
$upscope $end
$scope begin gen_qos_out[9] $end
$var parameter 5 ; g $end
$upscope $end
$scope begin gen_qos_out[10] $end
$var parameter 5 < g $end
$upscope $end
$scope begin gen_qos_out[11] $end
$var parameter 5 = g $end
$upscope $end
$scope begin gen_qos_out[12] $end
$var parameter 5 > g $end
$upscope $end
$scope begin gen_qos_out[13] $end
$var parameter 5 ? g $end
$upscope $end
$scope begin gen_qos_out[14] $end
$var parameter 5 @ g $end
$upscope $end
$upscope $end
$upscope $end
$enddefinitions $end
$comment Show the parameter values. $end
$dumpall
b1110 @
b1101 ?
b1100 >
b1011 =
b1010 <
b1001 ;
b1000 :
b111 9
b110 8
b101 7
b100 6
b11 5
b10 4
b1 3
b0 2
b1111 /
b100 .
$end
#0
$dumpvars
bx 1
bx 0
b0 -
b0 ,
b0 +
b0 *
b0 )
b1111 (
x'
b0 &
b0 %
b0 $
b0 #
0"
b0 !
$end
#3600
b1111 1
1"
#7200
0"
#10000
b0 0
b1111 1
0'
#10800
b1111 1
1"
#14400
0"
#18000
b1111 1
1"
#21600
0"
#25200
b1111 1
1"
#28800
0"
#32400
b1111 1
1"
#36000
0"
#39600
b1111 1
1"
#43200
0"
#46800
b1111 1
1"
#50400
0"
#54000
b1111 1
1"
#57600
0"
#61200
b1111 1
1"
#64800
0"
#68400
b1111 1
1"
#72000
0"
#75600
b1111 1
1"
#79200
0"
#82800
b1111 1
1"
#86400
0"
#90000
b1111 1
1"
#93600
0"
#97200
b1111 1
1"
#100800
0"
#104400
b1111 1
1"
#108000
0"
#110000
1'
#111600
b1111 1
1"
#115200
0"
#118800
b1111 1
1"
#122400
0"
#126000
b1111 1
1"
#129600
0"
#130000
b1111 (
#133200
b1111 1
1"
#136800
0"
#140000
b1111 (
b100110000111100 %
b100110000111100 ,
b101011001010 &
b101011001010 -
b110010100001010 #
b110010100001010 *
b100100100100011 $
b100100100100011 +
b111001011001111 !
b111001011001111 )
#140400
b1 0
b1111 1
1"
#144000
0"
#147600
b10 0
b1111 1
1"
#150000
b1111 (
b100001111000 %
b100001111000 ,
b10111110000101 &
b10111110000101 -
b111011011010011 #
b111011011010011 *
b111100011111 $
b111100011111 +
b1110011100111001 !
b1110011100111001 )
#151200
0"
#154800
b11 0
b1111 1
1"
#158400
0"
#160000
b1111 (
b101111001001101 %
b101111001001101 ,
b110100111011011 &
b110100111011011 -
b100101001011001 #
b100101001011001 *
b10110000000100 $
b10110000000100 +
b101110110010011 !
b101110110010011 )
#162000
b100 0
b1111 1
1"
#165600
0"
#169200
b101 0
b1111 1
1"
#170000
b1111 (
b111100010100001 %
b111100010100001 ,
b100100010111 &
b100100010111 -
b110111001100001 #
b110111001100001 *
b110010011111010 $
b110010011111010 +
b10101101111001 !
b10101101111001 )
#172800
0"
#176400
b110 0
b1111 1
1"
#180000
0"
b1111 (
b1111000001011 %
b1111000001011 ,
b110101011111011 &
b110101011111011 -
b10100110001110 #
b10100110001110 *
b10100010100001 $
b10100010100001 +
b111100110101001 !
b111100110101001 )
#183600
b111 0
b1111 1
1"
#187200
0"
#190000
b1111 (
b111011101101 %
b111011101101 ,
b101010101010101 &
b101010101010101 -
b110001010110001 #
b110001010110001 *
b111000010010110 $
b111000010010110 +
b1011010000010010 !
b1011010000010010 )
#190800
b1000 0
b1111 1
1"
#194400
0"
#198000
b1001 0
b1111 1
1"
#200000
b1111 (
b110011001110001 %
b110011001110001 ,
b101110100001100 &
b101110100001100 -
b111101100101100 #
b111101100101100 *
b10011100000111 $
b10011100000111 +
b1110001001011010 !
b1110001001011010 )
#201600
0"
#205200
b1010 0
b1111 1
1"
#208800
0"
#210000
b1111 (
b1101001011 %
b1101001011 ,
b100000000111101 &
b100000000111101 -
b11000000010100 #
b11000000010100 *
b111110001001001 $
b111110001001001 +
b10010100010 !
b10010100010 )
#212400
b1011 0
b1111 1
1"
#216000
0"
#219600
b1100 0
b1111 1
1"
#220000
b1111 (
b101011001101001 %
b101011001101001 ,
b100110000001111 &
b100110000001111 -
b111110000000000 #
b111110000000000 *
b101001110111011 $
b101001110111011 +
b111011110100110 !
b111011110100110 )
#223200
0"
#226800
b1101 0
b1111 1
1"
#230000
b1111 (
b101010101101000 %
b101010101101000 ,
b11100111010101 &
b11100111010101 -
b111010110000001 #
b111010110000001 *
b1010101101110 $
b1010101101110 +
b101001001110111 !
b101001001110111 )
#230400
0"
#234000
b1110 0
b1111 1
1"
#237600
0"
#240000
b1111 (
b100011010111011 %
b100011010111011 ,
b10111001000 &
b10111001000 -
b10101101111001 #
b10101101111001 *
b1101100100011 $
b1101100100011 +
b1100111001011100 !
b1100111001011100 )
#241200
b1111 0
b1111 1
1"
#244800
0"
#248400
b10000 0
b1111 1
1"
#250000
b1111 (
b11110010010011 %
b11110010010011 ,
b110010000000111 &
b110010000000111 -
b101101000110 #
b101101000110 *
b11011111010 $
b11011111010 +
b1001110010011110 !
b1001110010011110 )
#252000
0"
#255600
b10001 0
b1111 1
1"
#259200
0"
#260000
b1111 (
b101011111001111 %
b101011111001111 ,
b1001000100101 &
b1001000100101 -
b100000101101000 #
b100000101101000 *
b10100010101101 $
b10100010101101 +
b100101100011011 !
b100101100011011 )
#262800
b10010 0
b1111 1
1"
#266400
0"
#270000
b10011 0
b1111 1
1"
b1111 (
b11100001110100 %
b11100001110100 ,
b11010011101000 &
b11010011101000 -
b111000111110 #
b111000111110 *
b101110011111101 $
b101110011111101 +
b1001111011111110 !
b1001111011111110 )
#273600
0"
#277200
b10100 0
b1111 1
1"
#280000
b1111 (
b101111100001100 %
b101111100001100 ,
b100000000010010 &
b100000000010010 -
b11100000110001 #
b11100000110001 *
b110100001101011 $
b110100001101011 +
b1001110000 !
b1001110000 )
#280800
0"
#284400
b10101 0
b1111 1
1"
#288000
0"
#290000
b1111 (
b1011111011 %
b1011111011 ,
b101001110110000 &
b101001110110000 -
b101110100110101 #
b101110100110101 *
b110001110011011 $
b110001110011011 +
b1101010110000011 !
b1101010110000011 )
#291600
b10110 0
b1111 1
1"
#295200
0"
#298800
b10111 0
b1111 1
1"
#300000
b1111 (
b111110011111011 %
b111110011111011 ,
b1101010111010 &
b1101010111010 -
b101000111010011 #
b101000111010011 *
b100110011010 $
b100110011010 +
b1101010111000010 !
b1101010111000010 )
#302400
0"
#306000
b11000 0
b1111 1
1"
#309600
0"
#310000
b1111 (
b1101110001001 %
b1101110001001 ,
b10110001010100 &
b10110001010100 -
b111110110100 #
b111110110100 *
b10011110101011 $
b10011110101011 +
b111101110111101 !
b111101110111101 )
#313200
b11001 0
b1111 1
1"
#316800
0"
#320000
b1111 (
b110011110100 %
b110011110100 ,
b110111011100100 &
b110111011100100 -
b11111001101 #
b11111001101 *
b111001111010101 $
b111001111010101 +
b101110001001010 !
b101110001001010 )
#320400
b11010 0
b1111 1
1"
#324000
0"
#327600
b11011 0
b1111 1
1"
#330000
b1111 (
b11101011001010 %
b11101011001010 ,
b110110100000110 &
b110110100000110 -
b10011111001 #
b10011111001 *
b111001010000000 $
b111001010000000 +
b1000110100000100 !
b1000110100000100 )
#331200
0"
#334800
b11100 0
b1111 1
1"
#338400
0"
#340000
b1111 (
b10101001111111 %
b10101001111111 ,
b100011101110011 &
b100011101110011 -
b1001101001101 #
b1001101001101 *
b101010001011101 $
b101010001011101 +
b1111011011010111 !
b1111011011010111 )
#342000
b11101 0
b1111 1
1"
#345600
0"
#349200
b11110 0
b1111 1
1"
#350000
b1111 (
b101110000110001 %
b101110000110001 ,
b10000001 &
b10000001 -
b101011101001000 #
b101011101001000 *
b101001111111100 $
b101001111111100 +
b1100011010000000 !
b1100011010000000 )
#352800
0"
#356400
b11111 0
b1111 1
1"
#360000
0"
b1111 (
b11000000110010 %
b11000000110010 ,
b110111110101100 &
b110111110101100 -
b111001010110000 #
b111001010110000 *
b1100000111111 $
b1100000111111 +
b1011111010000010 !
b1011111010000010 )
#363600
b100000 0
b1111 1
1"
#367200
0"
#370000
b1111 (
b100000110011110 %
b100000110011110 ,
b1001101100110 &
b1001101100110 -
b110001101000110 #
b110001101000110 *
b1010110000111 $
b1010110000111 +
b1010001000011101 !
b1010001000011101 )
#370800
b100001 0
b1111 1
1"
#374400
0"
#378000
b100010 0
b1111 1
1"
#380000
b1111 (
b11111100101111 %
b11111100101111 ,
b111010101001110 &
b111010101001110 -
b110001010110100 #
b110001010110100 *
b110101110111101 $
b110101110111101 +
b1001000000011100 !
b1001000000011100 )
#381600
0"
#385200
b100011 0
b1111 1
1"
#388800
0"
#390000
b1111 (
b101111100001110 %
b101111100001110 ,
b111010100000 &
b111010100000 -
b100010010101111 #
b100010010101111 *
b100010111111100 $
b100010111111100 +
b110000011100001 !
b110000011100001 )
#392400
b100100 0
b1111 1
1"
#396000
0"
#399600
b100101 0
b1111 1
1"
#400000
b1111 (
b10110000010011 %
b10110000010011 ,
b10001000101000 &
b10001000101000 -
b101110101110001 #
b101110101110001 *
b11100011001101 $
b11100011001101 +
b11110001000 !
b11110001000 )
#403200
0"
#406800
b100110 0
b1111 1
1"
#410000
b1111 (
b111010111101000 %
b111010111101000 ,
b10000000000111 &
b10000000000111 -
b101100100000101 #
b101100100000101 *
b10101000101101 $
b10101000101101 +
b1111100010010101 !
b1111100010010101 )
#410400
0"
#414000
b100111 0
b1111 1
1"
#417600
0"
#420000
b1111 (
b1101101110010 %
b1101101110010 ,
b10000101001 &
b10000101001 -
b10000001110011 #
b10000001110011 *
b10110000000000 $
b10110000000000 +
b1000000110110100 !
b1000000110110100 )
#421200
b101000 0
b1111 1
1"
#424800
0"
#428400
b101001 0
b1111 1
1"
#430000
b1111 (
b111111011000101 %
b111111011000101 ,
b11011000101101 &
b11011000101101 -
b11101001111011 #
b11101001111011 *
b101011100001010 $
b101011100001010 +
b10100000111111 !
b10100000111111 )
#432000
0"
#435600
b101010 0
b1111 1
1"
#439200
0"
#440000
b1111 (
b110000110110011 %
b110000110110011 ,
b110100010100000 &
b110100010100000 -
b10011100000100 #
b10011100000100 *
b11001010110100 $
b11001010110100 +
b1011101110010 !
b1011101110010 )
#442800
b101011 0
b1111 1
1"
#446400
0"
#450000
b101100 0
b1111 1
1"
b1111 (
b11100001000010 %
b11100001000010 ,
b111110110101111 &
b111110110101111 -
b100011011011000 #
b100011011011000 *
b1010000001101 $
b1010000001101 +
b110110001100111 !
b110110001100111 )
#453600
0"
#457200
b101101 0
b1111 1
1"
#460000
b1111 (
b1110101101110 %
b1110101101110 ,
b101101010101100 &
b101101010101100 -
b10111100010101 #
b10111100010101 *
b111100011011111 $
b111100011011111 +
b1010011011100011 !
b1010011011100011 )
#460800
0"
#464400
b101110 0
b1111 1
1"
#468000
0"
#470000
b1111 (
b1111011000001 %
b1111011000001 ,
b101101111010000 &
b101101111010000 -
b1011110000100 #
b1011110000100 *
b110110000000001 $
b110110000000001 +
b110010110 !
b110010110 )
#471600
b101111 0
b1111 1
1"
#475200
0"
#478800
b110000 0
b1111 1
1"
#480000
b1111 (
b10101100010111 %
b10101100010111 ,
b10001010000000 &
b10001010000000 -
b11000010111011 #
b11000010111011 *
b110100001010100 $
b110100001010100 +
b1100110010101011 !
b1100110010101011 )
#482400
0"
#486000
b110001 0
b1111 1
1"
#489600
0"
#490000
b1111 (
b110101010100010 %
b110101010100010 ,
b111001001 &
b111001001 -
b101101110110 #
b101101110110 *
b11000110110111 $
b11000110110111 +
b1101111100001101 !
b1101111100001101 )
#493200
b110010 0
b1111 1
1"
#496800
0"
#500000
b1111 (
b10011000011010 %
b10011000011010 ,
b101000010010110 &
b101000010010110 -
b110101111000000 #
b110101111000000 *
b11000011010101 $
b11000011010101 +
b1110010110101110 !
b1110010110101110 )
#500400
b110011 0
b1111 1
1"
#504000
0"
#507600
b110100 0
b1111 1
1"
#510000
b1111 (
b1110111011011 %
b1110111011011 ,
b101101110100000 &
b101101110100000 -
b11101101000000 #
b11101101000000 *
b110011111000110 $
b110011111000110 +
b1100011100110100 !
b1100011100110100 )
#511200
0"
#514800
b110101 0
b1111 1
1"
#518400
0"
#520000
b1111 (
b110101100110011 %
b110101100110011 ,
b11000101010111 &
b11000101010111 -
b101100000110011 #
b101100000110011 *
b11101111000011 $
b11101111000011 +
b101110000010 !
b101110000010 )
#522000
b110110 0
b1111 1
1"
#525600
0"
#529200
b110111 0
b1111 1
1"
#530000
b1111 (
b110110101110110 %
b110110101110110 ,
b1001011010101 &
b1001011010101 -
b10011101101 #
b10011101101 *
b101111111101101 $
b101111111101101 +
b11001010100001 !
b11001010100001 )
#532800
0"
#536400
b111000 0
b1111 1
1"
#540000
0"
b1111 (
b1011100101100 %
b1011100101100 ,
b100110101101001 &
b100110101101001 -
b11011010000111 #
b11011010000111 *
b11001111010111 $
b11001111010111 +
b1101101011001 !
b1101101011001 )
#543600
b111001 0
b1111 1
1"
#547200
0"
#550000
b1111 (
b101100011100011 %
b101100011100011 ,
b1010011001011 &
b1010011001011 -
b10011101011 #
b10011101011 *
b10001000110000 $
b10001000110000 +
b101110001010000 !
b101110001010000 )
#550800
b111010 0
b1111 1
1"
#554400
0"
#558000
b111011 0
b1111 1
1"
#560000
b1111 (
b1011000011 %
b1011000011 ,
b111000000101011 &
b111000000101011 -
b100010111 #
b100010111 *
b11010101001 $
b11010101001 +
b1010111010010110 !
b1010111010010110 )
#561600
0"
#565200
b111100 0
b1111 1
1"
#568800
0"
#570000
b1111 (
b1111010011001 %
b1111010011001 ,
b111000111100 &
b111000111100 -
b1011010111101 #
b1011010111101 *
b101000001 $
b101000001 +
b100001011100110 !
b100001011100110 )
#572400
b111101 0
b1111 1
1"
#576000
0"
#579600
b111110 0
b1111 1
1"
#580000
b1111 (
b100111111100110 %
b100111111100110 ,
b10100101110011 &
b10100101110011 -
b111000010101000 #
b111000010101000 *
b110000101100101 $
b110000101100101 +
b10011111000101 !
b10011111000101 )
#583200
0"
#586800
b111111 0
b1111 1
1"
#590000
b1111 (
b11010100000100 %
b11010100000100 ,
b110100010010010 &
b110100010010010 -
b101011110011100 #
b101011110011100 *
b1101011000 $
b1101011000 +
b1010000010000101 !
b1010000010000101 )
#590400
0"
#594000
b1000000 0
b1111 1
1"
#597600
0"
#600000
b1111 (
b101001000001011 %
b101001000001011 ,
b100001100111011 &
b100001100111011 -
b11011001001 #
b11011001001 *
b10110110001000 $
b10110110001000 +
b1001101000101011 !
b1001101000101011 )
#601200
b1000001 0
b1111 1
1"
#604800
0"
#608400
b1000010 0
b1111 1
1"
#610000
b1111 (
b101110000101010 %
b101110000101010 ,
b101010110000001 &
b101010110000001 -
b1111011011011 #
b1111011011011 *
b111010000001011 $
b111010000001011 +
b1111001000110000 !
b1111001000110000 )
#612000
0"
#615600
b1000011 0
b1111 1
1"
#619200
0"
#620000
b1111 (
b10110011001001 %
b10110011001001 ,
b100100100111001 &
b100100100111001 -
b111101010011011 #
b111101010011011 *
b1100111111011 $
b1100111111011 +
b1110100110110010 !
b1110100110110010 )
#622800
b1000100 0
b1111 1
1"
#626400
0"
#630000
b1000101 0
b1111 1
1"
b1111 (
b1000000001101 %
b1000000001101 ,
b11101010110010 &
b11101010110010 -
b111100101101 #
b111100101101 *
b110010100111101 $
b110010100111101 +
b111010100100011 !
b111010100100011 )
#633600
0"
#637200
b1000110 0
b1111 1
1"
#640000
b1111 (
b11100101111011 %
b11100101111011 ,
b100000010110 &
b100000010110 -
b100110111101000 #
b100110111101000 *
b1000001011110 $
b1000001011110 +
b1010110001010100 !
b1010110001010100 )
#640800
0"
#644400
b1000111 0
b1111 1
1"
#648000
0"
#650000
b1111 (
b110101000000 %
b110101000000 ,
b100011011011010 &
b100011011011010 -
b111111110001110 #
b111111110001110 *
b1110011000101 $
b1110011000101 +
b10001000101011 !
b10001000101011 )
#651600
b1001000 0
b1111 1
1"
#655200
0"
#658800
b1001001 0
b1111 1
1"
#660000
b1111 (
b1001000100000 %
b1001000100000 ,
b110101000010 &
b110101000010 -
b11010000001111 #
b11010000001111 *
b11110111101000 $
b11110111101000 +
b100001111011011 !
b100001111011011 )
#662400
0"
#666000
b1001010 0
b1111 1
1"
#669600
0"
#670000
b1111 (
b100101010011001 %
b100101010011001 ,
b110010100100001 &
b110010100100001 -
b111000010000 #
b111000010000 *
b10101111010101 $
b10101111010101 +
b1011100001101010 !
b1011100001101010 )
#673200
b1001011 0
b1111 1
1"
#676800
0"
#680000
b1111 (
b1010100100111 %
b1010100100111 ,
b10000000010111 &
b10000000010111 -
b11000110111000 #
b11000110111000 *
b110010100110 $
b110010100110 +
b1100011000000101 !
b1100011000000101 )
#680400
b1001100 0
b1111 1
1"
#684000
0"
#687600
b1001101 0
b1111 1
1"
#690000
b1111 (
b101010001001 %
b101010001001 ,
b100001100011010 &
b100001100011010 -
b1011000101110 #
b1011000101110 *
b101100011001001 $
b101100011001001 +
b1011000010000001 !
b1011000010000001 )
#691200
0"
#694800
b1001110 0
b1111 1
1"
#698400
0"
#700000
b1111 (
b101111101110001 %
b101111101110001 ,
b101001001000101 &
b101001001000101 -
b111101111000000 #
b111101111000000 *
b10101101111110 $
b10101101111110 +
b1010011110110 !
b1010011110110 )
#702000
b1001111 0
b1111 1
1"
#705600
0"
#709200
b1010000 0
b1111 1
1"
#710000
b1111 (
b100010000010001 %
b100010000010001 ,
b100101100111000 &
b100101100111000 -
b11010111111010 #
b11010111111010 *
b11001101110011 $
b11001101110011 +
b100100010100000 !
b100100010100000 )
#712800
0"
#716400
b1010001 0
b1111 1
1"
#720000
0"
b1111 (
b100100100101010 %
b100100100101010 ,
b110110101000001 &
b110110101000001 -
b1001101101000 #
b1001101101000 *
b10010111110 $
b10010111110 +
b1100011011111111 !
b1100011011111111 )
#723600
b1010010 0
b1111 1
1"
#727200
0"
#730000
b1111 (
b11011010111000 %
b11011010111000 ,
b10101100001101 &
b10101100001101 -
b100010011000010 #
b100010011000010 *
b11101101010 $
b11101101010 +
b111111101100011 !
b111111101100011 )
#730800
b1010011 0
b1111 1
1"
#734400
0"
#738000
b1010100 0
b1111 1
1"
#740000
b1111 (
b111001111001100 %
b111001111001100 ,
b111110110101111 &
b111110110101111 -
b11001100101011 #
b11001100101011 *
b100010010100101 $
b100010010100101 +
b11110010010110 !
b11110010010110 )
#741600
0"
#745200
b1010101 0
b1111 1
1"
#748800
0"
#750000
b1111 (
b101110010011001 %
b101110010011001 ,
b100110000110001 &
b100110000110001 -
b110001101110110 #
b110001101110110 *
b101111110010110 $
b101111110010110 +
b101100001001 !
b101100001001 )
#752400
b1010110 0
b1111 1
1"
#756000
0"
#759600
b1010111 0
b1111 1
1"
#760000
b1111 (
b11010011100101 %
b11010011100101 ,
b100110101111000 &
b100110101111000 -
b101010100111011 #
b101010100111011 *
b101100010100110 $
b101100010100110 +
b1000111010100010 !
b1000111010100010 )
#763200
0"
#766800
b1011000 0
b1111 1
1"
#770000
b1111 (
b111001011100010 %
b111001011100010 ,
b101110000100100 &
b101110000100100 -
b110100010000010 #
b110100010000010 *
b11101101110 $
b11101101110 +
b110101111101100 !
b110101111101100 )
#770400
0"
#774000
b1011001 0
b1111 1
1"
#777600
0"
#780000
b1111 (
b10110011111001 %
b10110011111001 ,
b110100010010010 &
b110100010010010 -
b11100000100111 #
b11100000100111 *
b110101111001111 $
b110101111001111 +
b1001101011100011 !
b1001101011100011 )
#781200
b1011010 0
b1111 1
1"
#784800
0"
#788400
b1011011 0
b1111 1
1"
#790000
b1111 (
b111010011010101 %
b111010011010101 ,
b100100100001001 &
b100100100001001 -
b111011001010000 #
b111011001010000 *
b110000010101 $
b110000010101 +
b1101101010111011 !
b1101101010111011 )
#792000
0"
#795600
b1011100 0
b1111 1
1"
#799200
0"
#800000
b1111 (
b11011100011100 %
b11011100011100 ,
b1111000011111 &
b1111000011111 -
b101011110001100 #
b101011110001100 *
b110011000100110 $
b110011000100110 +
b1111110110011010 !
b1111110110011010 )
#802800
b1011101 0
b1111 1
1"
#806400
0"
#810000
b1011110 0
b1111 1
1"
b1111 (
b1110010110010 %
b1110010110010 ,
b11101010001100 &
b11101010001100 -
b110010100110011 #
b110010100110011 *
b11101011101011 $
b11101011101011 +
b101010001101011 !
b101010001101011 )
#813600
0"
#817200
b1011111 0
b1111 1
1"
#820000
b1111 (
b110111110001010 %
b110111110001010 ,
b111100011101111 &
b111100011101111 -
b110110001011110 #
b110110001011110 *
b111100001001101 $
b111100001001101 +
b1000101000000 !
b1000101000000 )
#820800
0"
#824400
b1100000 0
b1111 1
1"
#828000
0"
#830000
b1111 (
b110101110001101 %
b110101110001101 ,
b1111111001010 &
b1111111001010 -
b101001011100110 #
b101001011100110 *
b1110010100100 $
b1110010100100 +
b1001100101011000 !
b1001100101011000 )
#831600
b1100001 0
b1111 1
1"
#835200
0"
#838800
b1100010 0
b1111 1
1"
#840000
b1111 (
b10111011111000 %
b10111011111000 ,
b100001000001101 &
b100001000001101 -
b111011110110110 #
b111011110110110 *
b111001010011 $
b111001010011 +
b1111001001101111 !
b1111001001101111 )
#842400
0"
#846000
b1100011 0
b1111 1
1"
#849600
0"
#850000
b1111 (
b1011010000001 %
b1011010000001 ,
b10001010100000 &
b10001010100000 -
b1100101101000 #
b1100101101000 *
b110000001 $
b110000001 +
b1111010001011 !
b1111010001011 )
#853200
b1100100 0
b1111 1
1"
#856800
0"
#860000
b1111 (
b1011111000110 %
b1011111000110 ,
b101101011110 &
b101101011110 -
b11000010011111 #
b11000010011111 *
b101010111111110 $
b101010111111110 +
b111111111000111 !
b111111111000111 )
#860400
b1100101 0
b1111 1
1"
#864000
0"
#867600
b1100110 0
b1111 1
1"
#870000
b1111 (
b1111100111001 %
b1111100111001 ,
b11000000100101 &
b11000000100101 -
b101010001011000 #
b101010001011000 *
b111001011000011 $
b111001011000011 +
b10011110100100 !
b10011110100100 )
#871200
0"
#874800
b1100111 0
b1111 1
1"
#878400
0"
#880000
b1111 (
b111111111100001 %
b111111111100001 ,
b1101111110010 &
b1101111110010 -
b1011011011100 #
b1011011011100 *
b11001001101100 $
b11001001101100 +
b100111011110100 !
b100111011110100 )
#882000
b1101000 0
b1111 1
1"
#885600
0"
#889200
b1101001 0
b1111 1
1"
#890000
b1111 (
b11111101001110 %
b11111101001110 ,
b111011110111010 &
b111011110111010 -
b110001110100000 #
b110001110100000 *
b11101011110011 $
b11101011110011 +
b1010100101011000 !
b1010100101011000 )
#892800
0"
#896400
b1101010 0
b1111 1
1"
#900000
0"
b1111 (
b11101111000 %
b11101111000 ,
b100100000 &
b100100000 -
b110001000011011 #
b110001000011011 *
b101100001100011 $
b101100001100011 +
b1100001110100111 !
b1100001110100111 )
#903600
b1101011 0
b1111 1
1"
#907200
0"
#910000
b1111 (
b111001101100100 %
b111001101100100 ,
b101111101111011 &
b101111101111011 -
b101111110010011 #
b101111110010011 *
b110100000001011 $
b110100000001011 +
b110001111111101 !
b110001111111101 )
#910800
b1101100 0
b1111 1
1"
#914400
0"
#918000
b1101101 0
b1111 1
1"
#920000
b1111 (
b11001000101 %
b11001000101 ,
b10100000110 &
b10100000110 -
b1010010010000 #
b1010010010000 *
b11001000100010 $
b11001000100010 +
b1111001010010110 !
b1111001010010110 )
#921600
0"
#925200
b1101110 0
b1111 1
1"
#928800
0"
#930000
b1111 (
b111011010010010 %
b111011010010010 ,
b1010001101100 &
b1010001101100 -
b10001001000100 #
b10001001000100 *
b100100000101001 $
b100100000101001 +
b1101000100100100 !
b1101000100100100 )
#932400
b1101111 0
b1111 1
1"
#936000
0"
#939600
b1110000 0
b1111 1
1"
#940000
b1111 (
b1110010100100 %
b1110010100100 ,
b11100010000000 &
b11100010000000 -
b110010101110110 #
b110010101110110 *
b110101100010101 $
b110101100010101 +
b1011110001100101 !
b1011110001100101 )
#943200
0"
#946800
b1110001 0
b1111 1
1"
#950000
b1111 (
b100011111110101 %
b100011111110101 ,
b11001000000 &
b11001000000 -
b100111101000110 #
b100111101000110 *
b110010011010101 $
b110010011010101 +
b10111010101110 !
b10111010101110 )
#950400
0"
#954000
b1110010 0
b1111 1
1"
#957600
0"
#960000
b1111 (
b10010100101110 %
b10010100101110 ,
b110001000101111 &
b110001000101111 -
b101000101011010 #
b101000101011010 *
b110110100111001 $
b110110100111001 +
b1011110110001001 !
b1011110110001001 )
#961200
b1110011 0
b1111 1
1"
#964800
0"
#968400
b1110100 0
b1111 1
1"
#970000
b1111 (
b1111111111100 %
b1111111111100 ,
b101111000001010 &
b101111000001010 -
b11101010001011 #
b11101010001011 *
b100010000000 $
b100010000000 +
b111100101010100 !
b111100101010100 )
#972000
0"
#975600
b1110101 0
b1111 1
1"
#979200
0"
#980000
b1111 (
b11100100001101 %
b11100100001101 ,
b1001110101010 &
b1001110101010 -
b1011111000100 #
b1011111000100 *
b110011110010100 $
b110011110010100 +
b100111111111010 !
b100111111111010 )
#982800
b1110110 0
b1111 1
1"
#986400
0"
#990000
b1110111 0
b1111 1
1"
b1111 (
b111100001010110 %
b111100001010110 ,
b100010111001 &
b100010111001 -
b11010101011 #
b11010101011 *
b100000101000110 $
b100000101000110 +
b110100000101100 !
b110100000101100 )
#993600
0"
#997200
b1111000 0
b1111 1
1"
#1000000
b1111 (
b11100011000110 %
b11100011000110 ,
b1010101110100 &
b1010101110100 -
b10110100011101 #
b10110100011101 *
b100000010001100 $
b100000010001100 +
b1000111011011011 !
b1000111011011011 )
#1000800
0"
#1004400
b1111001 0
b1111 1
1"
#1008000
0"
#1010000
b1111 (
b1001100000010 %
b1001100000010 ,
b11001110100110 &
b11001110100110 -
b101000110000 #
b101000110000 *
b101101110010001 $
b101101110010001 +
b111111000000010 !
b111111000000010 )
#1011600
b1111010 0
b1111 1
1"
#1015200
0"
#1018800
b1111011 0
b1111 1
1"
#1020000
b1111 (
b11111010101101 %
b11111010101101 ,
b111001111001010 &
b111001111001010 -
b101010101011011 #
b101010101011011 *
b10110001111110 $
b10110001111110 +
b101011111010100 !
b101011111010100 )
#1022400
0"
#1026000
b1111100 0
b1111 1
1"
#1029600
0"
#1030000
b1111 (
b110101001111000 %
b110101001111000 ,
b100011100100101 &
b100011100100101 -
b110010100111010 #
b110010100111010 *
b110000010111011 $
b110000010111011 +
b1111001100101000 !
b1111001100101000 )
#1033200
b1111101 0
b1111 1
1"
#1036800
0"
#1040000
b1111 (
b10010110111000 %
b10010110111000 ,
b111100111011101 &
b111100111011101 -
b100101100000 #
b100101100000 *
b1001001101101 $
b1001001101101 +
b100011101011110 !
b100011101011110 )
#1040400
b1111110 0
b1111 1
1"
#1044000
0"
#1047600
b1111111 0
b1111 1
1"
#1050000
b1111 (
b11100001011100 %
b11100001011100 ,
b111001001011011 &
b111001001011011 -
b111000000011010 #
b111000000011010 *
b10000101000001 $
b10000101000001 +
b1100010110000101 !
b1100010110000101 )
#1051200
0"
#1054800
b10000000 0
b1111 1
1"
#1058400
0"
#1060000
b1111 (
b100011111100 %
b100011111100 ,
b11001010011111 &
b11001010011111 -
b10010001100 #
b10010001100 *
b1111000011100 $
b1111000011100 +
b1011011010101111 !
b1011011010101111 )
#1062000
b10000001 0
b1111 1
1"
#1065600
0"
#1069200
b10000010 0
b1111 1
1"
#1070000
b1111 (
b111101110111111 %
b111101110111111 ,
b10000100111100 &
b10000100111100 -
b100101100110110 #
b100101100110110 *
b10010110010110 $
b10010110010110 +
b1010110010001001 !
b1010110010001001 )
#1072800
0"
#1076400
b10000011 0
b1111 1
1"
#1080000
0"
b1111 (
b100100101101001 %
b100100101101001 ,
b110111110101010 &
b110111110101010 -
b100001101110100 #
b100001101110100 *
b11110001101101 $
b11110001101101 +
b1100011101111110 !
b1100011101111110 )
#1083600
b10000100 0
b1111 1
1"
#1087200
0"
#1090000
b1111 (
b110110101011010 %
b110110101011010 ,
b111110100000110 &
b111110100000110 -
b100110111010110 #
b100110111010110 *
b11100001000100 $
b11100001000100 +
b10100111011001 !
b10100111011001 )
#1090800
b10000101 0
b1111 1
1"
#1094400
0"
#1098000
b10000110 0
b1111 1
1"
#1100000
b1111 (
b111110100100101 %
b111110100100101 ,
b11011001100100 &
b11011001100100 -
b1000111011 #
b1000111011 *
b1101001011110 $
b1101001011110 +
b100111101011101 !
b100111101011101 )
#1101600
0"
