backend/rv_dcache/tb_rv_dcache.vcd
$date
	Fri Jun  5 19:21:00 2026
$end
$version
	Icarus Verilog
$end
$timescale
	1ps
$end
$scope module tb_rv_dcache $end
$var wire 1 ! snoop_data_valid $end
$var wire 512 " snoop_data [511:0] $end
$var wire 1 # snoop_ack $end
$var wire 1 $ sc_success $end
$var wire 1 % m_wvalid $end
$var wire 8 & m_wstrb [7:0] $end
$var wire 1 ' m_wlast $end
$var wire 64 ( m_wdata [63:0] $end
$var wire 1 ) m_rready $end
$var wire 1 * m_bready $end
$var wire 1 + m_awvalid $end
$var wire 3 , m_awsize [2:0] $end
$var wire 8 - m_awlen [7:0] $end
$var wire 2 . m_awburst [1:0] $end
$var wire 40 / m_awaddr [39:0] $end
$var wire 1 0 m_arvalid $end
$var wire 3 1 m_arsize [2:0] $end
$var wire 1 2 m_arlock $end
$var wire 8 3 m_arlen [7:0] $end
$var wire 2 4 m_arburst [1:0] $end
$var wire 40 5 m_araddr [39:0] $end
$var wire 1 6 ecc_2bit $end
$var wire 1 7 ecc_1bit $end
$var wire 1 8 cpu_valid $end
$var wire 1 9 cpu_stall $end
$var wire 64 : cpu_rdata [63:0] $end
$var reg 1 ; clk $end
$var reg 40 < cpu_addr [39:0] $end
$var reg 1 = cpu_req $end
$var reg 3 > cpu_size [2:0] $end
$var reg 64 ? cpu_wdata [63:0] $end
$var reg 1 @ cpu_wr $end
$var reg 8 A cpu_wstrb [7:0] $end
$var reg 40 B flush_addr [39:0] $end
$var reg 1 C flush_addr_en $end
$var reg 1 D flush_all $end
$var reg 1 E is_lr $end
$var reg 1 F is_sc $end
$var reg 40 G lr_addr_in [39:0] $end
$var reg 1 H lr_valid_in $end
$var reg 1 I m_arready $end
$var reg 1 J m_awready $end
$var reg 2 K m_bresp [1:0] $end
$var reg 1 L m_bvalid $end
$var reg 64 M m_rdata [63:0] $end
$var reg 1 N m_rlast $end
$var reg 2 O m_rresp [1:0] $end
$var reg 1 P m_rvalid $end
$var reg 1 Q m_wready $end
$var reg 1 R rst_n $end
$var reg 40 S snoop_addr [39:0] $end
$var reg 2 T snoop_type [1:0] $end
$var reg 1 U snoop_valid $end
$scope module uut $end
$var wire 1 ; clk $end
$var wire 40 V cpu_addr [39:0] $end
$var wire 1 = cpu_req $end
$var wire 3 W cpu_size [2:0] $end
$var wire 1 9 cpu_stall $end
$var wire 64 X cpu_wdata [63:0] $end
$var wire 1 @ cpu_wr $end
$var wire 8 Y cpu_wstrb [7:0] $end
$var wire 40 Z flush_addr [39:0] $end
$var wire 1 C flush_addr_en $end
$var wire 1 D flush_all $end
$var wire 1 E is_lr $end
$var wire 1 F is_sc $end
$var wire 40 [ lr_addr_in [39:0] $end
$var wire 1 H lr_valid_in $end
$var wire 1 I m_arready $end
$var wire 1 J m_awready $end
$var wire 2 \ m_bresp [1:0] $end
$var wire 1 L m_bvalid $end
$var wire 64 ] m_rdata [63:0] $end
$var wire 1 N m_rlast $end
$var wire 2 ^ m_rresp [1:0] $end
$var wire 1 P m_rvalid $end
$var wire 1 Q m_wready $end
$var wire 7 _ plru [6:0] $end
$var wire 1 R rst_n $end
$var wire 1 $ sc_success $end
$var wire 40 ` snoop_addr [39:0] $end
$var wire 2 a snoop_type [1:0] $end
$var wire 1 U snoop_valid $end
$var wire 512 b victim_data [511:0] $end
$var wire 3 c word_sel [2:0] $end
$var wire 64 d word_data [63:0] $end
$var wire 8 e way_hit [7:0] $end
$var wire 28 f victim_tag [27:0] $end
$var wire 1 g victim_dirty $end
$var wire 28 h tag [27:0] $end
$var wire 3 i plru_victim [2:0] $end
$var wire 6 j offset [5:0] $end
$var wire 6 k index [5:0] $end
$var wire 3 l hit_way_enc [2:0] $end
$var wire 1 m cache_hit $end
$var parameter 32 n ADDR_W $end
$var parameter 32 o BEATS $end
$var parameter 32 p DATA_W $end
$var parameter 3 q D_EVICT_RSP $end
$var parameter 3 r D_EVICT_WR $end
$var parameter 3 s D_FLUSH $end
$var parameter 3 t D_IDLE $end
$var parameter 3 u D_REFILL $end
$var parameter 3 v D_REFILL_RQ $end
$var parameter 32 w INDEX_W $end
$var parameter 64 x LINE_BITS $end
$var parameter 32 y LINE_BYTES $end
$var parameter 32 z MSHR_DEPTH $end
$var parameter 32 { OFFSET_W $end
$var parameter 32 | SETS $end
$var parameter 36 } TAG_D $end
$var parameter 32 ~ TAG_ECC_W $end
$var parameter 35 !" TAG_ENTRY_W $end
$var parameter 36 "" TAG_V $end
$var parameter 34 #" TAG_W $end
$var parameter 32 $" WAYS $end
$var reg 64 %" cpu_rdata [63:0] $end
$var reg 64 &" cpu_rdata_comb [63:0] $end
$var reg 1 8 cpu_valid $end
$var reg 1 7 ecc_1bit $end
$var reg 1 6 ecc_2bit $end
$var reg 3 '" evict_beat [2:0] $end
$var reg 3 (" fill_beat [2:0] $end
$var reg 512 )" fill_buf [511:0] $end
$var reg 6 *" fill_idx [5:0] $end
$var reg 28 +" fill_tag [27:0] $end
$var reg 3 ," fill_way [2:0] $end
$var reg 512 -" hit_line [511:0] $end
$var reg 40 ." m_araddr [39:0] $end
$var reg 2 /" m_arburst [1:0] $end
$var reg 8 0" m_arlen [7:0] $end
$var reg 1 2 m_arlock $end
$var reg 3 1" m_arsize [2:0] $end
$var reg 1 0 m_arvalid $end
$var reg 40 2" m_awaddr [39:0] $end
$var reg 2 3" m_awburst [1:0] $end
$var reg 8 4" m_awlen [7:0] $end
$var reg 3 5" m_awsize [2:0] $end
$var reg 1 + m_awvalid $end
$var reg 1 * m_bready $end
$var reg 1 ) m_rready $end
$var reg 64 6" m_wdata [63:0] $end
$var reg 1 ' m_wlast $end
$var reg 8 7" m_wstrb [7:0] $end
$var reg 1 % m_wvalid $end
$var reg 1 # snoop_ack $end
$var reg 512 8" snoop_data [511:0] $end
$var reg 1 ! snoop_data_valid $end
$var reg 3 9" state [2:0] $end
$var integer 32 :" si [31:0] $end
$var integer 32 ;" wi [31:0] $end
$scope begin arr_rd[0] $end
$var parameter 2 <" i $end
$upscope $end
$scope begin arr_rd[1] $end
$var parameter 2 =" i $end
$upscope $end
$scope begin arr_rd[2] $end
$var parameter 3 >" i $end
$upscope $end
$scope begin arr_rd[3] $end
$var parameter 3 ?" i $end
$upscope $end
$scope begin arr_rd[4] $end
$var parameter 4 @" i $end
$upscope $end
$scope begin arr_rd[5] $end
$var parameter 4 A" i $end
$upscope $end
$scope begin arr_rd[6] $end
$var parameter 4 B" i $end
$upscope $end
$scope begin arr_rd[7] $end
$var parameter 4 C" i $end
$upscope $end
$upscope $end
$upscope $end
$enddefinitions $end
$comment Show the parameter values. $end
$dumpall
b111 C"
b110 B"
b101 A"
b100 @"
b11 ?"
b10 >"
b1 ="
b0 <"
b1000 $"
b11100 #"
b100100 ""
b100101 !"
b111 ~
b100011 }
b1000000 |
b110 {
b100 z
b1000000 y
b1000000000 x
b110 w
b11 v
b100 u
b0 t
b101 s
b1 r
b10 q
b1000000 p
b1000 o
b101000 n
$end
#0
$dumpvars
bx ;"
bx :"
bx 9"
bx 8"
bx 7"
bx 6"
bx 5"
bx 4"
bx 3"
bx 2"
bx 1"
bx 0"
bx /"
bx ."
bx -"
bx ,"
bx +"
bx *"
bx )"
bx ("
bx '"
bx &"
bx %"
xm
bx l
b0 k
b0 j
bx i
b0 h
xg
bx f
bx e
bx d
b0 c
bx b
b0 a
b0 `
bx _
b0 ^
b0 ]
b0 \
b0 [
b0 Z
b0 Y
b0 X
b0 W
b0 V
0U
b0 T
b0 S
xR
0Q
0P
b0 O
0N
b0 M
0L
b0 K
0J
0I
0H
b0 G
0F
0E
0D
0C
b0 B
b0 A
0@
b0 ?
b0 >
0=
b0 <
0;
bx :
09
x8
x7
x6
bx 5
bx 4
bx 3
x2
bx 1
x0
bx /
bx .
bx -
bx ,
x+
x*
x)
bx (
x'
bx &
x%
0$
x#
bx "
x!
$end
#3600
b0 9"
0!
0#
08
1;
#7200
0;
#10000
b0 l
0g
b0 f
0m
b0 e
b0 i
b0 _
06
07
0*
0)
0%
0+
00
b1000 ;"
b1000000 :"
0R
#10800
b1000 ;"
b1000000 :"
1;
#14400
0;
#18000
b1000 ;"
b1000000 :"
1;
#21600
0;
#25200
b1000 ;"
b1000000 :"
1;
#28800
0;
#32400
b1000 ;"
b1000000 :"
1;
#36000
0;
#39600
b1000 ;"
b1000000 :"
1;
#43200
0;
#46800
b1000 ;"
b1000000 :"
1;
#50400
0;
#54000
b1000 ;"
b1000000 :"
1;
#57600
0;
#61200
b1000 ;"
b1000000 :"
1;
#64800
0;
#68400
b1000 ;"
b1000000 :"
1;
#72000
0;
#75600
b1000 ;"
b1000000 :"
1;
#79200
0;
#82800
b1000 ;"
b1000000 :"
1;
#86400
0;
#90000
b1000 ;"
b1000000 :"
1;
#93600
0;
#97200
b1000 ;"
b1000000 :"
1;
#100800
0;
#104400
b1000 ;"
b1000000 :"
1;
#108000
0;
#110000
1R
#111600
1;
#115200
0;
#118800
1;
#122400
0;
#126000
1;
#129600
0;
#133200
1;
#136800
0;
#140000
b100 c
b0xxxxxxxxxxxxxxxx &"
b100100 j
b10100 k
b10010000101010011 h
b1111111111100111011101101001011011001110 S
b1111111111100111011101101001011011001110 `
b11 K
b11 \
1Q
1J
b10 O
b10 ^
1N
b1111111111111111111111111111111111100011001101110010010011000110 M
b1111111111111111111111111111111111100011001101110010010011000110 ]
1P
b1110110110101000101011111101101 B
b1110110110101000101011111101101 Z
1C
1H
b111100111110001100000001 G
b111100111110001100000001 [
1E
b101 >
b101 W
1@
1=
b1001 A
b1001 Y
b1111111111111111111111111111111111000000100010010101111010000001 ?
b1111111111111111111111111111111111000000100010010101111010000001 X
b10010000101010011010100100100 <
b10010000101010011010100100100 V
#140400
19
b11 9"
10
12
b1 4
b1 /"
b11 1
b11 1"
b111 3
b111 0"
b10010000101010011010100000000 5
b10010000101010011010100000000 ."
b0 ("
b0 ,"
b10010000101010011 +"
b10100 *"
1;
#144000
0;
#147600
1;
#150000
b0 c
bx &"
b101 j
b111011 k
b1111111111100010110010100100 h
b1111111111100101011100110000101011001010 S
b1111111111100101011100110000101011001010 `
1L
0J
b110101100111111101110101101011 M
b110101100111111101110101101011 ]
1I
b1111111110001001100000111011100000010011 B
b1111111110001001100000111011100000010011 Z
0C
1D
0H
b10000011001000010000100100000 G
b10000011001000010000100100000 [
0E
b11 >
b11 W
b10111101 A
b10111101 Y
b101110010110000100100101011100 ?
b101110010110000100100101011100 X
b1111111111100010110010100100111011000101 <
b1111111111100010110010100100111011000101 V
#151200
0;
#154800
b100 9"
b0 )"
1)
00
b1000 ;"
b1000000 :"
1;
#158400
0;
#160000
09
b110 c
b110010 j
b110111 k
b1111001011010001011 h
b11 T
b11 a
b100110001101011111101101001100 S
b100110001101011111101101001100 `
b1 K
b1 \
b100111111100100101010101001111 M
b100111111100100101010101001111 ]
b1111111110000101110101111001101000001011 B
b1111111110000101110101111001101000001011 Z
0D
b1100011010010111111100111000110 G
b1100011010010111111100111000110 [
1E
b1 >
b1 W
0@
0=
b1000001 A
b1000001 Y
b1000101001011100110000110001010 ?
b1000101001011100110000110001010 X
b1111001011010001011110111110010 <
b1111001011010001011110111110010 V
#162000
b0 9"
0)
b1 ("
b100111111100100101010101001111 )"
1;
#165600
0;
#169200
1;
#170000
b1 c
b1111 j
b110 k
b1000111101110011010 h
b0 T
b0 a
b1000010110110010010111110000101 S
b1000010110110010010111110000101 `
1U
b11 K
b11 \
b1111111111111111111111111111111110111011100000100101101001110111 M
b1111111111111111111111111111111110111011100000100101101001110111 ]
0P
0I
b110000111010111111100001100 B
b110000111010111111100001100 Z
1D
1H
b1111111111101000001000110011111011010000 G
b1111111111101000001000110011111011010000 [
1F
b11 >
b11 W
1=
b10110111 A
b10110111 Y
b1111100011011011010100111111000 ?
b1111100011011011010100111111000 X
b1000111101110011010000110001111 <
b1000111101110011010000110001111 V
#172800
0;
#176400
19
1#
b11 9"
10
b1000111101110011010000110000000 5
b1000111101110011010000110000000 ."
b0 ("
b1000111101110011010 +"
b110 *"
b1000 ;"
b1000000 :"
1;
#180000
09
b11 c
b0xxxxxxxxxxxxxxxxxxxxxxxxxxxxxxxx &"
b11011 j
b100101 k
b101101110110100101 h
0;
b1 T
b1 a
b1111111110110010100111111011011001100101 S
b1111111110110010100111111011011001100101 `
0U
b1 K
b1 \
0Q
b11 O
b11 ^
b100010001010010000110101000100 M
b100010001010010000110101000100 ]
1P
1I
b1111111110010111100110011010100000101111 B
b1111111110010111100110011010100000101111 Z
1C
0H
b1111101001101011001100111111010 G
b1111101001101011001100111111010 [
0F
0E
b110 >
b110 W
0=
b111111 A
b111111 Y
b100100100010110100101101001001 ?
b100100100010110100101101001001 X
b101101110110100101100101011011 <
b101101110110100101100101011011 V
#183600
b100 9"
b0 )"
1)
00
0#
b1000 ;"
b1000000 :"
1;
#187200
0;
#190000
bx &"
b11111 j
b10011 k
b1111111111101111101111101001 h
b1101101110010110110100111011011 S
b1101101110010110110100111011011 `
1U
b0 K
b0 \
b1 O
b1 ^
0N
b1011011011011111011100110110110 M
b1011011011011111011100110110110 ]
0P
b100111011110011110100101001110 B
b100111011110011110100101001110 Z
0C
1H
b1111111111001101010111101011110010011010 G
b1111111111001101010111101011110010011010 [
b11 >
b11 W
b1000100 A
b1000100 Y
b111100111100010001100101111001 ?
b111100111100010001100101111001 X
b1111111111101111101111101001010011011111 <
b1111111111101111101111101001010011011111 V
#190800
b1000 ;"
b1000000 :"
1;
#194400
0;
#198000
b1000 ;"
b1000000 :"
1;
#200000
b0xxxxxxxxxxxxxxxx &"
b11001 j
b11111 k
b1101100101100001011 h
b10 T
b10 a
b1111111110011110101101111100011000111101 S
b1111111110011110101101111100011000111101 `
0U
b10 K
b10 \
0L
1Q
1J
b0 O
b0 ^
b1111111111111111111111111111111110010111010111001001110000101110 M
b1111111111111111111111111111111110010111010111001001110000101110 ]
1P
b10100011111001101100100101000 B
b10100011111001101100100101000 Z
0D
b1111011110100100110000111110111 G
b1111011110100100110000111110111 [
b101 >
b101 W
b1110110 A
b1110110 Y
b1111111111111111111111111111111110110110101001000010011001101101 ?
b1111111111111111111111111111111110110110101001000010011001101101 X
b1101100101100001011011111011001 <
b1101100101100001011011111011001 V
#201600
0;
#205200
b1 ("
b1111111111111111111111111111111110010111010111001001110000101110 )"
1;
#208800
0;
#210000
b110 c
b110000 j
b10001 k
b1111111110111000010101011100 h
b1 T
b1 a
b1011100101000000100100010111 S
b1011100101000000100100010111 `
1U
1L
b10 O
b10 ^
b1000011011000010101011110000110 M
b1000011011000010101011110000110 ]
0P
b1111111111011011010001100001101010110110 B
b1111111111011011010001100001101010110110 Z
0H
b11011100001110110000100110111 G
b11011100001110110000100110111 [
1F
b10111010 A
b10111010 Y
b1111111111111111111111111111111110111001111101010000010001110011 ?
b1111111111111111111111111111111110111001111101010000010001110011 X
b1111111110111000010101011100010001110000 <
b1111111110111000010101011100010001110000 V
#212400
1;
#216000
0;
#219600
1;
#220000
19
b0 c
bx &"
b110 j
b110 k
b1000011011101111001 h
b1111111110011100011011011110011000111000 S
b1111111110011100011011011110011000111000 `
0U
b1 K
b1 \
0L
0Q
b1111111111111111111111111111111111010000110010101000110010100001 M
b1111111111111111111111111111111111010000110010101000110010100001 ]
1P
0I
b100111010110001101000101001110 B
b100111010110001101000101001110 Z
1H
b100101101100100111101101001011 G
b100101101100100111101101001011 [
0F
1E
b1 >
b1 W
1@
1=
b11110101 A
b11110101 Y
b1111111111111111111111111111111110101000011000111001011001010000 ?
b1111111111111111111111111111111110101000011000111001011001010000 X
b1000011011101111001000110000110 <
b1000011011101111001000110000110 V
#223200
0;
#226800
b10 ("
b11111111111111111111111111111111110100001100101010001100101000011111111111111111111111111111111110010111010111001001110000101110 )"
1;
#230000
b1 c
b0xxxxxxxxxxxxxxxxxxxxxxxxxxxxxxxx &"
b1000 j
b1111 k
b1100100011001001110 h
b11 T
b11 a
b1111111111111101100010110110101011111011 S
b1111111111111101100010110110101011111011 `
1L
0J
b0 O
b0 ^
1N
b11001010001010010000100110010 M
b11001010001010010000100110010 ]
0P
b1111111111000011001100111001000010000110 B
b1111111111000011001100111001000010000110 Z
1C
0H
b1011100100000101001010110111001 G
b1011100100000101001010110111001 [
0E
b110 >
b110 W
b10011 A
b10011 Y
b1100101001000110100010111001010 ?
b1100101001000110100010111001010 X
b1100100011001001110001111001000 <
b1100100011001001110001111001000 V
#230400
0;
#234000
1;
#237600
0;
#240000
b101 c
bx &"
b101111 j
b11 k
b1111111111110111100000101001 h
b10 T
b10 a
b101001111011111110100101010011 S
b101001111011111110100101010011 `
b11 K
b11 \
1J
0N
b110101100110000010100001101 M
b110101100110000010100001101 ]
b100101101101110101111101001011 B
b100101101101110101111101001011 Z
b1001101111100111000000110011011 G
b1001101111100111000000110011011 [
b11 >
b11 W
b110110 A
b110110 Y
b1100100110010000011110111001001 ?
b1100100110010000011110111001001 X
b1111111111110111100000101001000011101111 <
b1111111111110111100000101001000011101111 V
#241200
1;
#244800
0;
#248400
1;
#250000
b11 c
b11011 j
b1001 k
b1111111110101101101011000010 h
b1 T
b1 a
b101010110000101101010101010101 S
b101010110000101101010101010101 `
1U
b10 K
b10 \
0L
0J
b1111111111111111111111111111111110001111100011000110111000011111 M
b1111111111111111111111111111111110001111100011000110111000011111 ]
1P
1I
b1100100000110111000010111001000 B
b1100100000110111000010111001000 Z
1D
1H
b1111111111110010100001111011011011100101 G
b1111111111110010100001111011011011100101 [
1F
b10 >
b10 W
0@
b100 A
b100 Y
b1111111111111111111111111111111111110001011001101111101011100010 ?
b1111111111111111111111111111111111110001011001101111101011100010 X
b1111111110101101101011000010001001011011 <
b1111111110101101101011000010001001011011 V
#252000
0;
#255600
b11 ("
b111111111111111111111111111111111000111110001100011011100001111111111111111111111111111111111111110100001100101010001100101000011111111111111111111111111111111110010111010111001001110000101110 )"
b1000 ;"
b1000000 :"
1;
#259200
0;
#260000
b101 c
b101011 j
b101100 k
b10101100010110010 h
b0 T
b0 a
b1111000001000110010000111110000 S
b1111000001000110010000111110000 `
0U
b11 K
b11 \
1N
b1111111111111111111111111111111110100010111001100010000001000101 M
b1111111111111111111111111111111110100010111001100010000001000101 ]
0P
0I
b1111111111010000101111000101111010100001 B
b1111111111010000101111000101111010100001 Z
b1111111110100100110110100101011001001001 G
b1111111110100100110110100101011001001001 [
1E
b111 >
b111 W
b10101101 A
b10101101 Y
b1111010101100010001101111110101 ?
b1111010101100010001101111110101 X
b10101100010110010101100101011 <
b10101100010110010101100101011 V
#262800
b1000 ;"
b1000000 :"
1;
#266400
0;
#270000
b100 ("
b1100100101101011110001111001001111111111111111111111111111111111000111110001100011011100001111111111111111111111111111111111111110100001100101010001100101000011111111111111111111111111111111110010111010111001001110000101110 )"
b0 c
b0xxxxxxxx &"
b0 j
b101 k
b100000011101101001 h
1;
b1 T
b1 a
b110000010100101110100001100 S
b110000010100101110100001100 `
1Q
1J
b1 O
b1 ^
0N
b1100100101101011110001111001001 M
b1100100101101011110001111001001 ]
1P
1I
b1111111111110000101100010100111011100001 B
b1111111111110000101100010100111011100001 Z
0D
0H
b11110000111001000011100111100 G
b11110000111001000011100111100 [
0F
b100 >
b100 W
b11110110 A
b11110110 Y
b1111111111111111111111111111111110010100000010010111011000101000 ?
b1111111111111111111111111111111110010100000010010111011000101000 X
b100000011101101001000101000000 <
b100000011101101001000101000000 V
#273600
0;
#277200
b101 ("
b11001001011010111100011110010010000000000000000000000000000000001100100101101011110001111001001111111111111111111111111111111111000111110001100011011100001111111111111111111111111111111111111110100001100101010001100101000011111111111111111111111111111111110010111010111001001110000101110 )"
1;
#280000
09
b111 c
b0xxxxxxxxxxxxxxxx &"
b111011 j
b110000 k
b1111111110011101111000010111 h
b0 T
b0 a
b1111111111001010100111001011110010010101 S
b1111111111001010100111001011110010010101 `
b1 K
b1 \
1L
b11 O
b11 ^
1N
b1111111111111111111111111111111111111110111100000110010011111101 M
b1111111111111111111111111111111111111110111100000110010011111101 ]
0P
b100101101100001001100101001011 B
b100101101100001001100101001011 Z
1D
b111001011000000000100101110010 G
b111001011000000000100101110010 [
0E
b101 >
b101 W
0=
b11110111 A
b11110111 Y
b1011011011000001110010110110110 ?
b1011011011000001110010110110110 X
b1111111110011101111000010111110000111011 <
b1111111110011101111000010111110000111011 V
#280800
0;
#284400
b1000 ;"
b1000000 :"
1;
#288000
0;
#290000
19
b101 c
b0xxxxxxxx &"
b101101 j
b100011 k
b1111111111110110101000010111 h
b11 T
b11 a
b1111111110011110110010011100000000111101 S
b1111111110011110110010011100000000111101 `
0L
0Q
b10 O
b10 ^
b1011101010010100100110110111010 M
b1011101010010100100110110111010 ]
0I
b1111111111010101010110111011110010101010 B
b1111111111010101010110111011110010101010 Z
0C
0D
1H
b1001000010010000111110110010000 G
b1001000010010000111110110010000 [
b100 >
b100 W
1=
b11111000 A
b11111000 Y
b101001011110100001010101010010 ?
b101001011110100001010101010010 X
b1111111111110110101000010111100011101101 <
b1111111111110110101000010111100011101101 V
#291600
1;
#295200
0;
#298800
1;
#300000
b11 c
bx &"
b11100 j
b1 k
b1111111110101110011010000011 h
b10 T
b10 a
b1011000001100010010010110110000 S
b1011000001100010010010110110000 `
1U
b11 K
b11 \
1Q
b1 O
b1 ^
0N
b10001111111100000010100100011 M
b10001111111100000010100100011 ]
1I
b1111111110100101111001111001111001001011 B
b1111111110100101111001111001111001001011 Z
1D
0H
b11111010011011011100000111 G
b11111010011011011100000111 [
b0 >
b0 W
b10000110 A
b10000110 Y
b100011100100000111010101000111 ?
b100011100100000111010101000111 X
b1111111110101110011010000011000001011100 <
b1111111110101110011010000011000001011100 V
#302400
0;
#306000
b1000 ;"
b1000000 :"
1;
#309600
0;
#310000
09
b1 c
b1001 j
b111101 k
b100100110100101011 h
b1 T
b1 a
b1111111110000111111001000100110000001111 S
b1111111110000111111001000100110000001111 `
0U
b10 O
b10 ^
b101100100001001000100101011001 M
b101100100001001000100101011001 ]
0I
b11100100011010111111100111001 B
b11100100011010111111100111001 Z
1C
0D
b1111111110101110110101110010111001011101 G
b1111111110101110110101110010111001011101 [
b11 >
b11 W
1@
0=
b100000 A
b100000 Y
b1111111111111111111111111111111111101100101110010001101011011001 ?
b1111111111111111111111111111111111101100101110010001101011011001 X
b100100110100101011111101001001 <
b100100110100101011111101001001 V
#313200
1;
#316800
0;
#320000
19
b1100 j
b1000 k
b1111111110000110010100110110 h
b11 T
b11 a
b111100100101111100000001 S
b111100100101111100000001 `
1U
b1 K
b1 \
0J
b1 O
b1 ^
1N
b1111111111111111111111111111111110011000010011010101101000110000 M
b1111111111111111111111111111111110011000010011010101101000110000 ]
1I
b1011100011110001011000110111000 B
b1011100011110001011000110111000 Z
0C
1D
b100101001000110110010101001010 G
b100101001000110110010101001010 [
1F
1E
b1 >
b1 W
0@
1=
b11000101 A
b11000101 Y
b101100101010000001100101011001 ?
b101100101010000001100101011001 X
b1111111110000110010100110110001000001100 <
b1111111110000110010100110110001000001100 V
#320400
b1000 ;"
b1000000 :"
1;
#324000
0;
#327600
b1000 ;"
b1000000 :"
1;
#330000
09
b0 c
b0xxxxxxxxxxxxxxxxxxxxxxxxxxxxxxxx &"
b0 j
b1010 k
b1111111111000000011101100100 h
b0 T
b0 a
b1101010100111111011100111010101 S
b1101010100111111011100111010101 `
b10 K
b10 \
1L
1J
b0 O
b0 ^
0N
b1111111111111111111111111111111111110010100111000101111011100101 M
b1111111111111111111111111111111111110010100111000101111011100101 ]
0I
b1111111111001010101101000111110010010101 B
b1111111111001010101101000111110010010101 Z
1C
b1111100010000011010111111111000 G
b1111100010000011010111111111000 [
b110 >
b110 W
1@
0=
b1100001000111011001111111000010 ?
b1100001000111011001111111000010 X
b1111111111000000011101100100001010000000 <
b1111111111000000011101100100001010000000 V
#331200
0;
#334800
b1000 ;"
b1000000 :"
1;
#338400
0;
#340000
19
b110 c
b110000 j
b111 k
b1111000011000100111 h
b10 T
b10 a
b1111111111110010001101010110101011100100 S
b1111111111110010001101010110101011100100 `
0U
b1 K
b1 \
0L
b1 O
b1 ^
1N
b1001110010000011010100010011 M
b1001110010000011010100010011 ]
1P
1I
b100101000000101001101101001010 B
b100101000000101001101101001010 Z
1H
b1111111111010100101101011110011010101001 G
b1111111111010100101101011110011010101001 [
0F
0E
1=
b1111 A
b1111 Y
b1111111111111111111111111111111111010101011110000000000010101010 ?
b1111111111111111111111111111111111010101011110000000000010101010 X
b1111000011000100111000111110000 <
b1111000011000100111000111110000 V
#342000
09
b0 9"
0)
b110 ("
b100111001000001101010001001100000000000000000000000000000000011001001011010111100011110010010000000000000000000000000000000001100100101101011110001111001001111111111111111111111111111111111000111110001100011011100001111111111111111111111111111111111111110100001100101010001100101000011111111111111111111111111111111110010111010111001001110000101110 )"
b1000 ;"
b1000000 :"
1;
#345600
0;
#349200
19
b11 9"
10
02
b1111000011000100111000111000000 5
b1111000011000100111000111000000 ."
b0 ("
b1111000011000100111 +"
b111 *"
b1000 ;"
b1000000 :"
1;
#350000
b111 c
bx &"
b111101 j
b10001 k
b1111111110111110110110100100 h
b11 T
b11 a
b1100100010001100000010111001000 S
b1100100010001100000010111001000 `
1U
b11 K
b11 \
0Q
0J
b1111111111111111111111111111111110101000011011000101111001010000 M
b1111111111111111111111111111111110101000011011000101111001010000 ]
0P
0I
b1011110100110000011110110111101 B
b1011110100110000011110110111101 Z
0C
0D
0H
b1111111111100110100101101110100011001101 G
b1111111111100110100101101110100011001101 [
1F
1E
b1 >
b1 W
b11100101 A
b11100101 Y
b101100111011100101111101011001 ?
b101100111011100101111101011001 X
b1111111110111110110110100100010001111101 <
b1111111110111110110110100100010001111101 V
#352800
0;
#356400
1;
#360000
09
b1 c
b1110 j
b111000 k
b1111111110000111000011001110 h
0;
b0 T
b0 a
b1111010111101101010101111110101 S
b1111010111101101010101111110101 `
0U
b0 K
b0 \
1L
1Q
b0 O
b0 ^
0N
b100111000111000100001101001110 M
b100111000111000100001101001110 ]
1P
1I
b1011100101001001100000010 B
b1011100101001001100000010 Z
1C
1H
b1111010010011111011111111110100 G
b1111010010011111011111111110100 [
0@
0=
b1100 A
b1100 Y
b1111111111111111111111111111111110111001100001111001010001110011 ?
b1111111111111111111111111111111110111001100001111001010001110011 X
b1111111110000111000011001110111000001110 <
b1111111110000111000011001110111000001110 V
#363600
b100 9"
b0 )"
1)
00
1;
#367200
0;
#370000
19
b111 c
b0xxxxxxxxxxxxxxxx &"
b111011 j
b110101 k
b111101100000101011 h
b11 T
b11 a
b1111111110000011111110100110010000000111 S
b1111111110000011111110100110010000000111 `
b10 K
b10 \
0L
0Q
b10 O
b10 ^
b1111111111111111111111111111111110101110111010101100110001011101 M
b1111111111111111111111111111111110101110111010101100110001011101 ]
b100110101111110011111101001101 B
b100110101111110011111101001101 Z
0H
b1111111110011000011110110000100000110000 G
b1111111110011000011110110000100000110000 [
0F
b101 >
b101 W
1=
b100101 A
b100101 Y
b1111111111111111111111111111111110100000000001011010011001000000 ?
b1111111111111111111111111111111110100000000001011010011001000000 X
b111101100000101011110101111011 <
b111101100000101011110101111011 V
#370800
b1 ("
b1111111111111111111111111111111110101110111010101100110001011101 )"
1;
#374400
0;
#378000
b10 ("
b11111111111111111111111111111111101011101110101011001100010111011111111111111111111111111111111110101110111010101100110001011101 )"
1;
#380000
b10 c
b0xxxxxxxxxxxxxxxxxxxxxxxxxxxxxxxx &"
b10101 j
b10001 k
b1111111110101010110110100111 h
b10 T
b10 a
b1010010101101010011001110100101 S
b1010010101101010011001110100101 `
1U
b0 K
b0 \
1J
b1 O
b1 ^
1N
b1101100011010100110110111011000 M
b1101100011010100110110111011000 ]
0I
b1010101100001100001111110101011 B
b1010101100001100001111110101011 Z
b1111111111001000001110001111010010010000 G
b1111111111001000001110001111010010010000 [
0E
b110 >
b110 W
1@
b1000101 A
b1000101 Y
b1011011110100111101101110110111 ?
b1011011110100111101101110110111 X
b1111111110101010110110100111010001010101 <
b1111111110101010110110100111010001010101 V
#381600
0;
#385200
09
b0 9"
0)
b11 ("
b110110001101010011011011101100011111111111111111111111111111111101011101110101011001100010111011111111111111111111111111111111110101110111010101100110001011101 )"
1;
#388800
0;
#390000
b110 c
bx &"
b110011 j
b11 k
b1111111111111001100010111100 h
b11 T
b11 a
b1111111110010010111110010001001000100101 S
b1111111110010010111110010001001000100101 `
0U
b1 K
b1 \
1L
1Q
b10 O
b10 ^
0N
b1110101101011010111001111101011 M
b1110101101011010111001111101011 ]
1I
b110001100110110001100001100 B
b110001100110110001100001100 Z
0C
1D
b1010101000101011101000110101010 G
b1010101000101011101000110101010 [
1F
b10 >
b10 W
0@
0=
b11000100 A
b11000100 Y
b1111111111111111111111111111111110101100011110000010110001011000 ?
b1111111111111111111111111111111110101100011110000010110001011000 X
b1111111111111001100010111100000011110011 <
b1111111111111001100010111100000011110011 V
#392400
b1000 ;"
b1000000 :"
1;
#396000
0;
#399600
b1000 ;"
b1000000 :"
1;
#400000
b101 c
b0xxxxxxxx &"
b101011 j
b110110 k
b1010101110111011000 h
b1 T
b1 a
b1011010100111010011101110110101 S
b1011010100111010011101110110101 `
1U
0Q
0J
b11 O
b11 ^
1N
b1000110011001010011011110001100 M
b1000110011001010011011110001100 ]
0P
0I
b1111111111010101011111111110110010101010 B
b1111111111010101011111111110110010101010 Z
0D
1H
b11001011010100000001100110010 G
b11001011010100000001100110010 [
0F
1E
b100 >
b100 W
1=
b10000000 A
b10000000 Y
b1111111111111111111111111111111110001101100101001101001000011011 ?
b1111111111111111111111111111111110001101100101001101001000011011 X
b1010101110111011000110110101011 <
b1010101110111011000110110101011 V
#403200
0;
