interconnect/apb_bridge/tb_apb_bridge.vcd
$date
	Fri Jun  5 11:17:30 2026
$end
$version
	Icarus Verilog
$end
$timescale
	1ps
$end
$scope module tb_apb_bridge $end
$var wire 1 ! s_wready $end
$var wire 1 " s_rvalid $end
$var wire 1 # s_rresp $end
$var wire 1 $ s_rdata $end
$var wire 1 % s_bvalid $end
$var wire 1 & s_bresp $end
$var wire 1 ' s_awready $end
$var wire 1 ( s_arready $end
$var wire 1 ) pwrite $end
$var wire 1 * pwdata $end
$var wire 1 + pstrb $end
$var wire 1 , psel $end
$var wire 1 - penable $end
$var wire 1 . paddr $end
$var reg 1 / clk $end
$var reg 1 0 prdata $end
$var reg 1 1 pready $end
$var reg 1 2 pslverr $end
$var reg 1 3 rst_n $end
$var reg 1 4 s_araddr $end
$var reg 1 5 s_arvalid $end
$var reg 1 6 s_awaddr $end
$var reg 1 7 s_awvalid $end
$var reg 1 8 s_bready $end
$var reg 1 9 s_rready $end
$var reg 1 : s_wdata $end
$var reg 1 ; s_wstrb $end
$var reg 1 < s_wvalid $end
$scope module uut $end
$var wire 1 / clk $end
$var wire 32 = paddr [31:0] $end
$var wire 32 > prdata [31:0] $end
$var wire 1 1 pready $end
$var wire 1 , psel $end
$var wire 1 2 pslverr $end
$var wire 1 ) pwrite $end
$var wire 1 3 rst_n $end
$var wire 32 ? s_araddr [31:0] $end
$var wire 1 ( s_arready $end
$var wire 1 5 s_arvalid $end
$var wire 32 @ s_awaddr [31:0] $end
$var wire 1 ' s_awready $end
$var wire 1 7 s_awvalid $end
$var wire 1 8 s_bready $end
$var wire 2 A s_bresp [1:0] $end
$var wire 1 % s_bvalid $end
$var wire 32 B s_rdata [31:0] $end
$var wire 1 9 s_rready $end
$var wire 2 C s_rresp [1:0] $end
$var wire 1 " s_rvalid $end
$var wire 32 D s_wdata [31:0] $end
$var wire 1 ! s_wready $end
$var wire 4 E s_wstrb [3:0] $end
$var wire 1 < s_wvalid $end
$var wire 32 F pwdata [31:0] $end
$var wire 4 G pstrb [3:0] $end
$var wire 1 - penable $end
$var parameter 2 H ACCESS $end
$var parameter 32 I AW $end
$var parameter 32 J DW $end
$var parameter 2 K IDLE $end
$var parameter 2 L SETUP $end
$var reg 32 M addr_reg [31:0] $end
$var reg 1 N ar_accepted $end
$var reg 1 O aw_accepted $end
$var reg 2 P bresp_reg [1:0] $end
$var reg 1 Q bvalid_reg $end
$var reg 1 R is_write $end
$var reg 2 S next_state [1:0] $end
$var reg 32 T rdata_reg [31:0] $end
$var reg 2 U rresp_reg [1:0] $end
$var reg 1 V rvalid_reg $end
$var reg 2 W state [1:0] $end
$var reg 1 X w_accepted $end
$var reg 32 Y wdata_reg [31:0] $end
$var reg 4 Z wstrb_reg [3:0] $end
$upscope $end
$upscope $end
$enddefinitions $end
$comment Show the parameter values. $end
$dumpall
b1 L
b0 K
b100000 J
b100000 I
b10 H
$end
#0
$dumpvars
bx Z
bx Y
xX
bx W
xV
bx U
bx T
b0 S
xR
xQ
bx P
xO
xN
bx M
bx G
bx F
b0 E
b0 D
bx C
bx B
bx A
b0 @
b0 ?
b0 >
bx =
0<
0;
0:
09
08
07
06
05
04
x3
02
01
00
0/
x.
x-
x,
x+
x*
x)
x(
x'
x&
x%
x$
x#
x"
x!
$end
#3600
0,
0-
b0 W
1/
#7200
0/
#10000
1(
1!
1'
0$
0#
0&
0+
0*
0.
b0 B
b0 T
b0 C
b0 U
b0 A
b0 P
0"
0V
0%
0Q
0N
0X
0O
0)
0R
b0 G
b0 Z
b0 F
b0 Y
b0 =
b0 M
03
#10800
1/
#14400
0/
#18000
1/
#21600
0/
#25200
1/
#28800
0/
#32400
1/
#36000
0/
#39600
1/
#43200
0/
#46800
1/
#50400
0/
#54000
1/
#57600
0/
#61200
1/
#64800
0/
#68400
1/
#72000
0/
#75600
1/
#79200
0/
#82800
1/
#86400
0/
#90000
1/
#93600
0/
#97200
1/
#100800
0/
#104400
1/
#108000
0/
#110000
13
#111600
1/
#115200
0/
#118800
1/
#122400
0/
#126000
1/
#129600
0/
#133200
1/
#136800
0/
#140000
0'
0!
b1 S
12
b1 >
10
19
15
18
b1 E
1;
b1 D
1:
1<
b1 @
16
#140400
0(
b10 S
1,
1N
b1 W
1/
#144000
0/
#147600
1-
b10 W
1/
#150000
02
09
b1 ?
14
08
b0 D
0:
b0 @
06
17
#151200
0/
#154800
1/
#158400
0/
#160000
12
b0 >
00
b0 ?
04
18
b1 D
1:
0<
b1 @
16
07
#162000
1/
#165600
0/
#169200
1/
#170000
b0 S
02
11
b1 >
10
19
05
1<
#172800
0/
#176400
1'
1!
1(
1$
0,
b1 B
b1 T
1"
1V
0N
0-
b0 W
1/
#180000
0/
01
b0 >
00
b1 ?
14
08
b0 D
0:
0<
b0 @
06
#183600
0"
0V
1/
#187200
0/
#190000
0'
0!
b1 S
12
11
b1 >
10
09
b0 ?
04
15
18
b1 D
1:
1<
#190800
0(
b10 S
1,
1N
b1 W
1/
#194400
0/
#198000
b0 S
1-
b10 W
1/
#200000
02
19
b0 E
0;
#201600
0/
#205200
1(
b1 S
0,
1"
1V
0N
0-
b0 W
1/
#208800
0/
#210000
b1 S
0(
12
b0 >
00
09
b1 ?
14
08
b0 D
0:
0<
b1 @
16
17
#212400
b10 S
1,
1)
1R
b1 W
1/
#216000
0/
#219600
b0 S
1-
b10 W
1/
#220000
b10 S
02
01
b0 ?
04
18
b1 E
1;
1<
#223200
0/
#226800
1/
#230000
b1 >
10
19
b1 D
1:
b0 @
06
07
#230400
0/
#234000
0"
0V
1/
#237600
0/
#240000
b0 S
11
b0 >
00
09
0<
b1 @
16
17
#241200
b1 S
0,
0-
b0 W
1%
1Q
1/
#244800
0/
#248400
b10 S
1,
0%
0Q
b1 W
1/
#250000
b10 S
08
b0 E
0;
1<
b0 @
06
07
#252000
0/
#255600
b0 S
1-
b10 W
1/
#259200
0/
#260000
b10 S
12
01
b1 ?
14
18
b1 E
1;
0<
b1 @
16
#262800
1/
#266400
0/
#270000
1/
02
19
05
08
b0 E
0;
1<
b0 @
06
#273600
0/
#277200
1/
#280000
b0 ?
04
18
b0 D
0:
0<
b1 @
16
17
#280800
0/
#284400
1/
#288000
0/
#290000
08
b1 D
1:
1<
b0 @
06
#291600
1/
#295200
0/
#298800
1/
#300000
b0 S
12
11
09
b1 ?
14
15
18
b1 @
16
07
#302400
0/
#306000
1(
b1 S
0,
b10 A
b10 P
1%
1Q
0-
b0 W
1/
#309600
0/
#310000
1'
1!
b1 S
0(
b0 ?
04
05
b1 E
1;
b0 D
0:
17
#313200
0'
0!
1+
1.
b10 S
1,
b1 G
b1 Z
1X
b1 =
b1 M
1O
b1 W
0%
0Q
1/
#316800
0/
#320000
b10 S
01
19
b0 E
0;
b0 @
06
07
#320400
1-
b10 W
1/
#324000
0/
#327600
1/
#330000
02
0<
b1 @
16
17
#331200
0/
#334800
1/
#338400
0/
#340000
b0 S
12
11
b1 >
10
15
07
#342000
1(
b1 S
0,
0X
0O
0-
b0 W
1%
1Q
1/
#345600
0/
#349200
0(
0.
b10 S
1,
0%
0Q
0)
0R
b0 =
b0 M
1N
b1 W
1/
#350000
b10 S
02
09
08
b1 D
1:
1<
#352800
0/
#356400
b0 S
1-
b10 W
1/
#360000
b10 S
0/
12
01
b1 ?
14
b1 E
1;
b0 D
0:
0<
#363600
1/
#367200
0/
#370000
b0 S
02
11
19
b0 E
0;
1<
b0 @
06
#370800
1(
b1 S
0,
0N
0-
b0 W
1"
1V
1/
#374400
0/
#378000
0(
1.
b10 S
1,
0"
0V
b1 =
b1 M
1N
b1 W
1/
#380000
b10 S
12
09
b0 ?
04
05
b1 @
16
17
#381600
0/
#385200
b0 S
1-
b10 W
1/
#388800
0/
#390000
b0 S
19
b1 ?
14
15
18
b1 D
1:
#392400
b1 S
0,
b10 C
b10 U
1"
1V
0N
0-
b0 W
1/
#396000
0/
#399600
b10 S
1,
1)
1R
b1 W
0"
0V
1/
#400000
b10 S
02
01
09
b0 ?
04
05
08
b1 E
1;
0<
b0 @
06
#403200
0/
#406800
1-
b10 W
1/
#410000
b0 >
00
b1 ?
14
b0 D
0:
07
#410400
0/
#414000
1/
#417600
0/
#420000
b0 S
11
19
15
b1 D
1:
1<
b1 @
16
17
#421200
b1 S
0,
b0 A
b0 P
1%
1Q
0-
b0 W
1/
#424800
0/
#428400
b10 S
1,
b1 W
1/
#430000
b10 S
01
09
05
b0 D
0:
07
#432000
0/
#435600
1-
b10 W
1/
#439200
0/
#440000
b0 S
12
11
b1 >
10
19
15
18
b0 E
0;
b1 D
1:
17
#442800
b1 S
0,
0-
b0 W
b10 A
b10 P
1/
#446400
0/
#450000
0.
1,
0)
0R
b0 =
b0 M
1N
b1 W
b10 S
0(
1/
02
01
b0 >
00
09
b0 ?
04
08
0<
07
#453600
0/
#457200
1-
b10 W
1/
#460000
b1 >
10
b1 ?
14
05
b0 D
0:
b0 @
06
17
#460800
0/
#464400
1/
#468000
0/
#470000
b0 >
00
18
b1 D
1:
1<
#471600
0%
0Q
1/
#475200
0/
#478800
1/
#480000
b0 S
12
11
b1 >
10
b1 E
1;
b0 D
0:
#482400
0/
#486000
1'
1!
b1 S
0,
0N
0-
b0 W
1"
1V
1/
#489600
0/
#490000
0'
0!
b1 S
1(
02
b0 ?
04
15
b0 E
0;
b1 @
16
07
#493200
0(
b10 S
1,
1N
b1 W
1/
#496800
0/
#500000
b10 S
12
01
b0 >
00
19
05
b1 E
1;
0<
#500400
1-
b10 W
0"
0V
1/
#504000
0/
#507600
1/
#510000
b1 >
10
b1 ?
14
1<
b0 @
06
17
#511200
0/
#514800
1/
#518400
0/
#520000
b0 S
11
b0 >
00
09
08
0<
b1 @
16
#522000
1'
1!
0$
0,
b0 B
b0 T
1"
1V
0N
0-
b0 W
1/
#525600
0/
#529200
0'
1.
1)
1R
b1 =
b1 M
1O
1/
#530000
0!
b1 S
1(
01
b1 >
10
b0 ?
04
15
18
b1 D
1:
07
#532800
0/
#536400
0(
0.
b10 S
1,
b0 =
b0 M
1N
b1 W
1/
#540000
b10 S
0/
02
11
b0 >
00
b1 ?
14
b0 E
0;
b0 D
0:
1<
#543600
b0 S
1-
b10 W
1/
#547200
0/
#550000
12
b0 ?
04
b1 D
1:
#550800
1(
b1 S
0,
1%
1Q
0N
0O
0-
b0 W
1/
#554400
0/
#558000
0(
b10 S
1,
0)
0R
1N
b1 W
0%
0Q
1/
#560000
b10 S
b1 >
10
b1 ?
14
b1 E
1;
b0 D
0:
0<
b0 @
06
17
#561600
0/
#565200
b0 S
1-
b10 W
1/
#568800
0/
#570000
b0 S
b0 ?
04
05
b0 E
0;
b1 D
1:
1<
b1 @
16
#572400
1'
1!
b1 S
0,
1$
0N
0-
b0 W
b1 B
b1 T
1/
#576000
0/
#579600
0'
0!
0+
1*
1.
b10 S
1,
1)
1R
b0 G
b0 Z
b1 F
b1 Y
1X
b1 =
b1 M
1O
b1 W
1/
#580000
b10 S
02
01
b1 E
1;
#583200
0/
#586800
1-
b10 W
1/
#590000
12
b1 ?
14
15
08
b0 E
0;
b0 D
0:
07
#590400
0/
#594000
1/
#597600
0/
#600000
05
18
b1 E
1;
b1 D
1:
0<
b0 @
06
#601200
1/
#604800
0/
#608400
1/
#610000
b0 ?
04
15
b0 E
0;
b0 D
0:
17
#612000
0/
#615600
1/
#619200
0/
#620000
b0 S
11
b0 >
00
05
b1 E
1;
1<
b1 @
16
07
#622800
1'
1!
1(
0,
1%
1Q
0X
0O
0-
b0 W
1/
#626400
0/
#630000
0'
0!
0*
1,
b0 F
b0 Y
1X
1O
b1 W
b10 S
0(
1/
08
b0 E
0;
17
#633600
0/
#637200
b0 S
1-
b10 W
1/
#640000
b10 S
01
b1 E
1;
b1 D
1:
#640800
0/
#644400
1/
#648000
0/
#650000
b0 S
11
15
18
b0 D
0:
b0 @
06
#651600
b1 S
0,
0X
0O
0-
b0 W
1/
#655200
0/
#658800
b10 S
1,
b1 W
0%
0Q
1/
#660000
b10 S
01
19
05
08
b0 E
0;
0<
b1 @
16
07
#662400
0/
#666000
0"
0V
1-
b10 W
1/
#669600
0/
#670000
b0 S
02
11
b1 >
10
b1 ?
14
b1 E
1;
b1 D
1:
1<
b0 @
06
#673200
1'
1!
1(
0,
0-
b0 W
b0 A
b0 P
1%
1Q
1/
#676800
0/
#680000
b1 S
0(
12
01
b0 >
00
b0 ?
04
18
b0 E
0;
b1 @
16
17
#680400
0'
0!
1*
b10 S
1,
0%
0Q
b1 F
b1 Y
1X
1O
b1 W
1/
#684000
0/
#687600
1-
b10 W
1/
#690000
b0 S
11
09
b1 ?
14
15
08
b0 D
0:
0<
b0 @
06
07
#691200
0/
#694800
1(
b1 S
0,
b10 A
b10 P
1%
1Q
0X
0O
0-
b0 W
1/
#698400
0/
#700000
b1 S
0(
b0 ?
04
b1 E
1;
b1 D
1:
1<
b1 @
16
17
#702000
b10 S
1,
b1 W
1/
#705600
0/
#709200
b0 S
1-
b10 W
1/
#710000
b0 S
02
b1 >
10
19
05
b0 E
0;
07
#712800
0/
#716400
1'
1!
1(
0,
0-
b0 W
b0 A
b0 P
1/
#720000
0(
0/
12
01
b0 >
00
b0 D
0:
0<
b0 @
06
17
#723600
0'
0.
b0 =
b0 M
1O
1/
#727200
0/
#730000
b1 S
02
b1 >
10
b1 D
1:
1<
b1 @
16
#730800
0!
b10 S
1,
1X
b1 W
1/
#734400
0/
#738000
1-
b10 W
1/
#740000
b0 S
11
b0 >
00
b1 E
1;
#741600
0/
#745200
1'
1!
b1 S
0,
0X
0O
0-
b0 W
1/
#748800
0/
#750000
0'
0!
b1 S
1(
b1 >
10
09
b1 ?
14
15
b0 D
0:
0<
b0 @
06
07
#752400
0(
1.
b10 S
1,
0)
0R
b1 =
b1 M
1N
b1 W
1/
#756000
0/
#759600
b0 S
1-
b10 W
1/
#760000
b10 S
01
b0 >
00
b0 E
0;
b1 D
1:
1<
17
#763200
0/
#766800
1/
#770000
12
19
18
b0 D
0:
b1 @
16
#770400
0/
#774000
0%
0Q
1/
#777600
0/
#780000
02
05
b1 D
1:
0<
b0 @
06
#781200
1/
#784800
0/
#788400
1/
#790000
12
b0 ?
04
08
b1 E
1;
b0 D
0:
1<
07
#792000
0/
#795600
1/
#799200
0/
#800000
b1 ?
14
18
b1 D
1:
b1 @
16
#802800
1/
#806400
0/
#810000
1/
b1 >
10
09
#813600
0/
#817200
1/
#820000
b0 S
11
b0 ?
04
15
b0 E
0;
b0 D
0:
0<
b0 @
06
17
#820800
0/
#824400
b1 S
0,
1"
1V
0N
0-
b0 W
1/
#828000
0/
#830000
b1 S
01
08
b1 @
16
#831600
b10 S
1,
1)
1R
b1 W
1/
#835200
0/
#838800
1-
b10 W
1/
#840000
b0 S
02
11
b1 ?
14
05
1<
b0 @
06
07
#842400
0/
#846000
1'
1!
1(
0,
0-
b0 W
1%
1Q
1/
#849600
0/
#850000
0'
0!
b1 S
12
01
b0 >
00
19
b0 ?
04
15
18
b1 E
1;
b1 D
1:
0<
b1 @
16
#853200
0(
0.
b10 S
1,
0"
0V
0%
0Q
0)
0R
b0 =
b0 M
1N
b1 W
1/
#856800
0/
#860000
b10 S
02
11
b1 ?
14
17
#860400
b0 S
1-
b10 W
1/
#864000
0/
#867600
0$
b1 S
0,
b0 C
b0 U
b0 B
b0 T
1"
1V
0N
0-
b0 W
1/
#870000
b1 S
1(
12
01
09
b0 ?
04
08
b0 D
0:
1<
b0 @
06
07
#871200
0/
#874800
0(
b10 S
1,
1N
b1 W
1/
#878400
0/
#880000
b10 S
19
b1 ?
14
05
#882000
0"
0V
1-
b10 W
1/
#885600
0/
#889200
1/
#890000
b0 S
11
09
18
b1 D
1:
17
#892800
0/
#896400
1'
1!
b1 S
0,
b10 C
b10 U
1"
1V
0N
0-
b0 W
1/
#900000
0'
0!
b1 S
1(
0/
02
19
b0 ?
04
15
b0 D
0:
b1 @
16
07
#903600
0(
b10 S
1,
1N
b1 W
0"
0V
1/
#907200
0/
#910000
b10 S
b1 >
10
05
08
b0 E
0;
0<
b0 @
06
#910800
b0 S
1-
b10 W
1/
#914400
0/
#918000
1'
1!
1(
0,
1$
0N
0-
b0 W
b0 C
b0 U
b1 B
b1 T
1"
1V
1/
#920000
0'
0!
b1 S
12
b0 >
00
09
b1 ?
14
15
18
b1 D
1:
1<
#921600
0/
#925200
0(
1.
b10 S
1,
b1 =
b1 M
1N
b1 W
1/
#928800
0/
#930000
b10 S
01
b1 >
10
08
b1 E
1;
b0 D
0:
0<
#932400
1-
b10 W
1/
#936000
0/
#939600
1/
#940000
02
05
18
b1 D
1:
1<
17
#943200
0/
#946800
1/
#950000
b0 S
11
19
08
b0 D
0:
07
#950400
0/
#954000
1'
1!
1(
0,
0N
0-
b0 W
1/
#957600
0/
#960000
0'
0!
b1 S
0(
09
15
18
b0 E
0;
b1 @
16
17
#961200
b10 S
1,
1)
1R
b1 W
1/
#964800
0/
#968400
b0 S
1-
b10 W
1/
#970000
b10 S
01
b0 >
00
19
b0 ?
04
05
b1 E
1;
0<
07
#972000
0/
#975600
0"
0V
1/
#979200
0/
#980000
12
b1 >
10
09
b1 ?
14
b1 D
1:
1<
17
#982800
1/
#986400
0/
#990000
1/
b0 >
00
b0 E
0;
0<
07
#993600
0/
#997200
1/
#1000000
b1 >
10
19
b0 ?
04
15
b1 E
1;
1<
b0 @
06
#1000800
0/
#1004400
1/
#1008000
0/
#1010000
b0 S
11
09
b1 ?
14
05
b1 @
16
#1011600
1'
1!
1(
0,
b10 A
b10 P
1%
1Q
0-
b0 W
1/
#1015200
0/
#1018800
0!
1+
b1 G
b1 Z
1X
0%
0Q
1/
#1020000
b1 S
0(
02
b0 ?
04
b0 @
06
17
#1022400
0/
#1026000
0'
0.
b10 S
1,
b0 =
b0 M
1O
b1 W
1/
#1029600
0/
#1030000
b10 S
01
b0 >
00
b1 ?
14
08
07
#1033200
1-
b10 W
1/
#1036800
0/
#1040000
b0 S
12
11
b1 >
10
b0 ?
04
b0 E
0;
#1040400
1'
1!
1(
0,
1%
1Q
0X
0O
0-
b0 W
1/
#1044000
0/
#1047600
0!
0+
b0 G
b0 Z
1X
1/
#1050000
0'
b1 S
0(
02
19
b1 ?
14
15
b0 D
0:
0<
b1 @
16
17
#1051200
0/
#1054800
b10 S
1,
b1 W
1/
#1058400
0/
#1060000
b10 S
12
b0 ?
04
1<
b0 @
06
07
#1062000
b0 S
1-
b10 W
1/
#1065600
0/
#1069200
1(
b1 S
0,
0X
0-
b0 W
1/
#1070000
1'
1!
b0 S
01
b0 >
00
09
05
18
b1 E
1;
b1 D
1:
0<
#1072800
0/
#1076400
0%
0Q
1/
#1080000
0(
0/
11
b1 >
10
b1 ?
14
b0 E
0;
b0 D
0:
b1 @
16
17
#1083600
0'
1.
b1 =
b1 M
1O
1/
#1087200
0/
#1090000
0!
b1 S
02
b0 >
00
b0 ?
04
15
08
b1 D
1:
1<
b0 @
06
#1090800
b10 S
1,
b1 W
1/
#1094400
0/
#1098000
b0 S
1-
b10 W
1/
#1100000
b0 S
12
b1 >
10
b1 ?
14
05
18
b1 E
1;
0<
b1 @
16
07
#1101600
0/
#1105200
1'
1!
1(
0,
0O
0-
b0 W
1%
1Q
1/
#1108800
0/
#1110000
19
08
b0 E
0;
b0 D
0:
b0 @
06
#1112400
1/
#1116000
0/
#1119600
1/
#1120000
0'
0!
b1 S
0(
01
b0 ?
04
15
18
b1 E
1;
b1 @
16
17
#1123200
0/
#1126800
b10 S
1,
0%
0Q
b1 W
1/
#1130000
b10 S
02
b0 >
00
b1 ?
14
05
b0 E
0;
b1 D
1:
1<
07
#1130400
0/
#1134000
1-
b10 W
1/
#1137600
0/
#1140000
b0 S
11
09
b0 ?
04
15
08
b0 D
0:
0<
b0 @
06
17
#1141200
b1 S
0,
b0 A
b0 P
1%
1Q
0-
b0 W
1/
#1144800
0/
#1148400
b10 S
1,
b1 W
1/
#1150000
b10 S
12
b1 >
10
19
05
b1 D
1:
b1 @
16
#1152000
0/
#1155600
b0 S
1-
b10 W
1/
#1159200
0/
#1160000
b10 S
01
15
18
b1 E
1;
b0 D
0:
1<
b0 @
06
07
#1162800
0%
0Q
1/
#1166400
0/
#1170000
0,
1%
1Q
0-
b0 W
b1 S
1/
02
11
b0 >
00
b1 ?
14
08
b0 E
0;
b1 @
16
17
#1173600
0/
#1177200
b10 S
1,
b1 W
1/
#1180000
b10 S
b1 >
10
09
05
18
07
#1180800
0/
#1184400
b0 S
0%
0Q
1-
b10 W
1/
#1188000
0/
#1190000
b10 S
01
b0 ?
04
15
08
17
#1191600
1/
#1195200
0/
#1198800
1/
#1200000
12
19
05
b1 E
1;
b1 D
1:
0<
b0 @
06
#1202400
0/
#1206000
1/
#1209600
0/
#1210000
15
18
b0 D
0:
1<
#1213200
1/
#1216800
0/
#1220000
b0 S
11
b0 >
00
09
b1 ?
14
0<
b1 @
16
07
#1220400
1(
b1 S
0,
0-
b0 W
b10 A
b10 P
1%
1Q
1/
#1224000
0/
#1227600
0(
b10 S
1,
0%
0Q
0)
0R
1N
b1 W
1/
#1230000
b10 S
01
b1 >
10
19
08
b1 D
1:
b0 @
06
17
#1231200
0/
#1234800
1-
b10 W
1/
#1238400
0/
#1240000
02
b0 >
00
b0 ?
04
b0 E
0;
07
#1242000
1/
#1245600
0/
#1249200
1/
#1250000
b1 ?
14
05
18
b1 E
1;
b0 D
0:
17
#1252800
0/
#1256400
1/
#1260000
0/
12
b1 >
10
09
b0 E
0;
b1 D
1:
1<
#1263600
1/
#1267200
0/
#1270000
b0 S
02
11
b0 >
00
#1270800
1'
1!
0$
b1 S
0,
b0 B
b0 T
1"
1V
0N
0-
b0 W
1/
#1274400
0/
#1278000
0'
0!
0.
b10 S
1,
1)
1R
1X
b0 =
b0 M
1O
b1 W
1/
#1280000
b10 S
12
b0 ?
04
08
b0 D
0:
07
#1281600
0/
#1285200
b0 S
1-
b10 W
1/
#1288800
0/
#1290000
b10 S
02
01
b1 >
10
19
b1 ?
14
15
18
b1 D
1:
0<
17
#1292400
0"
0V
1/
#1296000
0/
#1299600
1/
#1300000
b0 S
12
11
b0 >
00
09
b0 ?
04
b1 E
1;
07
#1303200
0/
#1306800
1(
b1 S
0,
0X
0O
0-
b0 W
1%
1Q
1/
#1310000
1'
1!
b1 S
0(
02
01
05
08
b0 D
0:
1<
17
#1310400
0/
#1314000
0'
0!
1+
0*
b10 S
1,
b1 G
b1 Z
b0 F
b0 Y
1X
1O
b1 W
1/
#1317600
0/
#1320000
b10 S
12
11
b1 ?
14
15
18
b1 D
1:
0<
07
#1321200
b0 S
1-
b10 W
0%
0Q
1/
#1324800
0/
#1328400
1(
b1 S
0,
1%
1Q
0X
0O
0-
b0 W
1/
#1330000
b0 S
1'
1!
02
b1 >
10
19
b0 ?
04
05
08
b0 E
0;
b1 @
16
#1332000
0/
#1335600
1/
#1339200
0/
#1340000
0(
12
01
b0 >
00
b1 ?
14
17
#1342800
0'
1.
b1 =
b1 M
1O
1/
#1346400
0/
#1350000
0!
0+
1*
1,
b0 G
b0 Z
b1 F
b1 Y
1X
b1 W
b10 S
1/
02
11
1<
#1353600
0/
#1357200
b0 S
1-
b10 W
1/
#1360000
b10 S
12
01
b1 >
10
09
b0 ?
04
b1 E
1;
b0 D
0:
#1360800
0/
#1364400
1/
#1368000
0/
#1370000
b0 S
02
11
b1 ?
14
18
0<
b0 @
06
#1371600
1'
1!
0,
b0 A
b0 P
0X
0O
0-
b0 W
1/
#1375200
0/
#1378800
0'
0.
b0 =
b0 M
1O
0%
0Q
1/
#1380000
0!
b1 S
12
15
1<
b1 @
16
#1382400
0/
#1386000
b10 S
1,
b1 W
1/
#1389600
0/
#1390000
b10 S
02
05
b1 D
1:
0<
#1393200
b0 S
1-
b10 W
1/
#1396800
0/
#1400000
b0 E
0;
b0 D
0:
b0 @
06
#1400400
1'
1!
0,
1%
1Q
0O
0-
b0 W
1/
#1404000
0/
#1407600
0'
1O
0%
0Q
1/
#1410000
0!
b1 S
1(
12
01
19
b0 ?
04
15
b1 E
1;
b1 D
1:
b1 @
16
07
#1411200
0/
#1414800
0(
b10 S
1,
1N
b1 W
1/
#1418400
0/
#1420000
b10 S
02
b0 >
00
05
b0 D
0:
1<
#1422000
1-
b10 W
1/
#1425600
0/
#1429200
1/
#1430000
b0 S
11
09
15
08
b0 E
0;
b1 D
1:
#1432800
0/
#1436400
1(
b1 S
0,
0N
0O
0-
b0 W
1%
1Q
1/
#1440000
1'
1!
b0 S
0/
b1 >
10
19
b1 ?
14
05
18
b0 D
0:
0<
#1443600
0%
0Q
1/
#1447200
0/
#1450000
12
09
08
b1 E
1;
1<
#1450800
0!
1+
0*
b1 G
b1 Z
b0 F
b0 Y
1X
1/
#1454400
0/
#1458000
1/
#1460000
0'
b1 S
0(
b0 >
00
19
b0 ?
04
15
17
#1461600
0/
#1465200
b10 S
1,
b1 W
1/
#1468800
0/
#1470000
b10 S
02
b1 >
10
05
b0 @
06
#1472400
b0 S
1-
b10 W
1/
#1476000
0/
#1479600
1'
1!
b1 S
0,
0X
0-
b0 W
1%
1Q
1/
#1480000
b0 S
01
09
b1 ?
14
b1 D
1:
0<
#1483200
0/
#1486800
0'
1O
1/
#1490000
0!
b1 S
b0 ?
04
15
1<
b1 @
16
#1490400
0/
#1494000
b10 S
1,
b1 W
1/
#1497600
0/
#1500000
b10 S
12
11
b0 >
00
19
b1 ?
14
05
18
b0 E
0;
b0 D
0:
0<
#1501200
b0 S
0%
0Q
1-
b10 W
1/
#1504800
0/
#1508400
1'
1!
0,
0O
0-
b0 W
b10 A
b10 P
1%
1Q
1/
#1510000
0'
0!
b1 S
1(
01
b1 >
10
09
15
08
b1 D
1:
1<
07
#1512000
0/
#1515600
0(
1.
b10 S
1,
0)
0R
b1 =
b1 M
1N
b1 W
1/
#1519200
0/
#1520000
b10 S
02
11
19
b0 D
0:
17
#1522800
b0 S
1-
b10 W
1/
#1526400
0/
#1530000
1(
1$
0,
b1 B
b1 T
1"
1V
0N
0-
b0 W
b1 S
1/
09
b0 ?
04
b1 D
1:
0<
b0 @
06
07
#1533600
0/
#1537200
0(
0.
b10 S
1,
b0 =
b0 M
1N
b1 W
1/
#1540000
b10 S
12
01
b0 >
00
05
b1 E
1;
b0 D
0:
1<
17
#1540800
0/
#1544400
1-
b10 W
1/
#1548000
0/
#1550000
19
b1 ?
14
0<
b1 @
16
07
#1551600
0"
0V
1/
#1555200
0/
#1558800
1/
#1560000
b0 S
02
11
b1 >
10
09
b0 ?
04
b0 E
0;
b1 D
1:
b0 @
06
#1562400
0/
#1566000
1'
1!
1(
0,
0N
0-
b0 W
1"
1V
1/
#1569600
0/
#1570000
0(
b0 D
0:
b1 @
16
17
#1573200
0'
1.
1)
1R
b1 =
b1 M
1O
1/
#1576800
0/
#1580000
b1 S
1(
12
01
b1 E
1;
b1 D
1:
1<
07
#1580400
0!
0(
1*
b10 S
1,
b1 F
b1 Y
1X
b1 W
1/
#1584000
0/
#1587600
1-
b10 W
1/
#1590000
b0 S
11
b1 ?
14
18
#1591200
0/
#1594800
1'
1!
1(
0,
0X
0O
0-
b0 W
1/
#1598400
0/
#1600000
b1 S
0'
0!
02
b0 ?
04
15
b0 E
0;
b0 @
06
#1602000
0(
0.
b10 S
1,
0%
0Q
0)
0R
b0 =
b0 M
1N
b1 W
1/
#1605600
0/
#1609200
b0 S
1-
b10 W
1/
#1610000
b0 S
12
19
0<
b1 @
16
#1612800
0/
#1616400
1(
b1 S
0,
b10 C
b10 U
0N
0-
b0 W
1/
#1620000
b1 S
0(
0/
b0 >
00
b1 ?
14
b1 E
1;
b0 D
0:
1<
17
#1623600
b10 S
1,
1)
1R
b1 W
0"
0V
1/
#1627200
0/
#1630000
b10 S
02
05
0<
#1630800
b0 S
1-
b10 W
1/
#1634400
0/
#1638000
1'
1!
0,
0-
b0 W
b0 A
b0 P
1%
1Q
1/
#1640000
b1 S
12
01
09
b0 ?
04
08
b0 E
0;
1<
b0 @
06
#1641600
0/
#1645200
0'
0!
0+
0*
b10 S
1,
b0 G
b0 Z
b0 F
b0 Y
1X
1O
b1 W
1/
#1648800
0/
#1650000
b10 S
02
19
b1 ?
14
15
18
#1652400
1-
b10 W
0%
0Q
1/
#1656000
0/
#1659600
1/
#1660000
b0 S
12
11
b0 ?
04
08
b1 @
16
#1663200
0/
#1666800
b1 S
0,
0X
0O
0-
b0 W
b10 A
b10 P
1%
1Q
1/
#1670000
1'
1!
b0 S
1(
02
09
05
18
b1 E
1;
07
#1670400
0/
#1674000
0!
1+
0%
0Q
b1 G
b1 Z
1X
1/
#1677600
0/
#1680000
0'
b1 S
12
19
b1 ?
14
15
08
b0 E
0;
0<
b0 @
06
#1681200
0(
1.
b10 S
1,
0)
0R
b1 =
b1 M
1N
b1 W
1/
#1684800
0/
#1688400
b0 S
1-
b10 W
1/
#1690000
b10 S
02
01
b0 ?
04
05
1<
#1692000
0/
#1695600
1/
#1699200
0/
#1700000
b0 S
11
b1 ?
14
15
18
b1 E
1;
b1 D
1:
b1 @
16
17
#1702800
0$
b1 S
0,
b0 C
b0 U
b0 B
b0 T
1"
1V
0N
0X
0-
b0 W
1/
#1706400
0/
#1710000
0.
1,
b0 =
b0 M
1N
b1 W
b10 S
0(
1/
01
b1 >
10
09
b0 ?
04
08
b0 E
0;
07
#1713600
0/
#1717200
1-
b10 W
1/
#1720000
b0 S
12
11
b0 >
00
19
05
18
b1 E
1;
0<
b0 @
06
#1720800
0/
#1724400
1'
1!
1(
0,
0N
0-
b0 W
b10 C
b10 U
1/
#1728000
0/
#1730000
b1 S
0(
b1 >
10
08
b0 E
0;
b0 D
0:
1<
17
