backend/plic/tb_plic.vcd
$date
	Fri Jun  5 19:20:59 2026
$end
$version
	Icarus Verilog
$end
$timescale
	1ps
$end
$scope module tb_plic $end
$var wire 1 ! pready $end
$var wire 32 " prdata [31:0] $end
$var wire 10 # irq_targets [9:0] $end
$var reg 1 $ clk $end
$var reg 186 % interrupt_sources [185:0] $end
$var reg 24 & paddr [23:0] $end
$var reg 1 ' penable $end
$var reg 1 ( psel $end
$var reg 32 ) pwdata [31:0] $end
$var reg 1 * pwrite $end
$var reg 1 + rst_n $end
$scope module uut $end
$var wire 1 $ clk $end
$var wire 186 , interrupt_sources [185:0] $end
$var wire 24 - paddr [23:0] $end
$var wire 1 ' penable $end
$var wire 1 ! pready $end
$var wire 1 ( psel $end
$var wire 32 . pwdata [31:0] $end
$var wire 1 * pwrite $end
$var wire 1 + rst_n $end
$var parameter 32 / NUM_SOURCES $end
$var parameter 32 0 NUM_TARGETS $end
$var reg 10 1 irq_targets [9:0] $end
$var reg 186 2 pending [185:0] $end
$var reg 32 3 prdata [31:0] $end
$var integer 32 4 i [31:0] $end
$var integer 32 5 j [31:0] $end
$var integer 32 6 k [31:0] $end
$upscope $end
$upscope $end
$enddefinitions $end
$comment Show the parameter values. $end
$dumpall
b1010 0
b10111010 /
$end
#0
$dumpvars
bx 6
bx 5
bx 4
bx 3
bx 2
bx 1
b0 .
b0 -
b0 ,
x+
0*
b0 )
0(
0'
b0 &
b0 %
0$
bx #
bx "
1!
$end
#3600
b10111010 4
1$
#7200
0$
#10000
b0 #
b0 1
b10111010 6
b1010 5
b0 "
b0 3
b0 2
b1010 4
0+
#10800
b1010 4
1$
#14400
0$
#18000
b1010 4
1$
#21600
0$
#25200
b1010 4
1$
#28800
0$
#32400
b1010 4
1$
#36000
0$
#39600
b1010 4
1$
#43200
0$
#46800
b1010 4
1$
#50400
0$
#54000
b1010 4
1$
#57600
0$
#61200
b1010 4
1$
#64800
0$
#68400
b1010 4
1$
#72000
0$
#75600
b1010 4
1$
#79200
0$
#82800
b1010 4
1$
#86400
0$
#90000
b1010 4
1$
#93600
0$
#97200
b1010 4
1$
#100800
0$
#104400
b1010 4
1$
#108000
0$
#110000
1+
#111600
b10111010 4
1$
#115200
0$
#118800
b10111010 4
1$
#122400
0$
#126000
b10111010 4
1$
#129600
0$
#133200
b10111010 4
1$
#136800
0$
#140000
b1000110110111111001100110001101 )
b1000110110111111001100110001101 .
b101110010111101100001101 &
b101110010111101100001101 -
1*
1'
1(
b10010000101010011010100100100 %
b10010000101010011010100100100 ,
#140400
b10111010 6
b1010 5
b10010000101010011010100100100 2
b10111010 4
1$
#144000
0$
#147600
b10111010 4
1$
#150000
b11110100011011100110100111101 )
b11110100011011100110100111101 .
b1000111111000101110110 &
b1000111111000101110110 -
0(
b111111111111111111111111111111111111111111111111111111111111111111111111111111111111111111111111111111111111111111111111111111111111111111111111111111111110110010110000101000010001100101 %
b111111111111111111111111111111111111111111111111111111111111111111111111111111111111111111111111111111111111111111111111111111111111111111111111111111111110110010110000101000010001100101 ,
#151200
0$
#154800
b10111010 6
b1010 5
b111111111111111111111111111111111111111111111111111111111111111111111111111111111111111111111111111111111111111111111111111111111111111111111111111111111110110010110101111011010101100101 2
b10111010 4
1$
#158400
0$
#160000
b11010101000100111101001010101010 )
b11010101000100111101001010101010 .
b111101111000010011000101 &
b111101111000010011000101 -
0*
b1110110110101000101011111101101 %
b1110110110101000101011111101101 ,
#162000
b10111010 6
b1010 5
b111111111111111111111111111111111111111111111111111111111111111111111111111111111111111111111111111111111111111111111111111111111111111111111111111111111111110110110101111111011111101101 2
b10111010 4
1$
#165600
0$
#169200
b10111010 4
1$
#170000
b11100111011101101001011011001110 )
b11100111011101101001011011001110 .
b1100000110100111110010 &
b1100000110100111110010 -
1*
0'
1(
b1110010101011111111011111100101 %
b1110010101011111111011111100101 ,
#172800
0$
#176400
b10111010 6
b1010 5
b111111111111111111111111111111111111111111111111111111111111111111111111111111111111111111111111111111111111111111111111111111111111111111111111111111111111110110111111111111011111101101 2
b10111010 4
1$
#180000
0$
b10110010101001110010011001100101 )
b10110010101001110010011001100101 .
b101010110101100000101101 &
b101010110101100000101101 -
b111111111111111111111111111111111111111111111111111111111111111111111111111111111111111111111111111111111111111111111111111111111111111111111111111111111111110100000000000111101011101000 %
b111111111111111111111111111111111111111111111111111111111111111111111111111111111111111111111111111111111111111111111111111111111111111111111111111111111111110100000000000111101011101000 ,
#183600
b10111010 6
b1010 5
b111111111111111111111111111111111111111111111111111111111111111111111111111111111111111111111111111111111111111111111111111111111111111111111111111111111111110110111111111111111111101101 2
b10111010 4
1$
#187200
0$
#190000
b11001110110011001100110010011101 )
b11001110110011001100110010011101 .
b11110000100010110101010 &
b11110000100010110101010 -
0*
0(
b111111111111111111111111111111111111111111111111111111111111111111111111111111111111111111111111111111111111111111111111111111111111111111111111111111111110110001111011110110001001100011 %
b111111111111111111111111111111111111111111111111111111111111111111111111111111111111111111111111111111111111111111111111111111111111111111111111111111111110110001111011110110001001100011 ,
#190800
b10111010 6
b1010 5
b111111111111111111111111111111111111111111111111111111111111111111111111111111111111111111111111111111111111111111111111111111111111111111111111111111111111110111111111111111111111101111 2
b10111010 4
1$
#194400
0$
#198000
b10111010 4
1$
#200000
b11101010101001100010101011010101 )
b11101010101001100010101011010101 .
b100111111101110101101011 &
b100111111101110101101011 -
1*
1'
1(
b111111111111111111111111111111111111111111111111111111111111111111111111111111111111111111111111111111111111111111111111111111111111111111111111111111111111001011001000000011111010010110 %
b111111111111111111111111111111111111111111111111111111111111111111111111111111111111111111111111111111111111111111111111111111111111111111111111111111111111001011001000000011111010010110 ,
#201600
0$
#205200
b10111010 6
b1010 5
b111111111111111111111111111111111111111111111111111111111111111111111111111111111111111111111111111111111111111111111111111111111111111111111111111111111111111111111111111111111111111111 2
b10111010 4
1$
#208800
0$
#210000
b101000010010110010100001010 )
b101000010010110010100001010 .
b100001000100100100100011 &
b100001000100100100100011 -
0(
b111111111111111111111111111111111111111111111111111111111111111111111111111111111111111111111111111111111111111111111111111111111111111111111111111111111110000001000101110100101000000010 %
b111111111111111111111111111111111111111111111111111111111111111111111111111111111111111111111111111111111111111111111111111111111111111111111111111111111110000001000101110100101000000010 ,
#212400
b10111010 4
1$
#216000
0$
#219600
b10111010 4
1$
#220000
b11101100010010110011010011011000 )
b11101100010010110011010011011000 .
b110001001011001101000001 &
b110001001011001101000001 -
0*
0'
b111111111111111111111111111111111111111111111111111111111111111111111111111111111111111111111111111111111111111111111111111111111111111111111111111111111111100101011100110000101011001010 %
b111111111111111111111111111111111111111111111111111111111111111111111111111111111111111111111111111111111111111111111111111111111111111111111111111111111111100101011100110000101011001010 ,
#223200
0$
#226800
b10111010 4
1$
#230000
b1010111000101010001001110101110 )
b1010111000101010001001110101110 .
b10010111111100111000110 &
b10010111111100111000110 -
1'
1(
b111100001000001111001101111000 %
b111100001000001111001101111000 ,
#230400
0$
#234000
b10111010 4
1$
#237600
0$
#240000
b100111111100100101010101001111 )
b100111111100100101010101001111 .
b111100100100000110000101 &
b111100100100000110000101 -
1*
0(
b111111111111111111111111111111111111111111111111111111111111111111111111111111111111111111111111111111111111111111111111111111111111111111111111111111111111011110011101010000001010111100 %
b111111111111111111111111111111111111111111111111111111111111111111111111111111111111111111111111111111111111111111111111111111111111111111111111111111111111011110011101010000001010111100 ,
#241200
b10111010 4
1$
#244800
0$
#248400
b10111010 4
1$
#250000
b1101100100111000100101111011001 )
b1101100100111000100101111011001 .
b110110011001101111110001 &
b110110011001101111110001 -
0'
b111111111111111111111111111111111111111111111111111111111111111111111111111111111111111111111111111111111111111111111111111111111111111111111111111111111110011101110011000110000000111011 %
b111111111111111111111111111111111111111111111111111111111111111111111111111111111111111111111111111111111111111111111111111111111111111111111111111111111110011101110011000110000000111011 ,
#252000
0$
#255600
b10111010 4
1$
#259200
0$
#260000
b11011011110011010110000010110111 )
b11011011110011010110000010110111 .
b11011011010100111111000 &
b11011011010100111111000 -
1'
b110001001000110000011101100010 %
b110001001000110000011101100010 ,
#262800
b10111010 4
1$
#266400
0$
#270000
b10111010 4
1$
b11101000001000110011111011010000 )
b11101000001000110011111011010000 .
b101011100011001001001001 &
b101011100011001001001001 -
b111111111111111111111111111111111111111111111111111111111111111111111111111111111111111111111111111111111111111111111111111111111111111111111111111111111111001111110001000101011010011111 %
b111111111111111111111111111111111111111111111111111111111111111111111111111111111111111111111111111111111111111111111111111111111111111111111111111111111111001111110001000101011010011111 ,
#273600
0$
#277200
b10111010 4
1$
#280000
b1100100010101111110110111001000 )
b1100100010101111110110111001000 .
b1011001100111011000010 &
b1011001100111011000010 -
0*
0'
1(
b111111111111111111111111111111111111111111111111111111111111111111111111111111111111111111111111111111111111111111111111111111111111111111111111111111111111101011111111101100000011010111 %
b111111111111111111111111111111111111111111111111111111111111111111111111111111111111111111111111111111111111111111111111111111111111111111111111111111111111101011111111101100000011010111 ,
#280800
0$
#284400
b10111010 4
1$
#288000
0$
#290000
b11100110110011110011100111001 )
b11100110110011110011100111001 .
b111001011000000101101101 &
b111001011000000101101101 -
b111111111111111111111111111111111111111111111111111111111111111111111111111111111111111111111111111111111111111111111111111111111111111111111111111111111110111011100000100101101001110111 %
b111111111111111111111111111111111111111111111111111111111111111111111111111111111111111111111111111111111111111111111111111111111111111111111111111111111110111011100000100101101001110111 ,
#291600
b10111010 4
1$
#295200
0$
#298800
b10111010 4
1$
#300000
b100100100010110100101101001001 )
b100100100010110100101101001001 .
b110110100101100101011011 &
b110110100101100101011011 -
1'
b1111110100101000111100011111 %
b1111110100101000111100011111 ,
#302400
0$
#306000
b10111010 4
1$
#309600
0$
#310000
b11001110001011111111001010011100 )
b11001110001011111111001010011100 .
b110100000110010001110 &
b110100000110010001110 -
0'
0(
b111111111111111111111111111111111111111111111111111111111111111111111111111111111111111111111111111111111111111111111111111111111111111111111111111111111110011111111100101010111000111111 %
b111111111111111111111111111111111111111111111111111111111111111111111111111111111111111111111111111111111111111111111111111111111111111111111111111111111110011111111100101010111000111111 ,
#313200
b10111010 4
1$
#316800
0$
#320000
b11011001110100101001001010110011 )
b11011001110100101001001010110011 .
b100110011010100000101111 &
b100110011010100000101111 -
1*
1'
b1111101001101011001100111111010 %
b1111101001101011001100111111010 ,
#320400
b10111010 4
1$
#324000
0$
#327600
b10111010 4
1$
#330000
b101101001010001101101101011010 )
b101101001010001101101101011010 .
b10010001101011100110 &
b10010001101011100110 -
b111111111111111111111111111111111111111111111111111111111111111111111111111111111111111111111111111111111111111111111111111111111111111111111111111111111110101111110110000101011001011111 %
b111111111111111111111111111111111111111111111111111111111111111111111111111111111111111111111111111111111111111111111111111111111111111111111111111111111110101111110110000101011001011111 ,
#331200
0$
#334800
b10111010 4
1$
#338400
0$
#340000
b11101111101111101001010011011111 )
b11101111101111101001010011011111 .
b100010101110001010110101 &
b100010101110001010110101 -
0'
1(
b10100110011111100000100101001 %
b10100110011111100000100101001 ,
#342000
b10111010 4
1$
#345600
0$
#349200
b10111010 4
1$
#350000
b111011011111100111100001110 )
b111011011111100111100001110 .
b111101101010110110101011 &
b111101101010110110101011 -
0*
0(
b111100111100010001100101111001 %
b111100111100010001100101111001 ,
#352800
0$
#356400
b10111010 4
1$
#360000
0$
b100111011110011110100101001110 )
b100111011110011110100101001110 .
b11101110110101010110 &
b11101110110101010110 -
1*
1'
b1101110010111011010110111011100 %
b1101110010111011010110111011100 ,
#363600
b10111010 4
1$
#367200
0$
#370000
b11011100001010111100010010111000 )
b11011100001010111100010010111000 .
b110100011000011101111001 &
b110100011000011101111001 -
0*
0'
b111111111111111111111111111111111111111111111111111111111111111111111111111111111111111111111111111111111111111111111111111111111111111111111111111111111110110011110110010111011001100111 %
b111111111111111111111111111111111111111111111111111111111111111111111111111111111111111111111111111111111111111111111111111111111111111111111111111111111110110011110110010111011001100111 ,
#370800
b10111010 4
1$
#374400
0$
#378000
b10111010 4
1$
#380000
b10100110111111001101111001001101 )
b10100110111111001101111001001101 .
b110010110110100111011011 &
b110010110110100111011011 -
1*
1(
b1001010011101001011111110010100 %
b1001010011101001011111110010100 ,
#381600
0$
#385200
b10111010 4
1$
#388800
0$
#390000
b1001010100100110111000110010101 )
b1001010100100110111000110010101 .
b101110010110110110110 &
b101110010110110110110 -
0*
b1101100101100001011011111011001 %
b1101100101100001011011111011001 ,
#392400
b10111010 4
1$
#396000
0$
#399600
b10111010 4
1$
#400000
b1000100000000011000110110001000 )
b1000100000000011000110110001000 .
b11011101011101010110100 &
b11011101011101010110100 -
1*
1'
0(
b111111111111111111111111111111111111111111111111111111111111111111111111111111111111111111111111111111111111111111111111111111111111111111111111111111111110100011000001110001101001000110 %
b111111111111111111111111111111111111111111111111111111111111111111111111111111111111111111111111111111111111111111111111111111111111111111111111111111111110100011000001110001101001000110 ,
#403200
0$
#406800
b10111010 4
1$
#410000
b1110010000010100010100011100 )
b1110010000010100010100011100 .
b11101111110010000001000 &
b11101111110010000001000 -
0*
1(
b10100011111001101100100101000 %
b10100011111001101100100101000 ,
#410400
0$
#414000
b10111010 4
1$
#417600
0$
#420000
b10011110101101111100011000111101 )
b10011110101101111100011000111101 .
b1101000000100011011010 &
b1101000000100011011010 -
0'
b111111111111111111111111111111111111111111111111111111111111111111111111111111111111111111111111111111111111111111111111111111111111111111111111111111111111111110101001111010011011111101 %
b111111111111111111111111111111111111111111111111111111111111111111111111111111111111111111111111111111111111111111111111111111111111111111111111111111111111111110101001111010011011111101 ,
#421200
b10111010 4
1$
#424800
0$
#428400
b10111010 4
1$
#430000
b1111101010001110111100111111010 )
b1111101010001110111100111111010 .
b1110101011001101011110 &
b1110101011001101011110 -
1'
0(
b110011010011101010011101100110 %
b110011010011101010011101100110 ,
#432000
0$
#435600
b10111010 4
1$
#439200
0$
#440000
b1100000001110010010000111000000 )
b1100000001110010010000111000000 .
b1001110011011110010110 &
b1001110011011110010110 -
1*
b1101010100011100000010111010101 %
b1101010100011100000010111010101 ,
#442800
b10111010 4
1$
#446400
0$
#450000
b10111010 4
1$
b111100000000111111111101111000 )
b111100000000111111111101111000 .
b11000010101011110000110 &
b11000010101011110000110 -
0*
b10011001001011001111100100110 %
b10011001001011001111100100110 ,
#453600
0$
#457200
b10111010 4
1$
#460000
b10110000101111001110111001100001 )
b10110000101111001110111001100001 .
b1010001110010011111010 &
b1010001110010011111010 -
1*
1(
b111111010110101001101101111110 %
b111111010110101001101101111110 ,
#460800
0$
#464400
b10111010 4
1$
#468000
0$
#470000
b10011010101101001000100000110101 )
b10011010101101001000100000110101 .
b100011000101100111110101 &
b100011000101100111110101 -
0*
0'
b1011100101000000100100010111 %
b1011100101000000100100010111 ,
#471600
b10111010 4
1$
#475200
0$
#478800
b10111010 4
1$
#480000
b10111001100011000100001001110011 )
b10111001100011000100001001110011 .
b101100100111101101001011 &
b101100100111101101001011 -
1'
b111111111111111111111111111111111111111111111111111111111111111111111111111111111111111111111111111111111111111111111111111111111111111111111111111111111110010100100110101000101000101001 %
b111111111111111111111111111111111111111111111111111111111111111111111111111111111111111111111111111111111111111111111111111111111111111111111111111111111110010100100110101000101000101001 ,
#482400
0$
#486000
b10111010 4
1$
#489600
0$
#490000
b11010000110010101000110010100001 )
b11010000110010101000110010100001 .
b100111101111110110101001 &
b100111101111110110101001 -
0'
0(
b111111111111111111111111111111111111111111111111111111111111111111111111111111111111111111111111111111111111111111111111111111111111111111111111111111111111110110001000101110011011101100 %
b111111111111111111111111111111111111111111111111111111111111111111111111111111111111111111111111111111111111111111111111111111111111111111111111111111111111110110001000101110011011101100 ,
#493200
b10111010 4
1$
#496800
0$
#500000
b11000110101101011111010010001101 )
b11000110101101011111010010001101 .
b10110100001110100101010 &
b10110100001110100101010 -
1'
b111000010111011100100001110 %
b111000010111011100100001110 ,
#500400
b10111010 4
1$
#504000
0$
#507600
b10111010 4
1$
#510000
b1001111111110100000100010011 )
b1001111111110100000100010011 .
b1000110100010111001010 &
b1000110100010111001010 -
b1001111011101011111111110011110 %
b1001111011101011111111110011110 ,
#511200
0$
#514800
b10111010 4
1$
#518400
0$
#520000
b1011100100000101001010110111001 )
b1011100100000101001010110111001 .
b101101010101111000100 &
b101101010101111000100 -
0'
1(
b110101101000001100100101101011 %
b110101101000001100100101101011 ,
#522000
b10111010 4
1$
#525600
0$
#529200
b10111010 4
1$
#530000
b11111001001001111001010011110010 )
b11111001001001111001010011110010 .
b11011011111010111111010 &
b11011011111010111111010 -
1'
0(
b1001001001011111101001110010010 %
b1001001001011111101001110010010 ,
#532800
0$
#536400
b10111010 4
1$
#540000
0$
b1010100101010000111100110101001 )
b1010100101010000111100110101001 .
b10000111100111111001010 &
b10000111100111111001010 -
0'
1(
b11001010001010010000100110010 %
b11001010001010010000100110010 ,
#543600
b10111010 4
1$
#547200
0$
#550000
b1100100110010000011110111001001 )
b1100100110010000011110111001001 .
b100000101001000011101111 &
b100000101001000011101111 -
1*
1'
0(
b111111111111111111111111111111111111111111111111111111111111111111111111111111111111111111111111111111111111111111111111111111111111111111111111111111111111010000100101011010100010100001 %
b111111111111111111111111111111111111111111111111111111111111111111111111111111111111111111111111111111111111111111111111111111111111111111111111111111111111010000100101011010100010100001 ,
#550800
b10111010 4
1$
#554400
0$
#558000
b10111010 4
1$
#560000
b11010111001111111011010010101110 )
b11010111001111111011010010101110 .
b11001011110011110001000 &
b11001011110011110001000 -
1(
b11011011000001110010100110110 %
b11011011000001110010100110110 ,
#561600
0$
#565200
b10111010 4
1$
#568800
0$
#570000
b11100001011010011011000011000010 )
b11100001011010011011000011000010 .
b101101110101111101001011 &
b101101110101111101001011 -
0'
0(
b1001101111100111000000110011011 %
b1001101111100111000000110011011 ,
#572400
b10111010 4
1$
#576000
0$
#579600
b10111010 4
1$
#580000
b11000011011101100001110010000110 )
b11000011011101100001110010000110 .
b101011100001101111010001 &
b101011100001101111010001 -
0*
1(
b111111111111111111111111111111111111111111111111111111111111111111111111111111111111111111111111111111111111111111111111111111111111111111111111111111111110001111000111001111011000011110 %
b111111111111111111111111111111111111111111111111111111111111111111111111111111111111111111111111111111111111111111111111111111111111111111111111111111111110001111000111001111011000011110 ,
#583200
0$
#586800
b10111010 4
1$
#590000
b10101101101011000010001001011011 )
b10101101101011000010001001011011 .
b110010110001001010110 &
b110010110001001010110 -
1*
b111111111111111111111111111111111111111111111111111111111111111111111111111111111111111111111111111111111111111111111111111111111111111111111111111111111110100000110000000010010001000001 %
b111111111111111111111111111111111111111111111111111111111111111111111111111111111111111111111111111111111111111111111111111111111111111111111111111111111110100000110000000010010001000001 ,
#590400
0$
#594000
b10111010 4
1$
#597600
0$
#600000
b11011100000000110100010010111000 )
b11011100000000110100010010111000 .
b1111100100110100010010 &
b1111100100110100010010 -
0*
1'
0(
b111111111111111111111111111111111111111111111111111111111111111111111111111111111111111111111111111111111111111111111111111111111111111111111111111111111111110001011001101111101011100010 %
b111111111111111111111111111111111111111111111111111111111111111111111111111111111111111111111111111111111111111111111111111111111111111111111111111111111111110001011001101111101011100010 ,
#601200
b10111010 4
1$
#604800
0$
#608400
b10111010 4
1$
#610000
b1100100000110111000010111001000 )
b1100100000110111000010111001000 .
b100100000101110110000001 &
b100100000101110110000001 -
1*
1(
b111111111111111111111111111111111111111111111111111111111111111111111111111111111111111111111111111111111111111111111111111111111111111111111111111111111110011100100000010001001000111001 %
b111111111111111111111111111111111111111111111111111111111111111111111111111111111111111111111111111111111111111111111111111111111111111111111111111111111110011100100000010001001000111001 ,
#612000
0$
#615600
b10111010 4
1$
#619200
0$
#620000
b11001011010111001000000010010110 )
b11001011010111001000000010010110 .
b1011010010001101011000 &
b1011010010001101011000 -
0*
b10011101101010101010100100111 %
b10011101101010101010100100111 ,
#622800
b10111010 4
1$
#626400
0$
#630000
b10111010 4
1$
b11110110110000111000111011101101 )
b11110110110000111000111011101101 .
b110000101101010101010101 &
b110000101101010101010101 -
1*
0'
0(
b1010011011101001001100010100 %
b1010011011101001001100010100 ,
#633600
0$
#637200
b10111010 4
1$
#640000
b11010011101010001110010010100111 )
b11010011101010001110010010100111 .
b10010011111111110000100 &
b10010011111111110000100 -
1'
1(
b10101100010110010101100101011 %
b10101100010110010101100101011 ,
#640800
0$
#644400
b10111010 6
b1010 5
b111111111111111111011111111111111111111111111111111111111111111111111111111111111111111111111111111111111111111111111111111111111111111111111111111111111111111111111111111111111111111111 2
b10111010 4
1$
#648000
0$
#650000
b101000100000111011000101010001 )
b101000100000111011000101010001 .
b101110100000111111001001 &
b101110100000111111001001 -
b111111111111111111111111111111111111111111111111111111111111111111111111111111111111111111111111111111111111111111111111111111111111111111111111111111111111110011110101111010011011100111 %
b111111111111111111111111111111111111111111111111111111111111111111111111111111111111111111111111111111111111111111111111111111111111111111111111111111111111110011110101111010011011100111 ,
#651600
b10111010 6
b1010 5
b111111111111111111111111111111111111111111111111111111111111111111111111111111111111111111111111111111111111111111111111111111111111111111111111111111111111111111111111111111111111111111 2
b10111010 4
1$
#655200
0$
#658800
b10111010 4
1$
#660000
b10111110011101010100001001111100 )
b10111110011101010100001001111100 .
b101000010000010110000011 &
b101000010000010110000011 -
0'
0(
b111111111111111111111111111111111111111111111111111111111111111111111111111111111111111111111111111111111111111111111111111111111111111111111111111111111111010000101111000101111010100001 %
b111111111111111111111111111111111111111111111111111111111111111111111111111111111111111111111111111111111111111111111111111111111111111111111111111111111111010000101111000101111010100001 ,
#662400
0$
#666000
b10111010 4
1$
#669600
0$
#670000
b1111000001000110010000111110000 )
b1111000001000110010000111110000 .
b10001100000110110000110 &
b10001100000110110000110 -
b111111111111111111111111111111111111111111111111111111111111111111111111111111111111111111111111111111111111111111111111111111111111111111111111111111111110111001010001100001010001110010 %
b111111111111111111111111111111111111111111111111111111111111111111111111111111111111111111111111111111111111111111111111111111111111111111111111111111111110111001010001100001010001110010 ,
#673200
b10111010 4
1$
#676800
0$
#680000
b1100000001010000011000111000000 )
b1100000001010000011000111000000 .
b101111110001101011000101 &
b101111110001101011000101 -
0*
b11100011100011001011100111000 %
b11100011100011001011100111000 ,
#680400
b10111010 4
1$
#684000
0$
#687600
b10111010 4
1$
#690000
b110001001001001101001101100010 )
b110001001001001101001101100010 .
b1000011001001100101010 &
b1000011001001100101010 -
1(
b111010011000100101111101110100 %
b111010011000100101111101110100 ,
#691200
0$
#694800
b10111010 4
1$
#698400
0$
#700000
b11000011001101100000010010000110 )
b11000011001101100000010010000110 .
b101101011110001111001001 &
b101101011110001111001001 -
1*
1'
b1010111011000011010100010101 %
b1010111011000011010100010101 ,
#702000
b10111010 4
1$
#705600
0$
#709200
b10111010 4
1$
#710000
b10110010110110111101100101100 )
b10110010110110111101100101100 .
b110101100010011100000111 &
b110101100010011100000111 -
0*
b10010100101111100101100100101 %
b10010100101111100101100100101 ,
#712800
0$
#716400
b10111010 4
1$
#720000
0$
b11001111000101001100111010011110 )
b11001111000101001100111010011110 .
b110111111100001011110111 &
b110111111100001011110111 -
b110000010100101110100001100 %
b110000010100101110100001100 ,
#723600
b10111010 4
1$
#727200
0$
#730000
b11011010001111011000110010110100 )
b11011010001111011000110010110100 .
b11000000000100101110010 &
b11000000000100101110010 -
0'
b111111111111111111111111111111111111111111111111111111111111111111111111111111111111111111111111111111111111111111111111111111111111111111111111111111111110101110011110000101100001011100 %
b111111111111111111111111111111111111111111111111111111111111111111111111111111111111111111111111111111111111111111111111111111111111111111111111111111111110101110011110000101100001011100 ,
#730800
b10111010 4
1$
#734400
0$
#738000
b10111010 4
1$
#740000
b11111110111100000110010011111101 )
b11111110111100000110010011111101 .
b11000111101101010011110 &
b11000111101101010011110 -
1*
1'
b1101110100010101111010111011101 %
b1101110100010101111010111011101 ,
#741600
0$
#745200
b10111010 4
1$
#748800
0$
#750000
b1011000111110010011110110110001 )
b1011000111110010011110110110001 .
b100100100100001100011101 &
b100100100100001100011101 -
b111111111111111111111111111111111111111111111111111111111111111111111111111111111111111111111111111111111111111111111111111111111111111111111111111111111110111101111000001101001001111011 %
b111111111111111111111111111111111111111111111111111111111111111111111111111111111111111111111111111111111111111111111111111111111111111111111111111111111110111101111000001101001001111011 ,
#752400
b10111010 4
1$
#756000
0$
#759600
b10111010 4
1$
#760000
b1111100000111100101101111111000 )
b1111100000111100101101111111000 .
b11110100001010101010010 &
b11110100001010101010010 -
0'
b100010000100011001111101000100 %
b100010000100011001111101000100 ,
#763200
0$
#766800
b10111010 4
1$
#770000
b1001000010010000111110110010000 )
b1001000010010000111110110010000 .
b1110101001001010001100 &
b1110101001001010001100 -
0*
0(
b1000110110111001011011110001101 %
b1000110110111001011011110001101 ,
#770400
0$
#774000
b10111010 4
1$
#777600
0$
#780000
b10110000010100100000001001100000 )
b10110000010100100000001001100000 .
b11011110000111101111100 &
b11011110000111101111100 -
b1011111010101100000100010111 %
b1011111010101100000100010111 ,
#781200
b10111010 4
1$
#784800
0$
#788400
b10111010 4
1$
#790000
b11010001000001010000010010100010 )
b11010001000001010000010010100010 .
b1011000001100110010 &
b1011000001100110010 -
1*
1(
b1011101010010100100110110111010 %
b1011101010010100100110110111010 ,
#792000
0$
#795600
b10111010 4
1$
#799200
0$
#800000
b100011100100000111010101000111 )
b100011100100000111010101000111 .
b11010000011000001011100 &
b11010000011000001011100 -
1'
0(
b111111111111111111111111111111111111111111111111111111111111111111111111111111111111111111111111111111111111111111111111111111111111111111111111111111111110100100100011110111110001001001 %
b111111111111111111111111111111111111111111111111111111111111111111111111111111111111111111111111111111111111111111111111111111111111111111111111111111111110100100100011110111110001001001 ,
#802800
b10111010 4
1$
#806400
0$
#810000
b10111010 4
1$
b1000110011111000100010110001100 )
b1000110011111000100010110001100 .
b1000100101000000101100 &
b1000100101000000101100 -
0*
0'
1(
b1000011001111101001011110000110 %
b1000011001111101001011110000110 ,
#813600
0$
#817200
b10111010 4
1$
#820000
b111001111001001000000101110011 )
b111001111001001000000101110011 .
b111001111001111001001011 &
b111001111001111001001011 -
1'
0(
b11111010011011011100000111 %
b11111010011011011100000111 ,
#820800
0$
#824400
b10111010 4
1$
#828000
0$
#830000
b11101111100000110111001011011111 )
b11101111100000110111001011011111 .
b101001110000010000111001 &
b101001110000010000111001 -
1*
0'
1(
b1110110001010010101101111101100 %
b1110110001010010101101111101100 ,
#831600
b10111010 4
1$
#835200
0$
#838800
b10111010 4
1$
#840000
b100100110100101011111101001001 )
b100100110100101011111101001001 .
b100000011100110000010 &
b100000011100110000010 -
0*
1'
b111111111111111111111111111111111111111111111111111111111111111111111111111111111111111111111111111111111111111111111111111111111111111111111111111111111111101010010110000001010011010100 %
b111111111111111111111111111111111111111111111111111111111111111111111111111111111111111111111111111111111111111111111111111111111111111111111111111111111111101010010110000001010011010100 ,
#842400
0$
#846000
b10111010 4
1$
#849600
0$
#850000
b10010101010010111000001000101010 )
b10010101010010111000001000101010 .
b101101000110000111100011 &
b101101000110000111100011 -
1*
0'
0(
b111111111111111111111111111111111111111111111111111111111111111111111111111111111111111111111111111111111111111111111111111111111111111111111111111111111111101100101110010001101011011001 %
b111111111111111111111111111111111111111111111111111111111111111111111111111111111111111111111111111111111111111111111111111111111111111111111111111111111111101100101110010001101011011001 ,
#853200
b10111010 4
1$
#856800
0$
#860000
b11100100011010111111100111001 )
b11100100011010111111100111001 .
b101010011010100000101011 &
b101010011010100000101011 -
0*
1(
b111111111111111111111111111111111111111111111111111111111111111111111111111111111111111111111111111111111111111111111111111111111111111111111111111111111111100100011100011111100011001000 %
b111111111111111111111111111111111111111111111111111111111111111111111111111111111111111111111111111111111111111111111111111111111111111111111111111111111111100100011100011111100011001000 ,
#860400
b10111010 4
1$
#864000
0$
#867600
b10111010 4
1$
#870000
b1001011111101010010100110010111 )
b1001011111101010010100110010111 .
b10110011110101001101110 &
b10110011110101001101110 -
1'
0(
b111111111111111111111111111111111111111111111111111111111111111111111111111111111111111111111111111111111111111111111111111111111111111111111111111111111110001001011111110001110000010010 %
b111111111111111111111111111111111111111111111111111111111111111111111111111111111111111111111111111111111111111111111111111111111111111111111111111111111110001001011111110001110000010010 ,
#871200
0$
#874800
b10111010 4
1$
#878400
0$
#880000
b10110100111010001101011001101001 )
b10110100111010001101011001101001 .
b111001000100110000001111 &
b111001000100110000001111 -
b1101101100010111000011111011011 %
b1101101100010111000011111011011 ,
#882000
b10111010 4
1$
#885600
0$
#889200
b10111010 4
1$
#890000
b10101000111001001101100001010001 )
b10101000111001001101100001010001 .
b1110011110010110010000 &
b1110011110010110010000 -
1*
1(
b111111111111111111111111111111111111111111111111111111111111111111111111111111111111111111111111111111111111111111111111111111111111111111111111111111111110000110010100110110001000001100 %
b111111111111111111111111111111111111111111111111111111111111111111111111111111111111111111111111111111111111111111111111111111111111111111111111111111111110000110010100110110001000001100 ,
#892800
0$
#896400
b10111010 4
1$
#900000
0$
b11100010000011101001101011000100 )
b11100010000011101001101011000100 .
b110111010100110110011011 &
b110111010100110110011011 -
0*
0'
b111111111111111111111111111111111111111111111111111111111111111111111111111111111111111111111111111111111111111111111111111111111111111111111111111111111110110100111110011010010001101001 %
b111111111111111111111111111111111111111111111111111111111111111111111111111111111111111111111111111111111111111111111111111111111111111111111111111111111110110100111110011010010001101001 ,
#903600
b10111010 4
1$
#907200
0$
#910000
b1011010110101101100011110110101 )
b1011010110101101100011110110101 .
b111011010101001101110111 &
b111011010101001101110111 -
b1011100011110001011000110111000 %
b1011100011110001011000110111000 ,
#910800
b10111010 4
1$
#914400
0$
#918000
b10111010 4
1$
#920000
b111100100101111100000001 )
b111100100101111100000001 .
b111000101000101110001011 &
b111000101000101110001011 -
1*
b1101010000101011111010111010100 %
b1101010000101011111010111010100 ,
#921600
0$
#925200
b10111010 4
1$
#928800
0$
