peripherals/spi_master/tb_spi_master.vcd
$date
	Fri Jun  5 11:16:45 2026
$end
$version
	Icarus Verilog
$end
$timescale
	1ps
$end
$scope module tb_spi_master $end
$var wire 1 ! pready $end
$var wire 1 " spi_mosi $end
$var wire 1 # spi_csn $end
$var wire 1 $ spi_clk $end
$var wire 1 % prdata $end
$var wire 1 & irq $end
$var reg 1 ' clk $end
$var reg 1 ( paddr $end
$var reg 1 ) penable $end
$var reg 1 * psel $end
$var reg 1 + pwdata $end
$var reg 1 , pwrite $end
$var reg 1 - rst_n $end
$var reg 1 . spi_miso $end
$scope module uut $end
$var wire 1 ' clk $end
$var wire 1 & irq $end
$var wire 4 / paddr [3:0] $end
$var wire 1 ) penable $end
$var wire 1 ! pready $end
$var wire 1 * psel $end
$var wire 32 0 pwdata [31:0] $end
$var wire 1 , pwrite $end
$var wire 1 - rst_n $end
$var wire 1 $ spi_clk $end
$var wire 1 . spi_miso $end
$var wire 1 " spi_mosi $end
$var wire 1 1 sclk_edge $end
$var reg 3 2 bit_cnt [2:0] $end
$var reg 1 3 busy $end
$var reg 16 4 clk_cnt [15:0] $end
$var reg 16 5 clk_div [15:0] $end
$var reg 1 6 cpha $end
$var reg 1 7 cpol $end
$var reg 4 8 cs_select [3:0] $end
$var reg 1 9 mosi_r $end
$var reg 32 : prdata [31:0] $end
$var reg 8 ; rx_data [7:0] $end
$var reg 1 < sclk_r $end
$var reg 8 = shift_in [7:0] $end
$var reg 8 > shift_out [7:0] $end
$var reg 4 ? spi_csn [3:0] $end
$var reg 1 @ start $end
$var reg 8 A tx_data [7:0] $end
$upscope $end
$upscope $end
$enddefinitions $end
$comment Show the parameter values. $end
$dumpall
$end
#0
$dumpvars
bx A
x@
bx ?
bx >
bx =
x<
bx ;
bx :
x9
bx 8
x7
x6
bx 5
bx 4
x3
bx 2
x1
b0 0
b0 /
0.
x-
0,
0+
0*
0)
0(
0'
x&
x%
x$
x#
x"
1!
$end
#3600
1'
#7200
0'
#10000
0%
1#
0&
0@
b0 :
06
07
b0 8
b0 A
b110001 5
b1111 ?
03
1"
19
b0 2
b0 =
b0 >
0$
0<
11
b0 4
0-
#10800
1'
#14400
0'
#18000
1'
#21600
0'
#25200
1'
#28800
0'
#32400
1'
#36000
0'
#39600
1'
#43200
0'
#46800
1'
#50400
0'
#54000
1'
#57600
0'
#61200
1'
#64800
0'
#68400
1'
#72000
0'
#75600
1'
#79200
0'
#82800
1'
#86400
0'
#90000
1'
#93600
0'
#97200
1'
#100800
0'
#104400
1'
#108000
0'
#110000
1-
#111600
1'
#115200
0'
#118800
1'
#122400
0'
#126000
1'
#129600
0'
#133200
1'
#136800
0'
#140000
1.
b1 0
1+
b1 /
1(
1,
1)
#140400
1'
#144000
0'
#147600
1'
#150000
b0 0
0+
0)
1*
#151200
0'
#154800
1'
#158400
0'
#160000
0.
b1 0
1+
b0 /
0(
#162000
1'
#165600
0'
#169200
1'
#170000
b0 0
0+
b1 /
1(
0,
1)
#172800
0'
#176400
x%
b0xxxxxxxx :
1'
#180000
0'
1.
b1 0
1+
0*
#183600
1'
#187200
0'
#190000
b0 0
0+
b0 /
0(
0)
1*
#190800
1'
#194400
0'
#198000
1'
#200000
b1 0
1+
b1 /
1(
1,
1)
0*
#201600
0'
#205200
1'
#208800
0'
#210000
0.
0)
#212400
1'
#216000
0'
#219600
1'
#220000
b0 /
0(
0,
#223200
0'
#226800
1'
#230000
b0 0
0+
1,
1)
#230400
0'
#234000
1'
#237600
0'
#240000
1.
b1 0
1+
b1 /
1(
0)
#241200
1'
#244800
0'
#248400
1'
#250000
0,
1*
#252000
0'
#255600
1'
#259200
0'
#260000
b0 0
0+
1,
0*
#262800
1'
#266400
0'
#270000
1'
0.
b1 0
1+
1*
#273600
0'
#277200
1'
#280000
b0 0
0+
b0 /
0(
0,
1)
#280800
0'
#284400
1'
#288000
0'
#290000
1.
b1 0
1+
#291600
1'
#295200
0'
#298800
1'
#300000
1,
#302400
0'
#306000
1&
1@
b1 A
1'
#309600
0'
#310000
0.
b0 0
0+
0,
0)
#313200
0#
0&
0@
b1110 ?
13
b111 2
b1 >
1'
#316800
0'
#320000
1.
b1 0
1+
b1 /
1(
1,
0*
#320400
b10 >
0"
09
01
b1 4
1'
#324000
0'
#327600
b10 4
1'
#330000
0.
b0 0
0+
1*
#331200
0'
#334800
b11 4
1'
#338400
0'
#340000
1.
b1 0
1+
0,
1)
#342000
b100 4
1'
#345600
0'
#349200
b101 4
1'
#350000
0.
b0 /
0(
0)
#352800
0'
#356400
b110 4
1'
#360000
0'
b0 0
0+
b1 /
1(
1,
0*
#363600
b111 4
1'
#367200
0'
#370000
b1 0
1+
b0 /
0(
0,
1*
#370800
b1000 4
1'
#374400
0'
#378000
b1001 4
1'
#380000
1.
b1 /
1(
1)
0*
#381600
0'
#385200
b1010 4
1'
#388800
0'
#390000
b0 0
0+
b0 /
0(
1*
#392400
b1011 4
1'
#396000
0'
#399600
b1100 4
1'
#400000
0.
b1 /
1(
1,
0)
0*
#403200
0'
#406800
b1101 4
1'
#410000
b0 /
0(
1)
#410400
0'
#414000
b1110 4
1'
#417600
0'
#420000
1.
0,
1*
#421200
b1111 4
1'
#424800
0'
#428400
b10000 4
1'
#430000
0.
1,
0)
0*
#432000
0'
#435600
b10001 4
1'
#439200
0'
#440000
b1 /
1(
1*
#442800
b10010 4
1'
#446400
0'
#450000
b10011 4
1'
b0 /
0(
0*
#453600
0'
#457200
b10100 4
1'
#460000
1.
b1 /
1(
1)
#460800
0'
#464400
b10101 4
1'
#468000
0'
#470000
b1 0
1+
b0 /
0(
0,
1*
#471600
b10110 4
1'
#475200
0'
#478800
b10111 4
1'
#480000
1,
#482400
0'
#486000
b11000 4
1@
1'
#489600
0'
#490000
0,
0)
0*
#493200
b11001 4
1'
#496800
0'
#500000
b0 0
0+
1,
#500400
b11010 4
1'
#504000
0'
#507600
b11011 4
1'
#511200
0'
#514800
b11100 4
1'
#518400
0'
#520000
0,
1)
1*
#522000
b11101 4
1'
#525600
0'
#529200
b11110 4
1'
#530000
0.
1,
0)
0*
#532800
0'
#536400
b11111 4
1'
#540000
0'
1.
0,
1)
#543600
b100000 4
1'
#547200
0'
#550000
b1 0
1+
b1 /
1(
1,
0)
1*
#550800
b100001 4
1'
#554400
0'
#558000
b100010 4
1'
#560000
0.
b0 0
0+
1)
0*
#561600
0'
#565200
b100011 4
1'
#568800
0'
#570000
b1 0
1+
0,
0)
1*
#572400
b100100 4
1'
#576000
0'
#579600
b100101 4
1'
#580000
b0 /
0(
1)
0*
#583200
0'
#586800
b100110 4
1'
#590000
1.
b0 0
0+
b1 /
1(
1*
#590400
0'
#594000
b100111 4
1'
#597600
0'
#600000
0.
b0 /
0(
1,
0)
0*
#601200
b101000 4
1'
#604800
0'
#608400
b101001 4
1'
#610000
b1 0
1+
b1 /
1(
1)
1*
#612000
0'
#615600
b101010 4
1'
#619200
0'
#620000
b0 0
0+
b0 /
0(
#622800
b0 A
b101011 4
1'
#626400
0'
#630000
b101100 4
1'
1.
b1 0
1+
b1 /
1(
0,
0)
0*
#633600
0'
#637200
b101101 4
1'
#640000
b0 0
0+
1,
1)
1*
#640800
0'
#644400
b101110 4
1'
#648000
0'
#650000
b1 0
1+
#651600
b1 A
b101111 4
1'
#655200
0'
#658800
b110000 4
1'
#660000
0.
0,
0)
#662400
0'
#666000
b110001 4
1'
#669600
0'
#670000
b0 0
0+
0*
#673200
1$
1<
11
b0 4
1'
#676800
0'
#680000
b1 0
1+
b0 /
0(
#680400
b110 2
01
b1 4
1'
#684000
0'
#687600
b10 4
1'
#690000
b0 0
0+
1)
#691200
0'
#694800
b11 4
1'
#698400
0'
#700000
b1 0
1+
b1 /
1(
1,
1*
#702000
b100 4
1'
#705600
0'
#709200
b101 4
1'
#710000
b0 /
0(
#712800
0'
#716400
b110 4
1'
#720000
0'
0*
#723600
b111 4
1'
#727200
0'
#730000
b0 0
0+
0,
#730800
b1000 4
1'
#734400
0'
#738000
b1001 4
1'
#740000
1.
b1 /
1(
1,
1*
#741600
0'
#745200
b1010 4
b0 A
1'
#748800
0'
#750000
b1 0
1+
#752400
b1 A
b1011 4
1'
#756000
0'
#759600
b1100 4
1'
#760000
0.
b0 0
0+
0,
0*
#763200
0'
#766800
b1101 4
1'
#770000
b0 /
0(
0)
1*
#770400
0'
#774000
b1110 4
1'
#777600
0'
#781200
b1111 4
1'
#784800
0'
#788400
b10000 4
1'
#790000
b1 /
1(
1)
0*
#792000
0'
#795600
b10001 4
1'
#799200
0'
#800000
1.
1,
0)
1*
#802800
b10010 4
1'
#806400
0'
#810000
b10011 4
1'
0.
b0 /
0(
0,
1)
0*
#813600
0'
#817200
b10100 4
1'
#820000
1.
b1 0
1+
1,
0)
1*
#820800
0'
#824400
b10101 4
1'
#828000
0'
#830000
b1 /
1(
0,
1)
0*
#831600
b10110 4
1'
#835200
0'
#838800
b10111 4
1'
#840000
b0 0
0+
b0 /
0(
1,
#842400
0'
#846000
b11000 4
1'
#849600
0'
#850000
0.
b1 0
1+
b1 /
1(
0,
0)
1*
#853200
b11001 4
1'
#856800
0'
#860000
1.
b0 /
0(
1)
0*
#860400
b11010 4
1'
#864000
0'
#867600
b11011 4
1'
#870000
b0 0
0+
1,
0)
#871200
0'
#874800
b11100 4
1'
#878400
0'
#880000
b1 0
1+
1*
#882000
b11101 4
1'
#885600
0'
#889200
b11110 4
1'
#890000
b0 0
0+
b1 /
1(
1)
0*
#892800
0'
#896400
b11111 4
1'
#900000
0'
0.
b1 0
1+
b0 /
0(
0,
1*
#903600
b100000 4
1'
#907200
0'
#910000
1.
0*
#910800
b100001 4
1'
#914400
0'
#918000
b100010 4
1'
#920000
b1 /
1(
#921600
0'
#925200
b100011 4
1'
#928800
0'
#930000
b0 0
0+
0)
1*
#932400
b100100 4
1'
#936000
0'
#939600
b100101 4
1'
#940000
b0 /
0(
1,
1)
0*
#943200
0'
#946800
b100110 4
1'
#950000
0.
b1 0
1+
0,
1*
#950400
0'
#954000
b100111 4
1'
#957600
0'
#960000
1.
b0 0
0+
b1 /
1(
1,
0*
#961200
b101000 4
1'
#964800
0'
#968400
b101001 4
1'
#970000
b1 0
1+
b0 /
0(
0,
0)
1*
#972000
0'
#975600
b101010 4
1'
#979200
0'
#982800
b101011 4
1'
#986400
0'
#990000
b101100 4
1'
b1 /
1(
1)
#993600
0'
#997200
b101101 4
1'
#1000000
b0 0
0+
1,
#1000800
0'
#1004400
b101110 4
b0 A
1'
#1008000
0'
#1010000
b1 0
1+
0,
0)
0*
#1011600
b101111 4
1'
#1015200
0'
#1018800
b110000 4
1'
#1020000
1,
1)
1*
#1022400
0'
#1026000
b1 A
b110001 4
1'
#1029600
0'
#1030000
0.
b0 0
0+
0,
0)
0*
#1033200
0$
0<
11
b0 4
1'
#1036800
0'
#1040000
b0 /
0(
1,
1)
#1040400
b100 >
01
b1 4
1'
#1044000
0'
#1047600
b10 4
1'
#1050000
1.
b1 /
1(
0,
1*
#1051200
0'
#1054800
b11 4
1'
#1058400
0'
#1060000
b1 0
1+
0)
0*
#1062000
b100 4
1'
#1065600
0'
#1069200
b101 4
1'
#1070000
b0 0
0+
1)
#1072800
0'
#1076400
b110 4
1'
#1080000
0'
b0 /
0(
0)
1*
#1083600
b111 4
1'
#1087200
0'
#1090000
b1 /
1(
#1090800
b1000 4
1'
#1094400
0'
#1098000
b1001 4
1'
#1100000
b1 0
1+
b0 /
0(
1,
1)
0*
#1101600
0'
#1105200
b1010 4
1'
#1108800
0'
#1110000
0,
0)
#1112400
b1011 4
1'
#1116000
0'
#1119600
b1100 4
1'
#1120000
0.
b0 0
0+
1,
1)
1*
#1123200
0'
#1126800
b0 A
b1101 4
1'
#1130000
1.
b1 0
1+
0,
0)
0*
#1130400
0'
#1134000
b1110 4
1'
#1137600
0'
#1140000
0.
b1 /
1(
1,
1)
1*
#1141200
b1 A
b1111 4
1'
#1144800
0'
#1148400
b10000 4
1'
#1150000
1.
b0 0
0+
b0 /
0(
0,
0)
0*
#1152000
0'
#1155600
b10001 4
1'
#1159200
0'
#1160000
b1 0
1+
1,
1*
#1162800
b10010 4
1'
#1166400
0'
#1170000
b10011 4
1'
0,
#1173600
0'
#1177200
b10100 4
1'
#1180000
0.
b0 0
0+
1)
0*
#1180800
0'
#1184400
b10101 4
1'
#1188000
0'
#1190000
1.
1,
0)
#1191600
b10110 4
1'
#1195200
0'
#1198800
b10111 4
1'
#1200000
0.
b1 0
1+
b1 /
1(
#1202400
0'
#1206000
b11000 4
1'
#1209600
0'
#1210000
1)
#1213200
b11001 4
1'
#1216800
0'
#1220000
1.
b0 0
0+
1*
#1220400
b11010 4
b0 A
1'
#1224000
0'
#1227600
b11011 4
1'
#1230000
b0 /
0(
0)
0*
#1231200
0'
#1234800
b11100 4
1'
#1238400
0'
#1240000
0.
0,
#1242000
b11101 4
1'
#1245600
0'
#1249200
b11110 4
1'
#1250000
1.
b1 0
1+
1)
1*
#1252800
0'
#1256400
b11111 4
1'
#1260000
0'
0.
b1 /
1(
1,
#1263600
b100000 4
b1 A
1'
#1267200
0'
#1270000
1.
b0 /
0(
0,
0)
#1270800
b100001 4
1'
#1274400
0'
#1278000
b100010 4
1'
#1280000
0.
b0 0
0+
b1 /
1(
1,
1)
0*
#1281600
0'
#1285200
b100011 4
1'
#1288800
0'
#1290000
b1 0
1+
0)
#1292400
b100100 4
1'
#1296000
0'
#1299600
b100101 4
1'
#1300000
b0 0
0+
b0 /
0(
0,
1*
#1303200
0'
#1306800
b100110 4
1'
#1310000
1.
1,
0*
#1310400
0'
#1314000
b100111 4
1'
#1317600
0'
#1320000
0.
b1 /
1(
1)
1*
#1321200
b101000 4
b0 A
1'
#1324800
0'
#1328400
b101001 4
1'
#1330000
0)
0*
#1332000
0'
#1335600
b101010 4
1'
#1339200
0'
#1340000
b1 0
1+
1)
1*
#1342800
b1 A
b101011 4
1'
#1346400
0'
#1350000
b101100 4
1'
b0 /
0(
0)
0*
#1353600
0'
#1357200
b101101 4
1'
#1360000
0,
#1360800
0'
#1364400
b101110 4
1'
#1368000
0'
#1370000
b1 /
1(
1)
1*
#1371600
b101111 4
1'
#1375200
0'
#1378800
b110000 4
1'
#1380000
b0 0
0+
1,
0)
#1382400
0'
#1386000
b110001 4
1'
#1389600
0'
#1390000
b0 /
0(
0,
1)
#1393200
1$
1<
11
b0 4
1'
#1396800
0'
#1400000
1.
1,
#1400400
b0 A
b101 2
b1 =
01
b1 4
1'
#1404000
0'
#1407600
b10 4
1'
#1411200
0'
#1414800
b11 4
1'
#1418400
0'
#1420000
b1 /
1(
0,
0)
#1422000
b100 4
1'
#1425600
0'
#1429200
b101 4
1'
#1430000
0.
b0 /
0(
1,
1)
0*
#1432800
0'
#1436400
b110 4
1'
#1440000
0'
b1 0
1+
0)
#1443600
b111 4
1'
#1447200
0'
#1450000
1.
b0 0
0+
#1450800
b1000 4
1'
#1454400
0'
#1458000
b1001 4
1'
#1460000
b1 0
1+
b1 /
1(
1)
#1461600
0'
#1465200
b1010 4
1'
#1468800
0'
#1470000
b0 0
0+
b0 /
0(
#1472400
b1011 4
1'
#1476000
0'
#1479600
b1100 4
1'
#1480000
b1 0
1+
b1 /
1(
#1483200
0'
#1486800
b1101 4
1'
#1490000
b0 0
0+
0,
#1490400
0'
#1494000
b1110 4
1'
#1497600
0'
#1500000
b0 /
0(
0)
1*
#1501200
b1111 4
1'
#1504800
0'
#1508400
b10000 4
1'
#1510000
b1 0
1+
b1 /
1(
#1512000
0'
#1515600
b10001 4
1'
#1519200
0'
#1520000
0.
b0 0
0+
b0 /
0(
1)
#1522800
b10010 4
1'
#1526400
0'
#1530000
b10011 4
1'
1.
b1 /
1(
0)
#1533600
0'
#1537200
b10100 4
1'
#1540000
0.
b0 /
0(
1,
0*
#1540800
0'
#1544400
b10101 4
1'
#1548000
0'
#1550000
b1 0
1+
b1 /
1(
0,
1)
#1551600
b10110 4
1'
#1555200
0'
#1558800
b10111 4
1'
#1560000
1.
#1562400
0'
#1566000
b11000 4
1'
#1569600
0'
#1570000
b0 0
0+
b0 /
0(
1,
0)
1*
#1573200
b11001 4
1'
#1576800
0'
#1580000
b1 0
1+
b1 /
1(
0,
1)
#1580400
b11010 4
1'
#1584000
0'
#1587600
b11011 4
1'
#1590000
0.
b0 /
0(
1,
#1591200
0'
#1594800
b11100 4
b1 A
1'
#1598400
0'
#1600000
0)
0*
#1602000
b11101 4
1'
#1605600
0'
#1609200
b11110 4
1'
#1610000
1.
b0 0
0+
0,
1*
#1612800
0'
#1616400
b11111 4
1'
#1620000
0'
0.
b1 0
1+
1,
0*
#1623600
b100000 4
1'
#1627200
0'
#1630000
1.
b0 0
0+
1)
#1630800
b100001 4
1'
#1634400
0'
#1638000
b100010 4
1'
#1640000
b1 0
1+
b1 /
1(
0)
1*
#1641600
0'
#1645200
b100011 4
1'
#1648800
0'
#1650000
b0 /
0(
0,
1)
0*
#1652400
b100100 4
1'
#1656000
0'
#1659600
b100101 4
1'
#1660000
1,
#1663200
0'
#1666800
b100110 4
1'
#1670000
0.
0)
1*
#1670400
0'
#1674000
b100111 4
1'
#1677600
0'
#1680000
b0 0
0+
0,
0*
#1681200
b101000 4
1'
#1684800
0'
#1688400
b101001 4
1'
#1690000
b1 0
1+
b1 /
1(
1,
#1692000
0'
#1695600
b101010 4
1'
#1699200
0'
#1700000
1.
b0 0
0+
#1702800
b101011 4
1'
#1706400
0'
#1710000
b101100 4
1'
b1 0
1+
b0 /
0(
0,
1)
1*
#1713600
0'
#1717200
b101101 4
1'
#1720000
0.
0)
0*
#1720800
0'
#1724400
b101110 4
1'
#1728000
0'
#1730000
1.
b0 0
0+
b1 /
1(
1)
1*
#1731600
b101111 4
1'
#1735200
0'
#1738800
b110000 4
1'
#1740000
b1 0
1+
1,
0)
#1742400
0'
#1746000
b110001 4
1'
#1749600
0'
#1750000
0.
b0 0
0+
0,
1)
0*
#1753200
0$
0<
11
b0 4
1'
#1756800
0'
#1760000
b1 0
1+
b0 /
0(
1,
0)
#1760400
b1000 >
01
b1 4
1'
#1764000
0'
#1767600
b10 4
1'
#1770000
b1 /
1(
1)
#1771200
0'
#1774800
b11 4
1'
#1778400
0'
#1780000
1.
b0 0
0+
b0 /
0(
1*
#1782000
b100 4
b0 A
1'
#1785600
0'
#1789200
b101 4
1'
#1790000
0.
b1 0
1+
b1 /
1(
0,
#1792800
0'
#1796400
b110 4
1'
#1800000
0'
1.
b0 /
0(
0*
#1803600
b111 4
1'
#1807200
0'
#1810000
0.
b0 0
0+
1,
0)
#1810800
b1000 4
1'
#1814400
0'
#1818000
b1001 4
1'
#1820000
1.
b1 0
1+
b1 /
1(
1)
1*
#1821600
0'
#1825200
b1010 4
b1 A
1'
#1828800
0'
#1830000
b0 0
0+
0,
0*
#1832400
b1011 4
1'
#1836000
0'
#1839600
b1100 4
1'
#1843200
0'
#1846800
b1101 4
1'
#1850000
b0 /
0(
#1850400
0'
#1854000
b1110 4
1'
#1857600
0'
#1860000
b1 0
1+
b1 /
1(
1,
0)
#1861200
b1111 4
1'
#1864800
0'
#1868400
b10000 4
1'
#1870000
b0 0
0+
1*
#1872000
0'
#1875600
b10001 4
1'
#1879200
0'
#1880000
b1 0
1+
1)
0*
#1882800
b10010 4
1'
#1886400
0'
#1890000
b10011 4
1'
0,
#1893600
0'
#1897200
b10100 4
1'
#1900000
1,
0)
1*
#1900800
0'
#1904400
b10101 4
1'
#1908000
0'
#1910000
0.
0,
0*
#1911600
b10110 4
1'
#1915200
0'
#1918800
b10111 4
1'
#1920000
1,
#1922400
0'
#1926000
b11000 4
1'
#1929600
0'
#1930000
b0 0
0+
b0 /
0(
0,
1)
#1933200
b11001 4
1'
#1936800
0'
#1940000
b1 /
1(
1,
0)
#1940400
b11010 4
1'
#1944000
0'
#1947600
b11011 4
1'
#1950000
1.
b1 0
1+
0,
#1951200
0'
#1954800
b11100 4
1'
#1958400
0'
#1960000
0.
b0 0
0+
b0 /
0(
1)
1*
#1962000
b11101 4
1'
#1965600
0'
#1969200
b11110 4
1'
#1970000
b1 0
1+
b1 /
1(
1,
#1972800
0'
#1976400
b11111 4
1'
#1980000
0'
b0 0
0+
b0 /
0(
0)
0*
#1983600
b100000 4
1'
#1987200
0'
#1990000
1.
b1 0
1+
b1 /
1(
1*
#1990800
b100001 4
1'
#1994400
0'
#1998000
b100010 4
1'
#2000000
0,
0*
#2001600
0'
#2005200
b100011 4
1'
#2008800
0'
#2010000
b0 0
0+
b0 /
0(
#2012400
b100100 4
1'
#2016000
0'
#2019600
b100101 4
1'
#2020000
1)
1*
#2023200
0'
#2026800
b100110 4
1'
#2030000
b1 0
1+
b1 /
1(
0*
#2030400
0'
#2034000
b100111 4
1'
#2037600
0'
#2040000
0.
b0 0
0+
1,
0)
1*
#2041200
b101000 4
1'
#2044800
0'
#2048400
b101001 4
1'
#2050000
b1 0
1+
b0 /
0(
0,
#2052000
0'
#2055600
b101010 4
1'
#2059200
0'
#2060000
1.
b1 /
1(
1)
0*
#2062800
b101011 4
1'
#2066400
0'
#2070000
b101100 4
1'
#2073600
0'
#2077200
b101101 4
1'
#2080000
0.
b0 0
0+
b0 /
0(
0)
#2080800
0'
#2084400
b101110 4
1'
#2088000
0'
#2090000
1.
b1 0
1+
b1 /
1(
1,
1)
#2091600
b101111 4
1'
#2095200
0'
#2098800
b110000 4
1'
#2100000
b0 /
0(
0,
1*
#2102400
0'
#2106000
b110001 4
1'
#2109600
0'
#2110000
b0 0
0+
b1 /
1(
1,
0)
#2113200
1$
1<
11
b0 4
1'
#2116800
0'
#2120000
1)
0*
#2120400
b100 2
b11 =
01
b1 4
1'
#2124000
0'
#2127600
b10 4
1'
#2130000
0.
b0 /
0(
#2131200
0'
#2134800
b11 4
1'
#2138400
0'
#2140000
0,
0)
1*
#2142000
b100 4
1'
#2145600
0'
#2149200
b101 4
1'
#2150000
b1 0
1+
#2152800
0'
#2156400
b110 4
1'
#2160000
0'
b0 0
0+
b1 /
1(
1)
#2163600
b111 4
1'
#2167200
0'
#2170000
1.
b1 0
1+
1,
0)
0*
#2170800
b1000 4
1'
#2174400
0'
#2178000
b1001 4
1'
#2180000
b0 /
0(
#2181600
0'
#2185200
b1010 4
1'
#2188800
0'
#2190000
b0 0
0+
b1 /
1(
1*
#2192400
b1011 4
1'
#2196000
0'
#2199600
b1100 4
1'
#2200000
0.
b0 /
0(
1)
#2203200
0'
#2206800
b0 A
b1101 4
1'
#2210000
b1 0
1+
#2210400
0'
#2214000
b1110 4
b1 A
1'
#2217600
0'
#2220000
1.
b0 0
0+
0*
#2221200
b1111 4
1'
#2224800
0'
#2228400
b10000 4
1'
#2230000
0.
b1 0
1+
b1 /
1(
0,
#2232000
0'
#2235600
b10001 4
1'
#2239200
0'
#2240000
b0 0
0+
b0 /
0(
1,
1*
#2242800
b10010 4
b0 A
1'
#2246400
0'
#2250000
b10011 4
1'
b1 /
1(
0,
0)
#2253600
0'
#2257200
b10100 4
1'
#2260000
b1 0
1+
#2260800
0'
#2264400
b10101 4
1'
#2268000
0'
#2270000
1.
b0 0
0+
1,
0*
#2271600
b10110 4
1'
#2275200
0'
#2278800
b10111 4
1'
#2280000
b1 0
1+
b0 /
0(
1*
#2282400
0'
#2286000
b11000 4
1'
#2289600
0'
#2290000
b0 0
0+
b1 /
1(
#2293200
b11001 4
1'
#2296800
0'
#2300000
b1 0
1+
b0 /
0(
0,
1)
0*
#2300400
b11010 4
1'
#2304000
0'
#2307600
b11011 4
1'
#2310000
1*
#2311200
0'
#2314800
b11100 4
1'
#2318400
0'
#2320000
0.
b1 /
1(
0)
#2322000
b11101 4
1'
#2325600
0'
#2329200
b11110 4
1'
#2330000
1.
b0 0
0+
1,
1)
#2332800
0'
#2336400
b11111 4
1'
#2340000
0'
0.
0,
0)
0*
#2343600
b100000 4
1'
#2347200
0'
#2350000
b0 /
0(
1,
1*
#2350800
b100001 4
1'
#2354400
0'
#2358000
b100010 4
1'
#2360000
1.
b1 0
1+
0,
#2361600
0'
#2365200
b100011 4
1'
#2368800
0'
#2370000
0.
b0 0
0+
1,
1)
0*
#2372400
b100100 4
1'
#2376000
0'
#2379600
b100101 4
1'
#2380000
1.
b1 /
1(
0)
1*
#2383200
0'
#2386800
b100110 4
1'
#2390000
0,
1)
0*
#2390400
0'
#2394000
b100111 4
1'
#2397600
0'
#2400000
1,
0)
1*
#2401200
b101000 4
1'
#2404800
0'
#2408400
b101001 4
1'
#2410000
0.
b1 0
1+
b0 /
0(
0,
1)
0*
#2412000
0'
#2415600
b101010 4
1'
#2419200
0'
#2420000
b0 0
0+
1,
0)
#2422800
b101011 4
1'
#2426400
0'
#2430000
b101100 4
1'
1.
b1 0
1+
0,
#2433600
0'
#2437200
b101101 4
1'
#2440000
b0 0
0+
b1 /
1(
1*
#2440800
0'
#2444400
b101110 4
1'
#2448000
0'
#2450000
0.
1,
1)
#2451600
b101111 4
1'
#2455200
0'
#2458800
b110000 4
1'
#2460000
1.
b1 0
1+
0,
0)
0*
#2462400
0'
#2466000
b110001 4
1'
#2469600
0'
#2470000
b0 /
0(
1*
#2473200
0$
0<
11
b0 4
1'
#2476800
0'
#2480000
0.
1,
#2480400
b10000 >
01
b1 4
1'
#2484000
0'
#2487600
b10 4
1'
#2490000
b0 0
0+
0,
0*
#2491200
0'
#2494800
b11 4
1'
#2498400
0'
#2500000
1.
b1 0
1+
b1 /
1(
#2502000
b100 4
1'
#2505600
0'
#2509200
b101 4
1'
#2510000
b0 /
0(
1)
1*
#2512800
0'
#2516400
b110 4
1'
#2520000
0'
0.
b0 0
0+
b1 /
1(
0*
#2523600
b111 4
1'
#2527200
0'
#2530000
b1 0
1+
1,
0)
#2530800
b1000 4
1'
#2534400
0'
#2538000
b1001 4
1'
#2540000
b0 0
0+
0,
1)
1*
#2541600
0'
#2545200
b1010 4
1'
#2548800
0'
#2550000
1.
b0 /
0(
1,
0*
#2552400
b1011 4
1'
#2556000
0'
#2559600
b1100 4
1'
#2560000
0.
b1 /
1(
1*
#2563200
0'
#2566800
b1101 4
1'
#2570000
b1 0
1+
b0 /
0(
0*
#2570400
0'
#2574000
b1110 4
1'
#2577600
0'
#2580000
1*
#2581200
b1 A
b1111 4
1'
#2584800
0'
#2588400
b10000 4
1'
#2590000
1.
b0 0
0+
b1 /
1(
0,
0)
0*
#2592000
0'
#2595600
b10001 4
1'
#2599200
0'
#2600000
b1 0
1+
b0 /
0(
1*
#2602800
b10010 4
1'
#2606400
0'
#2610000
b10011 4
1'
0.
b1 /
1(
1)
0*
#2613600
0'
#2617200
b10100 4
1'
#2620000
1.
b0 /
0(
1,
1*
#2620800
0'
#2624400
b10101 4
1'
#2628000
0'
#2630000
b1 /
1(
0,
#2631600
b10110 4
1'
#2635200
0'
#2638800
b10111 4
1'
#2642400
0'
#2646000
b11000 4
1'
#2649600
0'
#2650000
0.
0*
#2653200
b11001 4
1'
#2656800
0'
#2660000
1.
b0 0
0+
b0 /
0(
0)
1*
#2660400
b11010 4
1'
#2664000
0'
#2667600
b11011 4
1'
#2670000
0.
b1 0
1+
b1 /
1(
1)
0*
#2671200
0'
#2674800
b11100 4
1'
#2678400
0'
#2680000
1.
#2682000
b11101 4
1'
#2685600
0'
#2689200
b11110 4
1'
#2690000
b0 0
0+
1,
0)
1*
#2692800
0'
#2696400
b11111 4
1'
#2700000
0'
b1 0
1+
b0 /
0(
1)
0*
#2703600
b100000 4
1'
#2707200
0'
#2710000
0.
b0 0
0+
0)
#2710800
b100001 4
1'
#2714400
0'
#2718000
b100010 4
1'
#2720000
b1 /
1(
1)
#2721600
0'
#2725200
b100011 4
1'
#2728800
0'
#2730000
b1 0
1+
b0 /
0(
0,
0)
1*
#2732400
b100100 4
1'
#2736000
0'
#2739600
b100101 4
1'
#2740000
1.
b0 0
0+
1)
0*
#2743200
0'
#2746800
b100110 4
1'
#2750000
0.
b1 0
1+
b1 /
1(
1,
#2750400
0'
#2754000
b100111 4
1'
#2757600
0'
#2760000
b0 /
0(
#2761200
b101000 4
1'
#2764800
0'
#2768400
b101001 4
1'
#2770000
1.
b1 /
1(
0,
#2772000
0'
#2775600
b101010 4
1'
#2779200
0'
#2780000
0.
b0 /
0(
1,
1*
#2782800
b101011 4
1'
#2786400
0'
#2790000
b101100 4
1'
1.
0)
#2793600
0'
#2797200
b101101 4
1'
#2800000
0.
#2800800
0'
#2804400
b101110 4
1'
#2808000
0'
#2810000
b1 /
1(
0*
#2811600
b101111 4
1'
#2815200
0'
#2818800
b110000 4
1'
#2820000
0,
1*
#2822400
0'
#2826000
b110001 4
1'
#2829600
0'
#2830000
b0 0
0+
1)
0*
#2833200
1$
1<
11
b0 4
1'
#2836800
0'
#2840000
b1 0
1+
1,
1*
#2840400
b11 2
b110 =
01
b1 4
1'
#2844000
0'
#2847600
b10 4
1'
#2850000
b0 0
0+
0,
0)
#2851200
0'
#2854800
b11 4
1'
#2858400
0'
#2860000
1.
b0 /
0(
1)
#2862000
b100 4
1'
#2865600
0'
#2869200
b101 4
1'
#2870000
b1 0
1+
1,
0*
#2872800
0'
#2876400
b110 4
1'
#2880000
0'
0.
b0 0
0+
b1 /
1(
#2883600
b111 4
1'
#2887200
0'
#2890000
1.
0,
1*
#2890800
b1000 4
1'
#2894400
0'
#2898000
b1001 4
1'
#2900000
0.
b0 /
0(
1,
#2901600
0'
#2905200
b1010 4
b0 A
1'
#2908800
0'
#2910000
b1 0
1+
b1 /
1(
#2912400
b1 A
b1011 4
1'
#2916000
0'
#2919600
b1100 4
1'
#2920000
b0 0
0+
0,
0)
0*
#2923200
0'
#2926800
b1101 4
1'
#2930000
b1 0
1+
1*
