backend/rv_debug/tb_rv_debug.vcd
$date
	Fri Jun  5 11:45:44 2026
$end
$version
	Icarus Verilog
$end
$timescale
	1ps
$end
$scope module tb_rv_debug $end
$var wire 1 ! tdo $end
$var wire 1 " sb_wvalid $end
$var wire 1 # sb_wstrb $end
$var wire 1 $ sb_wlast $end
$var wire 1 % sb_wdata $end
$var wire 1 & sb_rready $end
$var wire 1 ' sb_bready $end
$var wire 1 ( sb_awvalid $end
$var wire 1 ) sb_awaddr $end
$var wire 1 * sb_arvalid $end
$var wire 1 + sb_araddr $end
$var wire 1 , resume_req $end
$var wire 1 - reg_wr $end
$var wire 1 . reg_wdata $end
$var wire 1 / reg_sel $end
$var wire 1 0 halt_req $end
$var wire 1 1 cmd_exec $end
$var reg 1 2 clk $end
$var reg 1 3 cmd_done $end
$var reg 1 4 cmd_err $end
$var reg 1 5 hart_halted $end
$var reg 1 6 hart_running $end
$var reg 1 7 hart_unavail $end
$var reg 1 8 reg_rdata $end
$var reg 1 9 rst_n $end
$var reg 1 : sb_arready $end
$var reg 1 ; sb_awready $end
$var reg 1 < sb_bvalid $end
$var reg 1 = sb_rdata $end
$var reg 1 > sb_rresp $end
$var reg 1 ? sb_rvalid $end
$var reg 1 @ sb_wready $end
$var reg 1 A tck $end
$var reg 1 B tdi $end
$var reg 1 C tms $end
$scope module uut $end
$var wire 1 2 clk $end
$var wire 1 3 cmd_done $end
$var wire 1 4 cmd_err $end
$var wire 5 D hart_halted [4:0] $end
$var wire 5 E hart_running [4:0] $end
$var wire 5 F hart_unavail [4:0] $end
$var wire 64 G reg_rdata [63:0] $end
$var wire 1 9 rst_n $end
$var wire 1 : sb_arready $end
$var wire 1 ; sb_awready $end
$var wire 1 < sb_bvalid $end
$var wire 64 H sb_rdata [63:0] $end
$var wire 2 I sb_rresp [1:0] $end
$var wire 1 ? sb_rvalid $end
$var wire 1 @ sb_wready $end
$var wire 1 A tck $end
$var wire 1 B tdi $end
$var wire 1 C tms $end
$var wire 32 J dmi_wdata [31:0] $end
$var wire 2 K dmi_op [1:0] $end
$var wire 7 L dmi_addr [6:0] $end
$var parameter 2 M DMI_NOP $end
$var parameter 2 N DMI_READ $end
$var parameter 2 O DMI_WRITE $end
$var parameter 7 P DM_ABSTRACTAUTO $end
$var parameter 7 Q DM_ABSTRACTCS $end
$var parameter 7 R DM_COMMAND $end
$var parameter 7 S DM_DATA0 $end
$var parameter 7 T DM_DATA1 $end
$var parameter 7 U DM_DMCONTROL $end
$var parameter 7 V DM_DMSTATUS $end
$var parameter 7 W DM_HARTINFO $end
$var parameter 7 X DM_PROGBUF0 $end
$var parameter 7 Y DM_SBADDRESS0 $end
$var parameter 7 Z DM_SBCS $end
$var parameter 7 [ DM_SBDATA0 $end
$var parameter 32 \ IDCODE_VAL $end
$var parameter 5 ] IR_BYPASS $end
$var parameter 5 ^ IR_DMI $end
$var parameter 5 _ IR_DTMCS $end
$var parameter 5 ` IR_IDCODE $end
$var parameter 32 a NUM_HARTS $end
$var parameter 32 b PROGBUF_SIZE $end
$var parameter 4 c TAP_CDR $end
$var parameter 4 d TAP_CIR $end
$var parameter 4 e TAP_E1DR $end
$var parameter 4 f TAP_E1IR $end
$var parameter 4 g TAP_E2DR $end
$var parameter 4 h TAP_E2IR $end
$var parameter 4 i TAP_PDR $end
$var parameter 4 j TAP_PIR $end
$var parameter 4 k TAP_RTI $end
$var parameter 4 l TAP_SDR $end
$var parameter 4 m TAP_SDR2 $end
$var parameter 4 n TAP_SIR $end
$var parameter 4 o TAP_TLR $end
$var parameter 4 p TAP_UDR $end
$var parameter 4 q TAP_UIR $end
$var reg 1 r busy $end
$var reg 1 1 cmd_exec $end
$var reg 3 s cmderr [2:0] $end
$var reg 32 t data0 [31:0] $end
$var reg 32 u data1 [31:0] $end
$var reg 1 v dmactive $end
$var reg 1 w dmi_req $end
$var reg 7 x dmi_req_addr [6:0] $end
$var reg 32 y dmi_req_data [31:0] $end
$var reg 2 z dmi_req_op [1:0] $end
$var reg 32 { dmi_resp_data [31:0] $end
$var reg 41 | dmi_sync0 [40:0] $end
$var reg 41 } dmi_sync1 [40:0] $end
$var reg 41 ~ dr_capture [40:0] $end
$var reg 41 !" dr_shift [40:0] $end
$var reg 5 "" halt_req [4:0] $end
$var reg 1 #" haltreq_r $end
$var reg 20 $" hartsel [19:0] $end
$var reg 5 %" ir [4:0] $end
$var reg 1 &" ndmreset $end
$var reg 5 '" reg_sel [4:0] $end
$var reg 64 (" reg_wdata [63:0] $end
$var reg 1 - reg_wr $end
$var reg 5 )" resume_req [4:0] $end
$var reg 1 *" resumereq_r $end
$var reg 40 +" sb_araddr [39:0] $end
$var reg 1 * sb_arvalid $end
$var reg 40 ," sb_awaddr [39:0] $end
$var reg 1 ( sb_awvalid $end
$var reg 1 ' sb_bready $end
$var reg 1 & sb_rready $end
$var reg 64 -" sb_wdata [63:0] $end
$var reg 1 $ sb_wlast $end
$var reg 8 ." sb_wstrb [7:0] $end
$var reg 1 " sb_wvalid $end
$var reg 40 /" sbaddress [39:0] $end
$var reg 4 0" tap_state [3:0] $end
$var reg 1 ! tdo $end
$var integer 32 1" pb [31:0] $end
$upscope $end
$upscope $end
$enddefinitions $end
$comment Show the parameter values. $end
$dumpall
b1011 q
b110 p
b0 o
b111 n
b1110 m
b10 l
b1 k
b1001 j
b100 i
b1010 h
b101 g
b1000 f
b11 e
b1101 d
b1100 c
b10000 b
b101 a
b1 `
b10000 _
b10001 ^
b11111 ]
b100000001000110000010011111101 \
b111100 [
b111000 Z
b111001 Y
b100000 X
b10010 W
b10001 V
b10000 U
b101 T
b100 S
b10111 R
b10110 Q
b11000 P
b10 O
b1 N
b0 M
$end
#0
$dumpvars
bx 1"
bx 0"
bx /"
bx ."
bx -"
bx ,"
bx +"
x*"
bx )"
bx ("
bx '"
x&"
bx %"
bx $"
x#"
bx ""
bx !"
bx ~
bx }
bx |
bx {
bx z
bx y
bx x
xw
xv
bx u
bx t
bx s
xr
bx L
bx K
bx J
b0 I
b0 H
b0 G
b0 F
b0 E
b0 D
0C
0B
0A
0@
0?
0>
0=
0<
0;
0:
x9
08
07
06
05
04
03
02
x1
x0
x/
x.
x-
x,
x+
x*
x)
x(
x'
x&
x%
x$
x#
x"
x!
$end
#3600
0,
b0 )"
01
12
#7200
02
#10000
00
0'
0&
0"
0(
0*
b0 u
b0 t
0r
b0 s
b0 ""
0v
b1 %"
b0 0"
b10000 1"
09
#10800
b10000 1"
12
#14400
02
#18000
b10000 1"
12
#21600
02
#25200
b10000 1"
12
#28800
02
#32400
b10000 1"
12
#36000
02
#39600
b10000 1"
12
#43200
02
#46800
b10000 1"
12
#50400
02
#54000
b10000 1"
12
#57600
02
#61200
b10000 1"
12
#64800
02
#68400
b10000 1"
12
#72000
02
#75600
b10000 1"
12
#79200
02
#82800
b10000 1"
12
#86400
02
#90000
b10000 1"
12
#93600
02
#97200
b10000 1"
12
#100800
02
#104400
b10000 1"
12
#108000
02
#110000
19
#111600
12
#115200
02
#118800
12
#122400
02
#126000
12
#129600
02
#133200
12
#136800
02
#140000
1@
b1 I
1>
b1 H
1=
1:
14
b1 G
18
b1 F
17
b1 E
16
b1 D
15
1B
1C
#140400
12
#144000
02
#147600
12
#150000
b1 0"
1;
04
b0 G
08
b0 E
06
0C
1A
#151200
02
#154800
12
#158400
02
#160000
b0 H
0=
14
13
b1 G
18
0B
0A
#162000
12
#165600
02
#169200
12
#170000
1<
0;
b0 I
0>
0:
b0 G
08
b0 F
07
b1 E
16
b0 D
05
#172800
02
#176400
12
#180000
b10 0"
02
0<
1;
b1 H
1=
1?
04
b1 G
18
b1 F
17
b0 E
06
1B
1C
1A
#183600
12
#187200
02
#190000
1<
0;
03
b0 G
08
b1 E
16
#190800
12
#194400
02
#198000
12
#200000
b0 H
0=
0?
b1 G
18
#201600
02
#205200
12
#208800
02
#210000
0<
1;
b1 I
1>
b1 H
1=
1:
14
b0 G
08
#212400
12
#216000
02
#219600
12
#220000
0;
b0 I
0>
b0 H
0=
1?
0:
04
13
b1 G
18
b0 F
07
b0 E
06
0C
0A
#223200
02
#226800
12
#230000
1<
b1 H
1=
0?
b1 F
17
b1 E
16
b1 D
15
0B
1C
#230400
02
#234000
12
#237600
02
#240000
0<
0@
1;
b0 H
0=
1:
14
03
b0 G
08
b0 F
07
0C
#241200
12
#244800
02
#248400
12
#250000
b0xxxxxxxxxxxxxxxxxxxxxxxxxxxxxxxxxxxxxxxx !"
0;
b1 I
1>
0:
04
13
b1 G
18
b0 D
05
1A
#252000
02
#255600
12
#259200
02
#260000
1@
1;
b1 H
1=
1?
b1 F
17
b0 E
06
b1 D
15
1B
1C
0A
#262800
12
#266400
02
#270000
b0xxxxxxxxxxxxxxxxxxxxxxxxxxxxxxxxxxxxxxx !"
b11 0"
12
0@
b0 I
0>
b0 H
0=
b0 F
07
b0 D
05
0B
1A
#273600
02
#277200
12
#280000
0;
b1 I
1>
0?
1:
03
b0 G
08
b1 F
17
b1 E
16
b1 D
15
0C
#280800
02
#284400
12
#288000
02
#290000
1<
1@
1;
b0 I
0>
b1 H
1=
1?
14
b1 G
18
b0 E
06
b0 D
05
1C
0A
#291600
12
#295200
02
#298800
12
#300000
0;
b1 I
1>
b0 H
0=
0?
04
1B
0C
#302400
02
#306000
12
#309600
02
#310000
0<
1;
b1 H
1=
1?
0:
b0 F
07
b1 D
15
0B
1C
#313200
12
#316800
02
#320000
b110 0"
1<
1:
b0 G
08
b0 D
05
1B
1A
#320400
12
#324000
02
#327600
12
#330000
0<
0@
0;
0?
0:
14
13
b1 G
18
b1 F
17
b1 E
16
b1 D
15
0A
#331200
02
#334800
12
#338400
02
#340000
b0 I
0>
03
b0 G
08
b0 F
07
b0 E
06
b0 D
05
0B
#342000
12
#345600
02
#349200
12
#350000
b0xxxxx L
b10 0"
b0xxxxxxxxxxxxxxxxxxxxxxxxxxxxxxxxxxxxxxx ~
1@
1;
b0 H
0=
1?
13
b1 G
18
b1 E
16
b1 D
15
1B
1A
#352800
02
#356400
b0xxxxxxxxxxxxxxxxxxxxxxxxxxxxxxxxxxxxxxx |
12
#360000
02
1<
b1 H
1=
1:
03
b0 G
08
b0 E
06
0B
0C
#363600
b0xxxxxxxxxxxxxxxxxxxxxxxxxxxxxxxxxxxxxxx }
12
#367200
02
#370000
0<
0@
0;
b0 H
0=
0:
04
13
b1 F
17
1B
1C
#370800
12
#374400
02
#378000
12
#380000
1<
1@
b1 I
1>
0?
1:
b0 F
07
b0 D
05
0B
0C
#381600
02
#385200
12
#388800
02
#390000
0@
1;
1?
0:
14
03
b1 D
15
1C
0A
#392400
12
#396000
02
#399600
12
#400000
0<
1@
b0 I
0>
1:
04
b1 G
18
b1 F
17
1B
#403200
02
#406800
12
#410000
0;
b1 I
1>
b1 H
1=
0?
0:
14
b0 G
08
b1 E
16
b0 D
05
0B
#410400
02
#414000
12
#417600
02
#420000
b0xxxxxxxxxxxxxxxxxxxxxxxxxxxxxxxxxxxxxx !"
b11 0"
1<
0@
b0 H
0=
1:
13
b1 D
15
1A
#421200
12
#424800
02
#428400
12
#430000
1;
b0 I
0>
1?
b0 E
06
1B
0C
0A
#432000
02
#435600
12
#439200
02
#440000
1@
0:
04
b1 G
18
b0 D
05
1C
#442800
12
#446400
02
#450000
12
b1 I
1>
0?
14
b0 F
07
#453600
02
#457200
12
#460000
b0 I
0>
1:
04
b1 F
17
b1 E
16
b1 D
15
#460800
02
#464400
12
#468000
02
#470000
b110 0"
0<
03
b0 G
08
1A
#471600
12
#475200
02
#478800
12
#480000
1<
0@
b1 I
1>
b1 H
1=
0:
13
b0 E
06
0C
0A
#482400
02
#486000
12
#489600
02
#490000
b0 I
0>
b0 H
0=
1?
1:
03
b0 F
07
b1 E
16
0B
1C
#493200
12
#496800
02
#500000
0<
1@
b1 I
1>
b1 H
1=
0:
b1 F
17
b0 D
05
1B
#500400
12
#504000
02
#507600
12
#510000
0@
0;
1:
14
13
b1 G
18
b0 F
07
b0 E
06
0B
0C
#511200
02
#514800
12
#518400
02
#520000
1<
1@
b0 I
0>
b0 H
0=
03
b1 E
16
b1 D
15
#522000
12
#525600
02
#529200
12
#530000
b1 H
1=
0?
0:
b0 G
08
b0 E
06
b0 D
05
1C
#532800
02
#536400
12
#540000
b0xxxx L
b1 0"
b0xxxxxxxxxxxxxxxxxxxxxxxxxxxxxxxxxxxxxx ~
02
0<
0@
1;
1?
1:
b1 G
18
b1 F
17
b1 E
16
b1 D
15
0C
1A
#543600
b0xxxxxxxxxxxxxxxxxxxxxxxxxxxxxxxxxxxxxx |
12
#547200
02
#550000
1<
1@
0;
0:
04
b0 G
08
b0 F
07
b0 E
06
#550800
b0xxxxxxxxxxxxxxxxxxxxxxxxxxxxxxxxxxxxxx }
12
#554400
02
#558000
12
#560000
1;
b1 G
18
b1 E
16
1B
1C
#561600
02
#565200
12
#568800
02
#570000
0<
0@
0;
b0 H
0=
0?
14
b1 F
17
b0 D
05
0B
0C
0A
#572400
12
#576000
02
#579600
12
#580000
1;
b1 I
1>
04
13
b1 D
15
1A
#583200
02
#586800
12
#590000
0;
b0 I
0>
1?
14
03
b0 G
08
b0 F
07
1B
1C
#590400
02
#594000
12
#597600
02
#600000
1<
1@
b1 H
1=
b1 G
18
b1 F
17
b0 E
06
0C
#601200
12
#604800
02
#608400
12
#610000
0@
b1 I
1>
1:
04
b1 E
16
b0 D
05
0B
0A
#612000
02
#615600
12
#619200
02
#620000
0<
1@
b0 I
0>
b0 H
0=
0?
0:
14
13
b0 G
08
b0 E
06
b1 D
15
1A
#622800
12
#626400
02
#630000
12
1<
0@
1;
b1 I
1>
b1 H
1=
1?
1:
04
b0 F
07
b1 E
16
b0 D
05
#633600
02
#637200
12
#640000
b0 I
0>
0?
14
b1 G
18
b1 F
17
b0 E
06
b1 D
15
#640800
02
#644400
12
#648000
02
#650000
0<
b1 I
1>
1?
04
03
b0 D
05
#651600
12
#655200
02
#658800
12
#660000
1<
0;
b0 I
0>
b0 H
0=
0:
13
b0 G
08
1B
0A
#662400
02
#666000
12
#669600
02
#670000
b1 I
1>
1:
14
1C
#673200
12
#676800
02
#680000
b10 0"
0<
1@
b0 I
0>
0:
b1 G
18
b1 E
16
b1 D
15
0B
1A
#680400
12
#684000
02
#687600
12
#690000
1<
0@
b1 I
1>
04
b0 G
08
b0 F
07
b0 E
06
b0 D
05
1B
0C
#691200
02
#694800
12
#698400
02
#700000
1@
b0 I
0>
b1 H
1=
0?
1:
14
b1 G
18
b1 E
16
b1 D
15
0B
#702000
12
#705600
02
#709200
12
#710000
0<
0@
b0 H
0=
1?
0:
03
b1 F
17
b0 D
05
1B
1C
0A
#712800
02
#716400
12
#720000
02
1<
1@
1;
b1 H
1=
04
0B
0C
#723600
12
#727200
02
#730000
0@
14
b0 G
08
b0 F
07
b0 E
06
b1 D
15
1B
#730800
12
#734400
02
#738000
12
#740000
b1000xxxxxxxxxxxxxxxxxxxxxxxxxxxxxxxxxxxxx !"
0<
1@
0;
b0 H
0=
0?
1:
04
13
b1 F
17
b1 E
16
1A
#741600
02
#745200
12
#748800
02
#750000
1<
1;
1?
14
03
b1 G
18
0B
#752400
12
#756000
02
#759600
12
#760000
0<
0@
0;
b1 I
1>
0?
b0 G
08
b0 E
06
b0 D
05
1B
1C
0A
#763200
02
#766800
12
#770000
b11000xxxxxxxxxxxxxxxxxxxxxxxxxxxxxxxxxxxx !"
b11 0"
1<
1;
b0 I
0>
b1 H
1=
04
13
b1 E
16
b1 D
15
1A
#770400
02
#774000
12
#777600
02
#780000
0<
1@
b1 I
1>
1?
0:
b0 F
07
b0 E
06
0B
0A
#781200
12
#784800
02
#788400
12
#790000
b110 0"
1<
b0 I
0>
0?
1:
14
b1 G
18
b1 F
17
1A
#792000
02
#795600
12
#799200
02
#800000
0;
b0 H
0=
1?
04
03
b0 G
08
b1 E
16
1B
0C
#802800
12
#806400
02
#810000
12
0<
0@
b1 H
1=
0:
b0 F
07
b0 E
06
0B
#813600
02
#817200
12
#820000
1@
1;
b1 I
1>
b1 F
17
b1 E
16
1B
1C
0A
#820800
02
#824400
12
#828000
02
#830000
1<
0@
0;
b0 I
0>
1:
14
b1 G
18
b0 F
07
b0 E
06
b0 D
05
0C
#831600
12
#835200
02
#838800
12
#840000
b11000xx L
b10 0"
b11000xxxxxxxxxxxxxxxxxxxxxxxxxxxxxxxxxxxx ~
1;
b0 H
0=
0?
13
b0 G
08
0B
1C
1A
#842400
02
#846000
b11000xxxxxxxxxxxxxxxxxxxxxxxxxxxxxxxxxxxx |
12
#849600
02
#850000
0<
1@
0;
1?
0:
04
b1 G
18
b1 E
16
b1 D
15
1B
0A
#853200
b11000xxxxxxxxxxxxxxxxxxxxxxxxxxxxxxxxxxxx }
12
#856800
02
#860000
0@
b1 H
1=
1:
b0 G
08
b1 F
17
0B
#860400
12
#864000
02
#867600
12
#870000
1@
1;
b1 I
1>
b0 H
0=
0?
14
b1 G
18
0C
#871200
02
#874800
12
#878400
02
#880000
b11000xxxxxxxxxxxxxxxxxxxxxxxxxxxxxxxxxxx !"
b11 0"
0@
0;
b1 H
1=
04
b0 E
06
1C
1A
#882000
12
#885600
02
#889200
12
#890000
1<
1;
b0 H
0=
1?
0:
03
b0 F
07
b0 D
05
0C
#892800
02
#896400
12
#900000
02
0<
1@
13
b1 F
17
b1 E
16
0A
#903600
12
#907200
02
#910000
b110 0"
0;
b1 H
1=
03
b1 D
15
1C
1A
#910800
12
#914400
02
#918000
12
#920000
1;
b0 H
0=
1:
13
b0 G
08
b0 E
06
b0 D
05
1B
0A
#921600
02
#925200
12
#928800
02
#930000
0@
0;
b1 H
1=
0?
0:
14
03
0C
#932400
12
#936000
02
#939600
12
#940000
b11000x L
b10 0"
b11000xxxxxxxxxxxxxxxxxxxxxxxxxxxxxxxxxxx ~
1<
1;
b0 H
0=
1?
1:
b1 G
18
b0 F
07
b1 E
16
b1 D
15
0B
1C
1A
#943200
02
#946800
b11000xxxxxxxxxxxxxxxxxxxxxxxxxxxxxxxxxxx |
12
#950000
0;
b1 H
1=
0:
04
13
b1 F
17
b0 D
05
0A
#950400
02
#954000
b11000xxxxxxxxxxxxxxxxxxxxxxxxxxxxxxxxxxx }
12
#957600
02
#960000
b1011000xxxxxxxxxxxxxxxxxxxxxxxxxxxxxxxxxx !"
0<
1@
b0 I
0>
0?
b0 G
08
b1 D
15
1B
0C
1A
#961200
12
#964800
02
#968400
12
#970000
0@
b1 I
1>
1:
14
03
b0 F
07
b0 D
05
0B
#972000
02
#975600
12
#979200
02
#980000
1<
1@
04
13
b1 F
17
b0 E
06
b1 D
15
1B
#982800
12
#986400
02
#990000
12
0<
0@
b0 I
0>
b0 H
0=
1?
0:
03
b1 G
18
b0 F
07
0B
1C
0A
#993600
02
#997200
12
#1000000
1;
b1 I
1>
b1 H
1=
1:
13
b0 G
08
b1 E
16
1B
0C
#1000800
02
#1004400
12
#1008000
02
#1010000
1@
0;
0:
03
b1 G
18
b1 F
17
0B
#1011600
12
#1015200
02
#1018800
12
#1020000
b1011000xxxxxxxxxxxxxxxxxxxxxxxxxxxxxxxxx !"
1<
1;
0?
b0 G
08
b0 F
07
b0 E
06
b0 D
05
1A
#1022400
02
#1026000
12
#1029600
02
#1030000
0<
b0 H
0=
13
b1 F
17
b1 D
15
1B
0A
#1033200
12
#1036800
02
#1040000
b1011000xxxxxxxxxxxxxxxxxxxxxxxxxxxxxxxx !"
b11 0"
1<
b1 H
1=
14
b0 F
07
0B
1C
1A
#1040400
12
#1044000
02
#1047600
12
#1050000
0<
0@
0;
b0 H
0=
1?
1:
03
b1 G
18
b1 E
16
0C
0A
#1051200
02
#1054800
12
#1058400
02
#1060000
1@
1;
b0 I
0>
b1 H
1=
0?
b0 G
08
1C
#1062000
12
#1065600
02
#1069200
12
#1070000
b110 0"
1<
0@
b1 I
1>
1?
04
13
b1 G
18
b1 F
17
b0 D
05
1B
1A
#1072800
02
#1076400
12
#1080000
02
b0 I
0>
b0 H
0=
0?
0:
14
03
b0 E
06
b1 D
15
0B
#1083600
12
#1087200
02
#1090000
b1 I
1>
1?
1:
13
b0 G
08
b0 D
05
1B
0A
#1090800
12
#1094400
02
#1098000
12
#1100000
1@
b0 I
0>
0?
0:
03
b1 E
16
#1101600
02
#1105200
12
#1108800
02
#1110000
0@
1:
04
b1 G
18
b0 F
07
b0 E
06
0C
#1112400
12
#1116000
02
#1119600
12
#1120000
b10110 L
b0xxxxxxxxxxxxxxxxxxxxxxxxxxxxxx J
b10 0"
b1011000xxxxxxxxxxxxxxxxxxxxxxxxxxxxxxxx ~
1@
b1 H
1=
0:
14
b1 F
17
1C
1A
#1123200
02
#1126800
b1011000xxxxxxxxxxxxxxxxxxxxxxxxxxxxxxxx |
12
#1130000
0<
0;
b1 I
1>
1?
b0 F
07
b1 E
16
#1130400
02
#1134000
b1011000xxxxxxxxxxxxxxxxxxxxxxxxxxxxxxxx }
12
#1137600
02
#1140000
1<
0@
0?
b1 F
17
0B
0C
#1141200
12
#1144800
02
#1148400
12
#1150000
0<
1;
b0 I
0>
b0 H
0=
1?
13
1C
0A
#1152000
02
#1155600
12
#1159200
02
#1160000
b1011000xxxxxxxxxxxxxxxxxxxxxxxxxxxxxxx !"
b11 0"
1<
1@
b1 H
1=
b0 G
08
b0 E
06
1A
#1162800
12
#1166400
02
#1170000
12
0;
b0 H
0=
1:
b1 D
15
1B
0C
0A
#1173600
02
#1177200
12
#1180000
b110 0"
0<
1;
0:
04
b0 F
07
b0 D
05
1C
1A
#1180800
02
#1184400
12
#1188000
02
#1190000
0@
b1 H
1=
0?
03
b1 E
16
0C
#1191600
12
#1195200
02
#1198800
12
#1200000
0;
13
b1 D
15
0B
#1202400
02
#1206000
12
#1209600
02
#1210000
1@
1;
b0 H
0=
03
b1 F
17
b0 D
05
1B
1C
0A
#1213200
12
#1216800
02
#1220000
1<
b1 H
1=
1:
b0 F
07
b1 D
15
#1220400
12
#1224000
02
#1227600
12
#1230000
b1011 L
b0xxxxxxxxxxxxxxxxxxxxxxxxxxxxx J
b10 0"
b1011000xxxxxxxxxxxxxxxxxxxxxxxxxxxxxxx ~
0<
1?
0:
13
b1 G
18
b1 F
17
b0 E
06
0B
1A
#1231200
02
#1234800
b1011000xxxxxxxxxxxxxxxxxxxxxxxxxxxxxxx |
12
#1238400
02
#1240000
1<
b1 I
1>
b0 H
0=
1:
b0 G
08
b0 D
05
1B
0A
#1242000
b1011000xxxxxxxxxxxxxxxxxxxxxxxxxxxxxxx }
12
#1245600
02
#1249200
12
#1250000
b10001011000xxxxxxxxxxxxxxxxxxxxxxxxxxxxxx !"
b11 0"
0<
0@
b1 H
1=
0:
14
b1 G
18
b1 E
16
1A
#1252800
02
#1256400
12
#1260000
02
0;
b0 I
0>
b0 H
0=
03
b0 F
07
b1 D
15
0B
#1263600
12
#1267200
02
#1270000
b1 I
1>
b1 H
1=
1:
04
0C
0A
#1270800
12
#1274400
02
#1278000
12
#1280000
b110 0"
1@
1;
b0 I
0>
0:
14
b0 E
06
b0 D
05
1B
1C
1A
#1281600
02
#1285200
12
#1288800
02
#1290000
1<
0;
b0 H
0=
0?
04
0B
#1292400
12
#1296000
02
#1299600
12
#1300000
0<
0@
b1 I
1>
b1 D
15
1B
0C
#1303200
02
#1306800
12
#1310000
1<
1@
1;
b0 I
0>
1?
14
13
b1 F
17
b1 E
16
1C
#1310400
02
#1314000
12
#1317600
02
#1320000
0<
0@
b1 I
1>
b1 H
1=
0?
04
03
b0 G
08
b0 E
06
b0 D
05
0C
0A
#1321200
12
#1324800
02
#1328400
12
#1330000
b1000101 L
b1000xxxxxxxxxxxxxxxxxxxxxxxxxxxx J
b1 0"
b10001011000xxxxxxxxxxxxxxxxxxxxxxxxxxxxxx ~
1<
1@
b0 H
0=
b1 G
18
b0 F
07
b1 E
16
b1 D
15
1A
#1332000
02
#1335600
b10001011000xxxxxxxxxxxxxxxxxxxxxxxxxxxxxx |
12
#1339200
02
#1340000
0@
b0 G
08
b1 F
17
0B
#1342800
b10001011000xxxxxxxxxxxxxxxxxxxxxxxxxxxxxx }
12
#1346400
02
#1350000
12
b1 H
1=
1?
b0 F
07
b0 E
06
b0 D
05
1B
0A
#1353600
02
#1357200
12
#1360000
0<
1@
b0 I
0>
b0 H
0=
1:
b1 G
18
b1 E
16
0B
#1360800
02
#1364400
12
#1368000
02
#1370000
0@
0;
b1 I
1>
0:
13
b0 G
08
b1 F
17
b0 E
06
1B
1A
#1371600
12
#1375200
02
#1378800
12
#1380000
1@
1;
b1 H
1=
1:
14
03
b0 F
07
b1 E
16
b1 D
15
0B
0A
#1382400
02
#1386000
12
#1389600
02
#1390000
0@
b0 I
0>
b1 G
18
b1 F
17
1C
#1393200
12
#1396800
02
#1400000
1@
0;
b0 H
0=
0?
04
b0 F
07
b0 E
06
1B
#1400400
12
#1404000
02
#1407600
12
#1410000
1<
1;
b1 H
1=
1?
0:
14
b0 G
08
0B
#1411200
02
#1414800
12
#1418400
02
#1420000
0<
0;
b1 I
1>
1:
1B
0C
1A
#1422000
12
#1425600
02
#1429200
12
#1430000
1;
0?
04
13
b1 G
18
b0 D
05
#1432800
02
#1436400
12
#1440000
02
0;
b0 H
0=
b0 G
08
b1 E
16
0A
#1443600
12
#1447200
02
#1450000
1<
0@
b0 I
0>
0:
14
b1 G
18
b1 D
15
1C
#1450800
12
#1454400
02
#1458000
12
#1460000
0<
b1 I
1>
1:
04
b0 G
08
b0 D
05
0B
0C
#1461600
02
#1465200
12
#1468800
02
#1470000
1<
1@
b0 I
0>
b1 H
1=
1?
03
b1 G
18
b0 E
06
b1 D
15
1C
#1472400
12
#1476000
02
#1479600
12
#1480000
b1 I
1>
0:
b0 G
08
b1 F
17
b1 E
16
1B
0C
1A
#1483200
02
#1486800
12
#1490000
0<
0@
b0 I
0>
b0 H
0=
0?
b0 E
06
b0 D
05
0B
0A
#1490400
02
#1494000
12
#1497600
02
#1500000
1<
1;
b1 I
1>
1:
14
b0 F
07
1B
#1501200
12
#1504800
02
#1508400
12
#1510000
0<
0;
b0 I
0>
b1 H
1=
1?
13
b1 F
17
b1 E
16
0B
#1512000
02
#1515600
12
#1519200
02
#1520000
1<
1;
b0 H
0=
0?
0:
04
03
b1 G
18
b1 D
15
1B
1A
#1522800
12
#1526400
02
#1530000
12
0<
0;
1?
1:
13
b0 G
08
b0 F
07
0B
1C
0A
#1533600
02
#1537200
12
#1540000
1<
1;
0?
0:
14
03
b1 G
18
b1 F
17
b0 E
06
b0 D
05
0C
1A
#1540800
02
#1544400
12
#1548000
02
#1550000
0<
1@
0;
b1 I
1>
b1 H
1=
1?
04
b0 F
07
b1 E
16
1C
0A
#1551600
12
#1555200
02
#1558800
12
#1560000
0@
0?
1:
b1 D
15
1B
0C
1A
#1562400
02
#1566000
12
#1569600
02
#1570000
1@
1;
b0 I
0>
b0 H
0=
0:
13
b0 D
05
1C
0A
#1573200
12
#1576800
02
#1580000
b10 0"
0@
03
b1 F
17
b0 E
06
1A
#1580400
12
#1584000
02
#1587600
12
#1590000
1<
1@
b1 H
1=
1?
1:
14
13
b1 E
16
b1 D
15
0A
#1591200
02
#1594800
12
#1598400
02
#1600000
0@
b1 I
1>
0?
03
b0 G
08
b0 F
07
b0 E
06
b0 D
05
0B
0C
#1602000
12
#1605600
02
#1609200
12
#1610000
b10001011000xxxxxxxxxxxxxxxxxxxxxxxxxxxxx !"
0<
1@
0:
04
13
b1 G
18
b1 F
17
1A
#1612800
02
#1616400
12
#1620000
02
1<
0@
b0 I
0>
b0 H
0=
1?
1:
03
b1 E
16
0A
#1623600
12
#1627200
02
#1630000
b1010001011000xxxxxxxxxxxxxxxxxxxxxxxxxxxx !"
0<
1@
b1 I
1>
14
b0 G
08
b0 E
06
1B
1A
#1630800
12
#1634400
02
#1638000
12
#1640000
0@
0;
b1 G
18
#1641600
02
#1645200
12
#1648800
02
#1650000
1@
1;
b0 I
0>
b1 H
1=
0?
04
13
b1 E
16
b1 D
15
#1652400
12
#1656000
02
#1659600
12
#1660000
1<
0;
b0 H
0=
1?
b0 D
05
0A
#1663200
02
#1666800
12
#1670000
b1010001011000xxxxxxxxxxxxxxxxxxxxxxxxxxx !"
b11 0"
0@
b1 I
1>
b1 H
1=
0:
14
b1 D
15
0B
1C
1A
#1670400
02
#1674000
12
#1677600
02
#1680000
0<
b0 I
0>
04
03
b0 G
08
#1681200
12
#1684800
02
#1688400
12
#1690000
1<
1@
1;
b1 I
1>
0?
1:
13
b0 E
06
1B
0A
#1692000
02
#1695600
12
#1699200
02
#1700000
b110 0"
0@
0:
14
b1 G
18
0B
1A
#1702800
12
#1706400
02
#1710000
12
0<
1@
b0 H
0=
1?
1:
04
b0 F
07
b1 E
16
b0 D
05
0C
0A
#1713600
02
#1717200
12
#1720000
1<
0@
0?
14
b0 G
08
b1 F
17
b1 D
15
1B
1C
#1720800
02
#1724400
12
#1728000
02
#1730000
b0 I
0>
b1 H
1=
1?
0:
03
b0 E
06
b0 D
05
0B
0C
#1731600
12
#1735200
02
#1738800
12
#1740000
b101000 L
b1011000xxxxxxxxxxxxxxxxxxxxxxxxx J
b1 0"
b1010001011000xxxxxxxxxxxxxxxxxxxxxxxxxxx ~
0<
1@
b1 I
1>
b0 H
0=
1:
04
b1 G
18
b1 D
15
1B
1A
#1742400
02
#1746000
b1010001011000xxxxxxxxxxxxxxxxxxxxxxxxxxx |
12
#1749600
02
#1750000
1<
0@
0;
b0 I
0>
0?
0:
0A
#1753200
b1010001011000xxxxxxxxxxxxxxxxxxxxxxxxxxx }
12
#1756800
02
#1760000
0<
1;
b1 H
1=
14
b0 G
08
b0 F
07
b1 E
16
1C
#1760400
12
