memory/ddr_phy_if/tb_ddr_phy_if.vcd
$date
	Fri Jun  5 15:03:04 2026
$end
$version
	Icarus Verilog
$end
$timescale
	1ps
$end
$scope module tb_ddr_phy_if $end
$var wire 1 ! dfi_rddata_valid $end
$var wire 64 " dfi_rddata [63:0] $end
$var wire 1 # ddr_we_n $end
$var wire 1 $ ddr_ras_n $end
$var wire 8 % ddr_dqs_p [7:0] $end
$var wire 8 & ddr_dqs_n [7:0] $end
$var wire 64 ' ddr_dq [63:0] $end
$var wire 8 ( ddr_dm [7:0] $end
$var wire 1 ) ddr_cs_n $end
$var wire 1 * ddr_cke $end
$var wire 1 + ddr_ck_p $end
$var wire 1 , ddr_ck_n $end
$var wire 1 - ddr_cas_n $end
$var wire 3 . ddr_ba [2:0] $end
$var wire 16 / ddr_addr [15:0] $end
$var reg 1 0 clk $end
$var reg 16 1 dfi_addr [15:0] $end
$var reg 3 2 dfi_bank [2:0] $end
$var reg 1 3 dfi_cas_n $end
$var reg 1 4 dfi_ck_en $end
$var reg 1 5 dfi_cs_n $end
$var reg 1 6 dfi_ras_n $end
$var reg 1 7 dfi_we_n $end
$var reg 64 8 dfi_wrdata [63:0] $end
$var reg 8 9 dfi_wrdata_mask [7:0] $end
$var reg 1 : dfi_wrdata_valid $end
$var reg 1 ; rst_n $end
$scope module uut $end
$var wire 1 0 clk $end
$var wire 16 < ddr_addr [15:0] $end
$var wire 3 = ddr_ba [2:0] $end
$var wire 1 - ddr_cas_n $end
$var wire 1 * ddr_cke $end
$var wire 1 ) ddr_cs_n $end
$var wire 1 $ ddr_ras_n $end
$var wire 1 # ddr_we_n $end
$var wire 16 > dfi_addr [15:0] $end
$var wire 3 ? dfi_bank [2:0] $end
$var wire 1 3 dfi_cas_n $end
$var wire 1 4 dfi_ck_en $end
$var wire 1 5 dfi_cs_n $end
$var wire 1 6 dfi_ras_n $end
$var wire 1 7 dfi_we_n $end
$var wire 64 @ dfi_wrdata [63:0] $end
$var wire 8 A dfi_wrdata_mask [7:0] $end
$var wire 1 : dfi_wrdata_valid $end
$var wire 1 B dqs_drive $end
$var wire 1 ; rst_n $end
$var wire 8 C ddr_dqs_p [7:0] $end
$var wire 8 D ddr_dqs_n [7:0] $end
$var wire 64 E ddr_dq [63:0] $end
$var wire 8 F ddr_dm [7:0] $end
$var reg 1 , ddr_ck_n $end
$var reg 1 + ddr_ck_p $end
$var reg 64 G dfi_rddata [63:0] $end
$var reg 1 ! dfi_rddata_valid $end
$var reg 1 H dfi_rddata_valid_d $end
$upscope $end
$upscope $end
$enddefinitions $end
$comment Show the parameter values. $end
$dumpall
$end
#0
$dumpvars
xH
bx G
b0 F
bz E
bz D
bz C
0B
b0 A
b0 @
b0 ?
b0 >
b0 =
b0 <
x;
0:
b0 9
b0 8
07
06
05
04
03
b0 2
b0 1
00
b0 /
b0 .
0-
x,
x+
0*
0)
b0 (
bz '
bz &
bz %
0$
0#
bx "
x!
$end
#3600
0,
0+
bz "
bz G
1H
10
#7200
00
#10000
0H
0!
b0 "
b0 G
1,
0;
#10800
10
#14400
00
#18000
10
#21600
00
#25200
10
#28800
00
#32400
10
#36000
00
#39600
10
#43200
00
#46800
10
#50400
00
#54000
10
#57600
00
#61200
10
#64800
00
#68400
10
#72000
00
#75600
10
#79200
00
#82800
10
#86400
00
#90000
10
#93600
00
#97200
10
#100800
00
#104400
10
#108000
00
#110000
1;
#111600
0,
bz "
bz G
1H
10
#115200
00
#118800
1!
10
#122400
00
#126000
10
#129600
00
#133200
10
#136800
00
#140000
b1101 9
b1101 A
b111100111110001100000001 8
b111100111110001100000001 @
b1000010001100101 /
b1000010001100101 <
b1000010001100101 1
b1000010001100101 >
b101 .
b101 =
b101 2
b101 ?
1#
17
1-
13
1$
16
1)
15
#140400
0H
10
#144000
00
#147600
0!
10
#150000
b1110111 9
b1110111 A
b1110010101011111111011111100101 8
b1110010101011111111011111100101 @
b1000010011000101 /
b1000010011000101 <
b1000010011000101 1
b1000010011000101 >
b110 .
b110 =
b110 2
b110 ?
0-
03
#151200
00
#154800
10
#158400
00
#160000
b0 %
b0 C
b0 &
b0 D
b1100101 (
b1100101 F
b1111111111111111111111111111111110010110101010110101100000101101 '
b1111111111111111111111111111111110010110101010110101100000101101 E
b1100101 9
b1100101 A
b1111111111111111111111111111111110010110101010110101100000101101 8
b1111111111111111111111111111111110010110101010110101100000101101 @
1B
1:
b100100101011100 /
b100100101011100 <
b100100101011100 1
b100100101011100 >
b101 .
b101 =
b101 2
b101 ?
0#
07
0$
06
#162000
10
#165600
00
#169200
10
#170000
b1010011 (
b1010011 F
b1111111111111111111111111111111110000110101111000011100000001101 '
b1111111111111111111111111111111110000110101111000011100000001101 E
b1010011 9
b1010011 A
b1111111111111111111111111111111110000110101111000011100000001101 8
b1111111111111111111111111111111110000110101111000011100000001101 @
b11111010010110 /
b11111010010110 <
b11111010010110 1
b11111010010110 >
0)
05
1*
14
#172800
00
#176400
b11111111 &
b11111111 D
b11111111 %
b11111111 C
1,
1+
10
#180000
bz %
bz C
bz &
bz D
b0 (
b0 F
bz '
bz E
00
b111100 9
b111100 A
b1111111111111111111111111111111111100101011100110000101011001010 8
b1111111111111111111111111111111111100101011100110000101011001010 @
0B
0:
b100100100100011 /
b100100100100011 <
b100100100100011 1
b100100100100011 >
b111 .
b111 =
b111 2
b111 ?
1#
17
1)
15
#183600
0,
0+
10
#187200
00
#190000
b10101110 9
b10101110 A
b1100011010010111111100111000110 8
b1100011010010111111100111000110 @
b110111101011 /
b110111101011 <
b110111101011 1
b110111101011 >
b1 .
b1 =
b1 2
b1 ?
0#
07
1$
16
0)
05
0*
04
#190800
1H
10
#194400
00
#198000
1!
10
#200000
b10101 9
b10101 A
b1111111111111111111111111111111110111111001000110011001001111110 8
b1111111111111111111111111111111110111111001000110011001001111110 @
b110000000111011 /
b110000000111011 <
b110000000111011 1
b110000000111011 >
b111 .
b111 =
b111 2
b111 ?
1#
17
1-
13
#201600
00
#205200
0H
10
#208800
00
#210000
b0 %
b0 C
b0 &
b0 D
b1011100 (
b1011100 F
b1111111111111111111111111111111111001111110001000101011010011111 '
b1111111111111111111111111111111111001111110001000101011010011111 E
b1011100 9
b1011100 A
b1111111111111111111111111111111111001111110001000101011010011111 8
b1111111111111111111111111111111111001111110001000101011010011111 @
1B
1:
b1010100111111000 /
b1010100111111000 <
b1010100111111000 1
b1010100111111000 >
0-
03
0$
06
1)
15
1*
14
#212400
b11111111 &
b11111111 D
b11111111 %
b11111111 C
1,
1+
0!
10
#216000
00
#219600
b0 &
b0 D
b0 %
b0 C
0,
0+
10
#220000
bz %
bz C
bz &
bz D
b0 (
b0 F
bz '
bz E
b11001000 9
b11001000 A
b1111111111111111111111111111111111100001001011001100111011000010 8
b1111111111111111111111111111111111100001001011001100111011000010 @
0B
0:
b10111110010110 /
b10111110010110 <
b10111110010110 1
b10111110010110 >
b1 .
b1 =
b1 2
b1 ?
1$
16
#223200
00
#226800
1,
1+
10
#230000
b11111111 %
b11111111 C
b11111111 &
b11111111 D
b1111000 (
b1111000 F
b1000010110110010010111110000101 '
b1000010110110010010111110000101 E
b1111000 9
b1111000 A
b1000010110110010010111110000101 8
b1000010110110010010111110000101 @
1B
1:
b1000111100011111 /
b1000111100011111 <
b1000111100011111 1
b1000111100011111 >
0$
06
#230400
00
#234000
b0 &
b0 D
b0 %
b0 C
0,
0+
10
#237600
00
#240000
bz %
bz C
bz &
bz D
b0 (
b0 F
bz '
bz E
b100110 9
b100110 A
b1111101001101011001100111111010 8
b1111101001101011001100111111010 @
0B
0:
b110010001110 /
b110010001110 <
b110010001110 1
b110010001110 >
b110 .
b110 =
b110 2
b110 ?
0#
07
1$
16
#241200
1,
1+
10
#244800
00
#248400
0,
0+
10
#250000
b0 %
b0 C
b0 &
b0 D
b1011010 (
b1011010 F
b1111111111111111111111111111111111110011000010010001101011100110 '
b1111111111111111111111111111111111110011000010010001101011100110 E
b1011010 9
b1011010 A
b1111111111111111111111111111111111110011000010010001101011100110 8
b1111111111111111111111111111111111110011000010010001101011100110 @
1B
1:
b1111110111110111 /
b1111110111110111 <
b1111110111110111 1
b1111110111110111 >
b100 .
b100 =
b100 2
b100 ?
1#
17
1-
13
#252000
00
#255600
b11111111 &
b11111111 D
b11111111 %
b11111111 C
1,
1+
10
#259200
00
#260000
bz %
bz C
bz &
bz D
b0 (
b0 F
bz '
bz E
b101010 9
b101010 A
b1111111111111111111111111111111111101000011101000000110011010000 8
b1111111111111111111111111111111111101000011101000000110011010000 @
0B
0:
b1100101111001 /
b1100101111001 <
b1100101111001 1
b1100101111001 >
b111 .
b111 =
b111 2
b111 ?
0$
06
#262800
0,
0+
10
#266400
00
#270000
1,
1+
1H
10
b1010 9
b1010 A
b1111111111111111111111111111111110110011110110010111011001100111 8
b1111111111111111111111111111111110110011110110010111011001100111 @
b1110110101010110 /
b1110110101010110 <
b1110110101010110 1
b1110110101010110 >
b11 .
b11 =
b11 2
b11 ?
0-
03
0)
05
#273600
00
#277200
1!
0,
0+
10
#280000
b0 %
b0 C
b0 &
b0 D
b1001101 (
b1001101 F
b1101101110010110110100111011011 '
b1101101110010110110100111011011 E
b1001101 9
b1001101 A
b1101101110010110110100111011011 8
b1101101110010110110100111011011 @
1B
1:
b10110000000100 /
b10110000000100 <
b10110000000100 1
b10110000000100 >
0#
07
1$
16
0*
04
#280800
00
#284400
0H
10
#288000
00
#290000
bz %
bz C
bz &
bz D
b0 (
b0 F
bz '
bz E
b1101001 9
b1101001 A
b1111011110100100110000111110111 8
b1111011110100100110000111110111 @
0B
0:
b1101001000110 /
b1101001000110 <
b1101001000110 1
b1101001000110 >
b101 .
b101 =
b101 2
b101 ?
0$
06
1)
15
1*
14
#291600
0!
1,
1+
10
#295200
00
#298800
0,
0+
10
#300000
b101001 9
b101001 A
b1111111111111111111111111111111111111110101001111010011011111101 8
b1111111111111111111111111111111111111110101001111010011011111101 @
b1110010000001000 /
b1110010000001000 <
b1110010000001000 1
b1110010000001000 >
b110 .
b110 =
b110 2
b110 ?
1#
17
1-
13
0)
05
0*
04
#302400
00
#306000
10
#309600
00
#310000
b11111010 9
b11111010 A
b101111001110101011001101011110 8
b101111001110101011001101011110 @
b10001110011 /
b10001110011 <
b10001110011 1
b10001110011 >
b0 .
b0 =
b0 2
b0 ?
0#
07
#313200
10
#316800
00
#320000
b11011100 9
b11011100 A
b111110100110011000001101111101 8
b111110100110011000001101111101 @
b1001111100100110 /
b1001111100100110 <
b1001111100100110 1
b1001111100100110 >
1$
16
1*
14
#320400
1,
1+
10
#324000
00
#327600
0,
0+
10
#330000
b0 %
b0 C
b0 &
b0 D
b10100001 (
b10100001 F
b1011100101000000100100010111 '
b1011100101000000100100010111 E
b10100001 9
b10100001 A
b1011100101000000100100010111 8
b1011100101000000100100010111 @
1B
1:
b1110010011111010 /
b1110010011111010 <
b1110010011111010 1
b1110010011111010 >
b1 .
b1 =
b1 2
b1 ?
1#
17
0$
06
0*
04
#331200
00
#334800
10
#338400
00
#340000
bz %
bz C
bz &
bz D
b0 (
b0 F
bz '
bz E
b1110011 9
b1110011 A
b100101101100100111101101001011 8
b100101101100100111101101001011 @
0B
0:
b111010011000101 /
b111010011000101 <
b111010011000101 1
b111010011000101 >
1$
16
#342000
10
#345600
00
#349200
10
#350000
b101010 9
b101010 A
b1111111111111111111111111111111111001111110101101100000010011111 8
b1111111111111111111111111111111111001111110101101100000010011111 @
b1011100100001110 /
b1011100100001110 <
b1011100100001110 1
b1011100100001110 >
0-
03
0$
06
#352800
00
#356400
1H
10
#360000
b0 %
b0 C
b0 &
b0 D
b11000111 (
b11000111 F
b110101101000001100100101101011 '
b110101101000001100100101101011 E
00
b11000111 9
b11000111 A
b110101101000001100100101101011 8
b110101101000001100100101101011 @
1B
1:
b100010111001010 /
b100010111001010 <
b100010111001010 1
b100010111001010 >
b0 .
b0 =
b0 2
b0 ?
1)
15
#363600
1!
0H
10
#367200
00
#370000
bz %
bz C
bz &
bz D
b0 (
b0 F
bz '
bz E
b11110010 9
b11110010 A
b1111101011011011111010111111010 8
b1111101011011011111010111111010 @
0B
0:
b11101101111111 /
b11101101111111 <
b11101101111111 1
b11101101111111 >
b100 .
b100 =
b100 2
b100 ?
0#
07
1-
13
0)
05
#370800
0!
10
#374400
00
#378000
10
#380000
b1011 9
b1011 A
b1111111111111111111111111111111111111101100010110110101011111011 8
b1111111111111111111111111111111111111101100010110110101011111011 @
b1010100010100001 /
b1010100010100001 <
b1010100010100001 1
b1010100010100001 >
b1 .
b1 =
b1 2
b1 ?
0-
03
1)
15
#381600
00
#385200
10
#388800
00
#390000
b10010010 9
b10010010 A
b1001101111100111000000110011011 8
b1001101111100111000000110011011 @
b1110011110001000 /
b1110011110001000 <
b1110011110001000 1
b1110011110001000 >
b11 .
b11 =
b11 2
b11 ?
1#
17
1-
13
1*
14
#392400
1,
1+
10
#396000
00
#399600
0,
0+
10
#400000
b10000110 9
b10000110 A
b1101000101011100001101111010001 8
b1101000101011100001101111010001 @
b1111110111101100 /
b1111110111101100 <
b1111110111101100 1
b1111110111101100 >
b101 .
b101 =
b101 2
b101 ?
0#
07
0-
03
1$
16
0*
04
#403200
00
#406800
10
#410000
b11011000 9
b11011000 A
b111001101011000000001101110011 8
b111001101011000000001101110011 @
b1111101011100010 /
b1111101011100010 <
b1111101011100010 1
b1111101011100010 >
b11 .
b11 =
b11 2
b11 ?
1-
13
0$
06
1*
14
#410400
00
#414000
1,
1+
10
#417600
00
#420000
b10100001 9
b10100001 A
b10011101101010101010100100111 8
b10011101101010101010100100111 @
b101110110000001 /
b101110110000001 <
b101110110000001 1
b101110110000001 >
1#
17
1$
16
0)
05
0*
04
#421200
0,
0+
10
#424800
00
#428400
10
#430000
b0 %
b0 C
b0 &
b0 D
b11101101 (
b11101101 F
b101010110000101101010101010101 '
b101010110000101101010101010101 E
b11101101 9
b11101101 A
b101010110000101101010101010101 8
b101010110000101101010101010101 @
1B
1:
b111000010010110 /
b111000010010110 <
b111000010010110 1
b111000010010110 >
b10 .
b10 =
b10 2
b10 ?
0#
07
0-
03
0$
06
1*
14
#432000
00
#435600
b11111111 &
b11111111 D
b11111111 %
b11111111 C
1,
1+
10
#439200
00
#440000
b11011011 (
b11011011 F
b1111111111111111111111111111111110100100110110100101011001001001 '
b1111111111111111111111111111111110100100110110100101011001001001 E
b11011011 9
b11011011 A
b1111111111111111111111111111111110100100110110100101011001001001 8
b1111111111111111111111111111111110100100110110100101011001001001 @
b1010011011100111 /
b1010011011100111 <
b1010011011100111 1
b1010011011100111 >
b111 .
b111 =
b111 2
b111 ?
1-
13
1$
16
1)
15
#442800
b0 &
b0 D
b0 %
b0 C
0,
0+
10
#446400
00
#450000
1,
1+
bz %
bz C
bz &
bz D
b0 (
b0 F
bz '
bz E
10
b11111110 9
b11111110 A
b1111111111111111111111111111111110111001010001100001010001110010 8
b1111111111111111111111111111111110111001010001100001010001110010 @
0B
0:
b10110000011 /
b10110000011 <
b10110000011 1
b10110000011 >
b101 .
b101 =
b101 2
b101 ?
0-
03
#453600
00
#457200
0,
0+
10
#460000
b11000000 9
b11000000 A
b1111111111111111111111111111111111100010101111110001101011000101 8
b1111111111111111111111111111111111100010101111110001101011000101 @
b111011000101000 /
b111011000101000 <
b111011000101000 1
b111011000101000 >
b0 .
b0 =
b0 2
b0 ?
0$
06
0*
04
#460800
00
#464400
10
#468000
00
#470000
b0 %
b0 C
b0 &
b0 D
b1000011 (
b1000011 F
b1011111000101001110100010111 '
b1011111000101001110100010111 E
b1000011 9
b1000011 A
b1011111000101001110100010111 8
b1011111000101001110100010111 @
1B
1:
b11010100010101 /
b11010100010101 <
b11010100010101 1
b11010100010101 >
b10 .
b10 =
b10 2
b10 ?
#471600
10
#475200
00
#478800
10
#480000
bz %
bz C
bz &
bz D
b0 (
b0 F
bz '
bz E
b1110001 9
b1110001 A
b110000010100101110100001100 8
b110000010100101110100001100 @
0B
0:
b10011100000111 /
b10011100000111 <
b10011100000111 1
b10011100000111 >
1#
17
1-
13
1$
16
0)
05
1*
14
#482400
00
#486000
1,
1+
10
#489600
00
#490000
b10110100 9
b10110100 A
b111001011000000000100101110010 8
b111001011000000000100101110010 @
b11101000100000 /
b11101000100000 <
b11101000100000 1
b11101000100000 >
b101 .
b101 =
b101 2
b101 ?
0#
07
0-
03
#493200
1H
0,
0+
10
#496800
00
#500000
b0 %
b0 C
b0 &
b0 D
b11100011 (
b11100011 F
b1111111111111111111111111111111110000001110000111001101000000011 '
b1111111111111111111111111111111110000001110000111001101000000011 E
b11100011 9
b11100011 A
b1111111111111111111111111111111110000001110000111001101000000011 8
b1111111111111111111111111111111110000001110000111001101000000011 @
1B
1:
b1101001001111011 /
b1101001001111011 <
b1101001001111011 1
b1101001001111011 >
1-
13
1)
15
#500400
b11111111 &
b11111111 D
b11111111 %
b11111111 C
1,
1+
1!
0H
10
#504000
00
#507600
b0 &
b0 D
b0 %
b0 C
0!
0,
0+
10
#510000
bz %
bz C
bz &
bz D
b0 (
b0 F
bz '
bz E
b1010010 9
b1010010 A
b1000110110111001011011110001101 8
b1000110110111001011011110001101 @
0B
0:
b1010101010010 /
b1010101010010 <
b1010101010010 1
b1010101010010 >
0$
06
#511200
00
#514800
1,
1+
10
#518400
00
#520000
b1100000 9
b1100000 A
b111110011011110000111101111100 8
b111110011011110000111101111100 @
b101011110000100 /
b101011110000100 <
b101011110000100 1
b101011110000100 >
b10 .
b10 =
b10 2
b10 ?
1#
17
0-
03
0)
05
0*
04
#522000
1H
0,
0+
10
#525600
00
#529200
1!
10
#530000
b1001011 9
b1001011 A
b1111111111111111111111111111111110011110110010011100000000111101 8
b1111111111111111111111111111111110011110110010011100000000111101 @
b111110001001001 /
b111110001001001 <
b111110001001001 1
b111110001001001 >
0#
07
1-
13
1)
15
#532800
00
#536400
0H
10
#540000
00
b1101010 9
b1101010 A
b11111010011011011100000111 8
b11111010011011011100000111 @
b101000000101100 /
b101000000101100 <
b101000000101100 1
b101000000101100 >
b0 .
b0 =
b0 2
b0 ?
#543600
0!
10
#547200
00
#550000
b0 %
b0 C
b0 &
b0 D
b11011111 (
b11011111 F
b1111111111111111111111111111111110011100101001110000010000111001 '
b1111111111111111111111111111111110011100101001110000010000111001 E
b11011111 9
b11011111 A
b1111111111111111111111111111111110011100101001110000010000111001 8
b1111111111111111111111111111111110011100101001110000010000111001 @
1B
1:
b1110111110100100 /
b1110111110100100 <
b1110111110100100 1
b1110111110100100 >
b11 .
b11 =
b11 2
b11 ?
1$
16
0)
05
1*
14
#550800
b11111111 &
b11111111 D
b11111111 %
b11111111 C
1,
1+
10
#554400
00
#558000
b0 &
b0 D
b0 %
b0 C
0,
0+
10
#560000
bz %
bz C
bz &
bz D
b0 (
b0 F
bz '
bz E
b10010011 9
b10010011 A
b1111111111111111111111111111111110001110000001010100110000011100 8
b1111111111111111111111111111111110001110000001010100110000011100 @
0B
0:
b1101011011001 /
b1101011011001 <
b1101011011001 1
b1101011011001 >
b1 .
b1 =
b1 2
b1 ?
0-
03
1)
15
0*
04
#561600
00
#565200
10
#568800
00
#570000
b0 %
b0 C
b0 &
b0 D
b1010010 (
b1010010 F
b1111111111111111111111111111111110001001011111110001110000010010 '
b1111111111111111111111111111111110001001011111110001110000010010 E
b1010010 9
b1010010 A
b1111111111111111111111111111111110001001011111110001110000010010 8
b1111111111111111111111111111111110001001011111110001110000010010 @
1B
1:
b1010100000101011 /
b1010100000101011 <
b1010100000101011 1
b1010100000101011 >
b100 .
b100 =
b100 2
b100 ?
1-
13
0$
06
0)
05
1*
14
#572400
b11111111 &
b11111111 D
b11111111 %
b11111111 C
1,
1+
10
#576000
00
#579600
b0 &
b0 D
b0 %
b0 C
0,
0+
10
#580000
bz %
bz C
bz &
bz D
b0 (
b0 F
bz '
bz E
b1101001 9
b1101001 A
b1111111111111111111111111111111110000111111001000100110000001111 8
b1111111111111111111111111111111110000111111001000100110000001111 @
0B
0:
b1101001110111011 /
b1101001110111011 <
b1101001110111011 1
b1101001110111011 >
b110 .
b110 =
b110 2
b110 ?
1#
17
#583200
00
#586800
1,
1+
10
#590000
b11111111 %
b11111111 C
b11111111 &
b11111111 D
b11011000 (
b11011000 F
b100101001000110110010101001010 '
b100101001000110110010101001010 E
b11011000 9
b11011000 A
b100101001000110110010101001010 8
b100101001000110110010101001010 @
1B
1:
b1010010001101001 /
b1010010001101001 <
b1010010001101001 1
b1010010001101001 >
b1 .
b1 =
b1 2
b1 ?
0#
07
1$
16
1)
15
0*
04
#590400
00
#594000
b0 &
b0 D
b0 %
b0 C
0,
0+
10
#597600
00
#600000
b111 (
b111 F
b1101010000101011111010111010100 '
b1101010000101011111010111010100 E
b111 9
b111 A
b1101010000101011111010111010100 8
b1101010000101011111010111010100 @
b101001101110111 /
b101001101110111 <
b101001101110111 1
b101001101110111 >
b0 .
b0 =
b0 2
b0 ?
0$
06
0)
05
1*
14
#601200
b11111111 &
b11111111 D
b11111111 %
b11111111 C
1,
1+
10
#604800
00
#608400
b0 &
b0 D
b0 %
b0 C
0,
0+
10
#610000
b10101111 (
b10101111 F
b1111111111111111111111111111111110011000001001111111101000110000 '
b1111111111111111111111111111111110011000001001111111101000110000 E
b10101111 9
b10101111 A
b1111111111111111111111111111111110011000001001111111101000110000 8
b1111111111111111111111111111111110011000001001111111101000110000 @
b1001111111000010 /
b1001111111000010 <
b1001111111000010 1
b1001111111000010 >
1#
17
1$
16
1)
15
0*
04
#612000
00
#615600
10
#619200
00
#620000
b1100000 (
b1100000 F
b1111111111111111111111111111111111110111011100100011111011101110 '
b1111111111111111111111111111111111110111011100100011111011101110 E
b1100000 9
b1100000 A
b1111111111111111111111111111111111110111011100100011111011101110 8
b1111111111111111111111111111111111110111011100100011111011101110 @
b11011111100001 /
b11011111100001 <
b11011111100001 1
b11011111100001 >
b111 .
b111 =
b111 2
b111 ?
0#
07
0-
03
#622800
10
#626400
00
#630000
b11111111 &
b11111111 D
b11111111 %
b11111111 C
1,
1+
b1101000 (
b1101000 F
b1101010100111111011100111010101 '
b1101010100111111011100111010101 E
10
b1101000 9
b1101000 A
b1101010100111111011100111010101 8
b1101010100111111011100111010101 @
b1010101101110 /
b1010101101110 <
b1010101101110 1
b1010101101110 >
1#
17
1-
13
0$
06
0)
05
1*
14
#633600
00
#637200
b0 &
b0 D
b0 %
b0 C
0,
0+
10
#640000
bz %
bz C
bz &
bz D
b0 (
b0 F
bz '
bz E
b11101111 9
b11101111 A
b1111111111111111111111111111111111010100101101011110011010101001 8
b1111111111111111111111111111111111010100101101011110011010101001 @
0B
0:
b1101110011100010 /
b1101110011100010 <
b1101110011100010 1
b1101110011100010 >
b110 .
b110 =
b110 2
b110 ?
1$
16
0*
04
#640800
00
#644400
10
#648000
00
#650000
b0 %
b0 C
b0 &
b0 D
b10011001 (
b10011001 F
b1111111111111111111111111111111111011011100110000011101010110111 '
b1111111111111111111111111111111111011011100110000011101010110111 E
b10011001 9
b10011001 A
b1111111111111111111111111111111111011011100110000011101010110111 8
b1111111111111111111111111111111111011011100110000011101010110111 @
1B
1:
b100000101100101 /
b100000101100101 <
b100000101100101 1
b100000101100101 >
b11 .
b11 =
b11 2
b11 ?
0$
06
1)
15
1*
14
#651600
b11111111 &
b11111111 D
b11111111 %
b11111111 C
1,
1+
10
#655200
00
#658800
b0 &
b0 D
b0 %
b0 C
0,
0+
10
#660000
b11001001 (
b11001001 F
b1110110110111100110101111101101 '
b1110110110111100110101111101101 E
b11001001 9
b11001001 A
b1110110110111100110101111101101 8
b1110110110111100110101111101101 @
b101111101011001 /
b101111101011001 <
b101111101011001 1
b101111101011001 >
b101 .
b101 =
b101 2
b101 ?
0#
07
0-
03
0*
04
#662400
00
#666000
10
#669600
00
#670000
b11011100 (
b11011100 F
b1111111111111111111111111111111110110101010101011101111001101010 '
b1111111111111111111111111111111110110101010101011101111001101010 E
b11011100 9
b11011100 A
b1111111111111111111111111111111110110101010101011101111001101010 8
b1111111111111111111111111111111110110101010101011101111001101010 @
b10000010100010 /
b10000010100010 <
b10000010100010 1
b10000010100010 >
b110 .
b110 =
b110 2
b110 ?
1-
13
1$
16
1*
14
#673200
b11111111 &
b11111111 D
b11111111 %
b11111111 C
1,
1+
10
#676800
00
#680000
b10111011 (
b10111011 F
b1100100010001100000010111001000 '
b1100100010001100000010111001000 E
b10111011 9
b10111011 A
b1100100010001100000010111001000 8
b1100100010001100000010111001000 @
b1001101100100011 /
b1001101100100011 <
b1001101100100011 1
b1001101100100011 >
b100 .
b100 =
b100 2
b100 ?
0-
03
0*
04
#680400
b0 &
b0 D
b0 %
b0 C
0,
0+
10
#684000
00
#687600
10
#690000
b1110101 (
b1110101 F
b1111010010011111011111111110100 '
b1111010010011111011111111110100 E
b1110101 9
b1110101 A
b1111010010011111011111111110100 8
b1111010010011111011111111110100 @
b110111110111001 /
b110111110111001 <
b110111110111001 1
b110111110111001 >
b1 .
b1 =
b1 2
b1 ?
0$
06
#691200
00
#694800
10
#698400
00
#700000
bz %
bz C
bz &
bz D
b0 (
b0 F
bz '
bz E
b10001101 9
b10001101 A
b1111111111111111111111111111111110000100011111111011001000001000 8
b1111111111111111111111111111111110000100011111111011001000001000 @
0B
0:
b10100100000010 /
b10100100000010 <
b10100100000010 1
b10100100000010 >
b110 .
b110 =
b110 2
b110 ?
1#
17
1-
13
#702000
10
#705600
00
#709200
10
#710000
b0 %
b0 C
b0 &
b0 D
b1110000 (
b1110000 F
b1111111111111111111111111111111110000110111010111011011000001101 '
b1111111111111111111111111111111110000110111010111011011000001101 E
b1110000 9
b1110000 A
b1111111111111111111111111111111110000110111010111011011000001101 8
b1111111111111111111111111111111110000110111010111011011000001101 @
1B
1:
b1010011001000000 /
b1010011001000000 <
b1010011001000000 1
b1010011001000000 >
b11 .
b11 =
b11 2
b11 ?
0#
07
0)
05
1*
14
#712800
00
#716400
b11111111 &
b11111111 D
b11111111 %
b11111111 C
1,
1+
10
#720000
b11110101 (
b11110101 F
b1111111111111111111111111111111111111010111100110010111011110101 '
b1111111111111111111111111111111111111010111100110010111011110101 E
00
b11110101 9
b11110101 A
b1111111111111111111111111111111111111010111100110010111011110101 8
b1111111111111111111111111111111111111010111100110010111011110101 @
b110101010100001 /
b110101010100001 <
b110101010100001 1
b110101010100001 >
b0 .
b0 =
b0 2
b0 ?
0-
03
1)
15
#723600
b0 &
b0 D
b0 %
b0 C
0,
0+
10
#727200
00
#730000
bz %
bz C
bz &
bz D
b0 (
b0 F
bz '
bz E
b10010011 9
b10010011 A
b1111111111111111111111111111111110000011111110100110010000000111 8
b1111111111111111111111111111111110000011111110100110010000000111 @
0B
0:
b11011111010 /
b11011111010 <
b11011111010 1
b11011111010 >
b110 .
b110 =
b110 2
b110 ?
0)
05
#730800
1,
1+
1H
10
#734400
00
#738000
1!
0,
0+
10
#740000
b1011010 9
b1011010 A
b1111111111111111111111111111111111001000001110001111010010010000 8
b1111111111111111111111111111111111001000001110001111010010010000 @
b111011001101000 /
b111011001101000 <
b111011001101000 1
b111011001101000 >
1#
17
1-
13
1$
16
1)
15
#741600
00
#745200
1,
1+
0H
10
#748800
00
#750000
b11111111 %
b11111111 C
b11111111 &
b11111111 D
b11111100 (
b11111100 F
b1000101111100110010001110001011 '
b1000101111100110010001110001011 E
b11111100 9
b11111100 A
b1000101111100110010001110001011 8
b1000101111100110010001110001011 @
1B
1:
b1000100001000101 /
b1000100001000101 <
b1000100001000101 1
b1000100001000101 >
b0 .
b0 =
b0 2
b0 ?
0-
03
0*
04
#752400
b0 &
b0 D
b0 %
b0 C
0!
0,
0+
10
#756000
00
#759600
10
#760000
bz %
bz C
bz &
bz D
b0 (
b0 F
bz '
bz E
b110 9
b110 A
b101110001101100100001101011100 8
b101110001101100100001101011100 @
0B
0:
b10110001011000 /
b10110001011000 <
b10110001011000 1
b10110001011000 >
b11 .
b11 =
b11 2
b11 ?
0#
07
1-
13
0)
05
#763200
00
#766800
10
#770000
b11000011 9
b11000011 A
b1111111111111111111111111111111111110100111100000000111011101001 8
b1111111111111111111111111111111111110100111100000000111011101001 @
b1110100110110010 /
b1110100110110010 <
b1110100110110010 1
b1110100110110010 >
0-
03
#770400
00
#774000
1H
10
#777600
00
#780000
b11001111 9
b11001111 A
b1111111111111111111111111111111110010010111110010001001000100101 8
b1111111111111111111111111111111110010010111110010001001000100101 @
b10100010101101 /
b10100010101101 <
b10100010101101 1
b10100010101101 >
1#
17
1-
13
0$
06
1*
14
#781200
1!
0H
1,
1+
10
#784800
00
#788400
0,
0+
0!
10
#790000
b1111001 9
b1111001 A
b11001011010100000001100110010 8
b11001011010100000001100110010 @
b1010010101010111 /
b1010010101010111 <
b1010010101010111 1
b1010010101010111 >
b100 .
b100 =
b100 2
b100 ?
0#
07
1)
15
#792000
00
#795600
1,
1+
10
#799200
00
#800000
b11111111 %
b11111111 C
b11111111 &
b11111111 D
b11011100 (
b11011100 F
b1011110010101000010000110111100 '
b1011110010101000010000110111100 E
b11011100 9
b11011100 A
b1011110010101000010000110111100 8
b1011110010101000010000110111100 @
1B
1:
b1100001001110001 /
b1100001001110001 <
b1100001001110001 1
b1100001001110001 >
0-
03
0)
05
0*
04
#802800
b0 &
b0 D
b0 %
b0 C
0,
0+
10
#806400
00
#810000
1,
1+
bz %
bz C
bz &
bz D
b0 (
b0 F
bz '
bz E
10
b11010110 9
b11010110 A
b1111111111111111111111111111111111101001101101001001101011010011 8
b1111111111111111111111111111111111101001101101001001101011010011 @
0B
0:
b1111011010111111 /
b1111011010111111 <
b1111011010111111 1
b1111011010111111 >
b111 .
b111 =
b111 2
b111 ?
1#
17
1-
13
1$
16
1)
15
1*
14
#813600
00
