frontend/rv_decode/tb_rv_decode.vcd
$date
	Wed Jun  3 21:53:29 2026
$end
$version
	Icarus Verilog
$end
$timescale
	1ps
$end
$scope module tb_rv_decode $end
$var wire 1 ! valid_out $end
$var wire 1 " rs2_data $end
$var wire 1 # rs2_addr $end
$var wire 1 $ rs1_data $end
$var wire 1 % rs1_addr $end
$var wire 1 & reg_write $end
$var wire 1 ' rd $end
$var wire 1 ( pc_out $end
$var wire 1 ) opcode $end
$var wire 1 * mem_write $end
$var wire 1 + mem_read $end
$var wire 1 , jalr $end
$var wire 1 - jal $end
$var wire 1 . imm $end
$var wire 1 / funct7 $end
$var wire 1 0 funct3 $end
$var wire 1 1 branch $end
$var wire 1 2 alu_op $end
$var reg 1 3 clk $end
$var reg 1 4 flush $end
$var reg 1 5 instr_in $end
$var reg 1 6 pc_in $end
$var reg 1 7 rst_n $end
$var reg 1 8 stall $end
$var reg 1 9 valid_in $end
$var reg 1 : wb_data $end
$var reg 1 ; wb_rd $end
$var reg 1 < wb_we $end
$scope module uut $end
$var wire 1 3 clk $end
$var wire 1 4 flush $end
$var wire 32 = instr_in [31:0] $end
$var wire 64 > pc_in [63:0] $end
$var wire 1 7 rst_n $end
$var wire 1 8 stall $end
$var wire 1 9 valid_in $end
$var wire 64 ? wb_data [63:0] $end
$var wire 5 @ wb_rd [4:0] $end
$var wire 1 < wb_we $end
$var wire 5 A r_rs2 [4:0] $end
$var wire 5 B r_rs1 [4:0] $end
$var wire 5 C r_rd [4:0] $end
$var wire 7 D op [6:0] $end
$var wire 1 E flush_buf5 $end
$var wire 1 F flush_buf4 $end
$var wire 1 G flush_buf3 $end
$var wire 1 H flush_buf2 $end
$var wire 1 I flush_buf1 $end
$var wire 7 J f7 [6:0] $end
$var wire 3 K f3 [2:0] $end
$var parameter 4 L ALU_ADD $end
$var parameter 4 M ALU_AND $end
$var parameter 4 N ALU_AUIPC $end
$var parameter 4 O ALU_LUI $end
$var parameter 4 P ALU_OR $end
$var parameter 4 Q ALU_SLL $end
$var parameter 4 R ALU_SLT $end
$var parameter 4 S ALU_SLTU $end
$var parameter 4 T ALU_SRA $end
$var parameter 4 U ALU_SRL $end
$var parameter 4 V ALU_SUB $end
$var parameter 4 W ALU_XOR $end
$var parameter 7 X OP_AUIPC $end
$var parameter 7 Y OP_BRANCH $end
$var parameter 7 Z OP_FENCE $end
$var parameter 7 [ OP_IMM $end
$var parameter 7 \ OP_IMM64 $end
$var parameter 7 ] OP_JAL $end
$var parameter 7 ^ OP_JALR $end
$var parameter 7 _ OP_LOAD $end
$var parameter 7 ` OP_LUI $end
$var parameter 7 a OP_REG $end
$var parameter 7 b OP_REG64 $end
$var parameter 7 c OP_STORE $end
$var parameter 7 d OP_SYSTEM $end
$var reg 5 e alu_op [4:0] $end
$var reg 5 f alu_op_comb [4:0] $end
$var reg 1 g br_comb $end
$var reg 1 1 branch $end
$var reg 3 h funct3 [2:0] $end
$var reg 7 i funct7 [6:0] $end
$var reg 64 j imm [63:0] $end
$var reg 64 k imm_comb [63:0] $end
$var reg 1 - jal $end
$var reg 1 l jal_comb $end
$var reg 1 , jalr $end
$var reg 1 m jalr_comb $end
$var reg 1 n mem_r_comb $end
$var reg 1 + mem_read $end
$var reg 1 o mem_w_comb $end
$var reg 1 * mem_write $end
$var reg 7 p opcode [6:0] $end
$var reg 64 q pc_out [63:0] $end
$var reg 5 r rd [4:0] $end
$var reg 1 s reg_w_comb $end
$var reg 1 & reg_write $end
$var reg 5 t rs1_addr [4:0] $end
$var reg 64 u rs1_data [63:0] $end
$var reg 5 v rs2_addr [4:0] $end
$var reg 64 w rs2_data [63:0] $end
$var reg 1 ! valid_out $end
$var integer 32 x i [31:0] $end
$scope module u_buf1 $end
$var wire 1 4 A $end
$var wire 1 I Y $end
$upscope $end
$scope module u_buf2 $end
$var wire 1 4 A $end
$var wire 1 H Y $end
$upscope $end
$scope module u_buf3 $end
$var wire 1 4 A $end
$var wire 1 G Y $end
$upscope $end
$scope module u_buf4 $end
$var wire 1 4 A $end
$var wire 1 F Y $end
$upscope $end
$scope module u_buf5 $end
$var wire 1 4 A $end
$var wire 1 E Y $end
$upscope $end
$upscope $end
$upscope $end
$enddefinitions $end
$comment Show the parameter values. $end
$dumpall
b1110011 d
b100011 c
b111011 b
b110011 a
b110111 `
b11 _
b1100111 ^
b1101111 ]
b11011 \
b10011 [
b1111 Z
b1100011 Y
b10111 X
b100 W
b1 V
b1000 U
b1001 T
b11 S
b10 R
b111 Q
b101 P
b1010 O
b1011 N
b110 M
b0 L
$end
#0
$dumpvars
bx x
bx w
bx v
bx u
bx t
0s
bx r
bx q
bx p
0o
0n
0m
0l
b0 k
bx j
bx i
bx h
0g
b0 f
bx e
b0 K
b0 J
0I
0H
0G
0F
0E
b0 D
b0 C
b0 B
b0 A
b0 @
b0 ?
b0 >
b0 =
0<
0;
0:
09
08
x7
06
05
04
03
x2
x1
x0
x/
x.
x-
x,
x+
x*
x)
x(
x'
x&
x%
x$
x#
x"
x!
$end
#3600
0(
0.
0$
0"
02
0)
0/
00
0#
0%
0'
b0 q
b0 j
b0 u
b0 w
0!
0,
0-
01
0&
0*
0+
b0 e
b0 p
b0 i
b0 h
b0 v
b0 t
b0 r
13
#7200
03
#10000
b100000 x
07
#10800
b100000 x
13
#14400
03
#18000
b100000 x
13
#21600
03
#25200
b100000 x
13
#28800
03
#32400
b100000 x
13
#36000
03
#39600
b100000 x
13
#43200
03
#46800
b100000 x
13
#50400
03
#54000
b100000 x
13
#57600
03
#61200
b100000 x
13
#64800
03
#68400
b100000 x
13
#72000
03
#75600
b100000 x
13
#79200
03
#82800
b100000 x
13
#86400
03
#90000
b100000 x
13
#93600
03
#97200
b100000 x
13
#100800
03
#104400
b100000 x
13
#108000
03
#110000
17
#111600
13
#115200
03
#118800
13
#122400
03
#126000
13
#129600
03
#133200
13
#136800
03
#140000
b1 D
b1 ?
1:
b1 @
1;
19
b1 =
15
b1 >
16
1I
1H
1G
1F
1E
14
#140400
13
#144000
03
#147600
13
#150000
b0 @
0;
b0 >
06
18
#151200
03
#154800
13
#158400
03
#160000
b0 ?
0:
b1 @
1;
09
b1 >
16
0I
0H
0G
0F
0E
04
#162000
13
#165600
03
#169200
13
#170000
b1 ?
1:
19
b0 >
06
1I
1H
1G
1F
1E
14
08
#172800
03
#176400
13
#180000
03
1<
09
0I
0H
0G
0F
0E
04
#183600
1)
b1 p
13
#187200
03
#190000
b0 D
0<
19
b0 =
05
1I
1H
1G
1F
1E
14
18
#190800
0)
b0 p
13
#194400
03
#198000
13
#200000
1<
b0 ?
0:
b0 @
0;
0I
0H
0G
0F
0E
04
08
#201600
03
#205200
1!
13
#208800
03
#210000
b1 ?
1:
09
18
#212400
13
#216000
03
#219600
13
#220000
b1 @
1;
b1 >
16
1I
1H
1G
1F
1E
14
#223200
03
#226800
0!
13
#230000
b1 D
0<
b1 =
15
0I
0H
0G
0F
0E
04
08
#230400
03
#234000
1)
1(
b1 p
b1 q
13
#237600
03
#240000
b0 D
b0 ?
0:
19
b0 =
05
1I
1H
1G
1F
1E
14
18
#241200
0(
0)
b0 q
b0 p
13
#244800
03
#248400
13
#250000
b1 D
1<
b1 ?
1:
b0 @
0;
09
b1 =
15
0I
0H
0G
0F
0E
04
08
#252000
03
#255600
1(
1)
b1 q
b1 p
13
#259200
03
#260000
b0 D
0<
b1 @
1;
19
b0 =
05
1I
1H
1G
1F
1E
14
18
#262800
0)
0(
b0 p
b0 q
13
#266400
03
#270000
13
1<
b0 @
0;
09
b0 >
06
0I
0H
0G
0F
0E
04
08
#273600
03
#277200
13
#280000
0<
b0 ?
0:
b1 @
1;
19
b1 >
16
1I
1H
1G
1F
1E
14
18
#280800
03
#284400
13
#288000
03
#290000
b1 D
b1 ?
1:
b1 =
15
b0 >
06
#291600
13
#295200
03
#298800
13
#300000
b0 D
1<
b0 @
0;
09
b0 =
05
b1 >
16
0I
0H
0G
0F
0E
04
08
#302400
03
#306000
1(
b1 q
13
#309600
03
#310000
0<
#313200
13
#316800
03
#320000
b1 D
1<
b1 @
1;
19
b1 =
15
b0 >
06
1I
1H
1G
1F
1E
14
#320400
0(
b0 q
13
#324000
03
#327600
13
#330000
b0 @
0;
09
0I
0H
0G
0F
0E
04
#331200
03
#334800
1)
b1 p
13
#338400
03
#340000
0<
b0 ?
0:
19
#342000
1!
13
#345600
03
#349200
13
#350000
b0 D
b1 @
1;
09
b0 =
05
1I
1H
1G
1F
1E
14
18
#352800
03
#356400
0)
0!
b0 p
13
#360000
03
1<
b1 ?
1:
b0 @
0;
19
0I
0H
0G
0F
0E
04
#363600
13
#367200
03
#370000
0<
b0 ?
0:
08
#370800
1!
13
#374400
03
#378000
13
#380000
b1 D
1<
b1 ?
1:
b1 @
1;
09
b1 =
15
b1 >
16
1I
1H
1G
1F
1E
14
#381600
03
#385200
0!
13
#388800
03
#390000
0<
19
0I
0H
0G
0F
0E
04
#392400
1)
1(
1!
b1 p
b1 q
13
#396000
03
#399600
13
#400000
b0 D
1<
b0 @
0;
09
b0 =
05
b0 >
06
1I
1H
1G
1F
1E
14
18
#403200
03
#406800
0)
0(
0!
b0 p
b0 q
13
#410000
0<
b0 ?
0:
b1 @
1;
b1 >
16
0I
0H
0G
0F
0E
04
08
#410400
03
#414000
1(
b1 q
13
#417600
03
#420000
b1 D
19
b1 =
15
b0 >
06
18
#421200
13
#424800
03
#428400
13
#430000
b0 D
b0 @
0;
b0 =
05
1I
1H
1G
1F
1E
14
08
#432000
03
#435600
0(
b0 q
13
#439200
03
#440000
b1 ?
1:
b1 @
1;
09
#442800
13
#446400
03
#450000
b1 D
13
1<
b1 =
15
b1 >
16
18
#453600
03
#457200
13
#460000
b0 D
0<
b0 =
05
0I
0H
0G
0F
0E
04
08
#460800
03
#464400
1(
b1 q
13
#468000
03
#470000
1<
b0 @
0;
19
b0 >
06
1I
1H
1G
1F
1E
14
#471600
0(
b0 q
13
#475200
03
#478800
13
#480000
b1 D
0<
09
b1 =
15
#482400
03
#486000
13
#489600
03
#490000
b1 @
1;
19
b1 >
16
0I
0H
0G
0F
0E
04
#493200
1)
1(
1!
b1 p
b1 q
13
#496800
03
#500000
b0 D
b0 ?
0:
b0 @
0;
09
b0 =
05
1I
1H
1G
1F
1E
14
18
#500400
0(
0)
b0 q
0!
b0 p
13
#504000
03
#507600
13
#510000
b1 D
1<
b1 ?
1:
b1 @
1;
19
b1 =
15
08
#511200
03
#514800
13
#518400
03
#522000
13
#525600
03
#529200
13
#530000
0<
b0 ?
0:
b0 @
0;
b0 >
06
0I
0H
0G
0F
0E
04
18
#532800
03
#536400
13
#540000
b0 D
03
09
b0 =
05
1I
1H
1G
1F
1E
14
08
#543600
13
#547200
03
#550000
b1 D
b1 =
15
0I
0H
0G
0F
0E
04
18
#550800
13
#554400
03
#558000
13
#560000
1<
b1 ?
1:
19
b1 >
16
1I
1H
1G
1F
1E
14
#561600
03
#565200
13
#568800
03
#570000
b0 D
0<
b1 @
1;
09
b0 =
05
0I
0H
0G
0F
0E
04
#572400
13
#576000
03
#579600
13
#580000
b1 D
b0 ?
0:
b0 @
0;
b1 =
15
b0 >
06
#583200
03
#586800
13
#590000
1<
b1 ?
1:
b1 @
1;
b1 >
16
1I
1H
1G
1F
1E
14
#590400
03
#594000
13
#597600
03
#600000
b0 ?
0:
#601200
13
#604800
03
#608400
13
#610000
b0 D
0<
b0 @
0;
b0 =
05
0I
0H
0G
0F
0E
04
08
#612000
03
#615600
1(
b1 q
13
#619200
03
#620000
1<
b0 >
06
18
#622800
13
#626400
03
#630000
0(
b0 q
13
b1 ?
1:
19
1I
1H
1G
1F
1E
14
08
#633600
03
#637200
13
#640000
b1 D
0<
b0 ?
0:
09
b1 =
15
#640800
03
#644400
13
#648000
03
#650000
b0 D
1<
b1 @
1;
19
b0 =
05
b1 >
16
0I
0H
0G
0F
0E
04
18
#651600
13
#655200
03
#658800
13
#660000
b1 D
0<
b1 ?
1:
09
b1 =
15
1I
1H
1G
1F
1E
14
08
#662400
03
#666000
13
#669600
03
#670000
b0 D
b0 =
05
#673200
13
#676800
03
#680000
b0 ?
0:
19
b0 >
06
#680400
13
#684000
03
#687600
13
#690000
b1 D
b1 ?
1:
b0 @
0;
b1 =
15
0I
0H
0G
0F
0E
04
18
#691200
03
#694800
13
#698400
03
#700000
1<
b0 ?
0:
b1 @
1;
1I
1H
1G
1F
1E
14
#702000
13
#705600
03
#709200
13
#710000
b0 D
b0 @
0;
b0 =
05
#712800
03
#716400
13
#720000
b1 D
03
b1 @
1;
09
b1 =
15
b1 >
16
0I
0H
0G
0F
0E
04
08
#723600
1)
1(
b1 p
b1 q
13
#727200
03
#730000
b0 D
b0 =
05
1I
1H
1G
1F
1E
14
18
#730800
0(
0)
b0 q
b0 p
13
#734400
03
#738000
13
#740000
b1 ?
1:
08
#741600
03
#745200
13
#748800
03
#750000
0I
0H
0G
0F
0E
04
#752400
1(
b1 q
13
#756000
03
#759600
13
#760000
b0 @
0;
1I
1H
1G
1F
1E
14
#763200
03
#766800
0(
b0 q
13
#770000
b1 @
1;
19
b0 >
06
0I
0H
0G
0F
0E
04
18
#770400
03
#774000
13
#777600
03
#780000
b1 D
b1 =
15
b1 >
16
1I
1H
1G
1F
1E
14
08
#781200
13
#784800
03
#788400
13
#790000
b0 D
09
b0 =
05
b0 >
06
#792000
03
#795600
13
#799200
03
#800000
b1 D
0<
b0 ?
0:
19
b1 =
15
b1 >
16
18
#802800
13
#806400
03
#810000
b0 D
13
b1 ?
1:
09
b0 =
05
b0 >
06
08
#813600
03
#817200
13
#820000
b1 D
1<
b0 ?
0:
b1 =
15
b1 >
16
0I
0H
0G
0F
0E
04
#820800
03
#824400
1)
1(
b1 p
b1 q
13
#828000
03
#830000
19
b0 >
06
#831600
0(
b0 q
1!
13
#835200
03
#838800
13
#840000
0<
b0 @
0;
1I
1H
1G
1F
1E
14
#842400
03
#846000
0)
0!
b0 p
13
#849600
03
#850000
b0 D
1<
b1 @
1;
09
b0 =
05
b1 >
16
#853200
13
#856800
03
#860000
0<
19
#860400
13
#864000
03
#867600
13
#870000
b1 D
b1 ?
1:
b1 =
15
0I
0H
0G
0F
0E
04
#871200
03
#874800
1(
1)
b1 q
1!
b1 p
13
#878400
03
#880000
b0 D
1<
b0 @
0;
09
b0 =
05
b0 >
06
#882000
0)
0(
0!
b0 p
b0 q
13
#885600
03
#889200
13
#890000
b1 D
0<
b0 ?
0:
19
b1 =
15
b1 >
16
1I
1H
1G
1F
1E
14
18
#892800
03
#896400
13
#900000
03
b1 ?
1:
b0 >
06
0I
0H
0G
0F
0E
04
08
#903600
1)
1!
b1 p
13
#907200
03
#910000
b0 D
1<
09
b0 =
05
b1 >
16
1I
1H
1G
1F
1E
14
18
#910800
0)
0!
b0 p
13
#914400
03
#918000
13
#920000
0<
b0 ?
0:
b0 >
06
08
#921600
03
#925200
13
#928800
03
#930000
b1 D
1<
b1 ?
1:
b1 =
15
0I
0H
0G
0F
0E
04
18
#932400
13
#936000
03
#939600
13
#940000
0<
b1 @
1;
19
#943200
03
#946800
13
#950000
b0 ?
0:
09
b1 >
16
1I
1H
1G
1F
1E
14
#950400
03
#954000
13
#957600
03
#960000
b0 @
0;
b0 >
06
0I
0H
0G
0F
0E
04
#961200
13
#964800
03
#968400
13
#970000
1<
b1 ?
1:
b1 >
16
08
#972000
03
#975600
1(
1)
b1 q
b1 p
13
#979200
03
#980000
0<
19
1I
1H
1G
1F
1E
14
18
#982800
0)
0(
b0 p
b0 q
13
#986400
03
#990000
1(
1)
b1 q
b1 p
13
1<
b1 @
1;
09
0I
0H
0G
0F
0E
04
08
#993600
03
#997200
13
#1000000
b0 D
0<
19
b0 =
05
b0 >
06
#1000800
03
#1004400
0(
0)
b0 q
1!
b0 p
13
#1008000
03
#1010000
b0 ?
0:
b0 @
0;
09
18
#1011600
13
#1015200
03
#1018800
13
#1020000
b1 D
1<
b1 ?
1:
b1 @
1;
19
b1 =
15
#1022400
03
#1026000
13
#1029600
03
#1030000
b0 D
0<
b0 ?
0:
b0 =
05
08
#1033200
13
#1036800
03
#1040000
b1 D
b0 @
0;
b1 =
15
b1 >
16
1I
1H
1G
1F
1E
14
18
#1040400
0!
13
#1044000
03
#1047600
13
#1050000
b0 D
09
b0 =
05
0I
0H
0G
0F
0E
04
#1051200
03
#1054800
13
#1058400
03
#1060000
b1 D
b1 ?
1:
b1 @
1;
b1 =
15
#1062000
13
#1065600
03
#1069200
13
#1070000
1<
b0 @
0;
#1072800
03
#1076400
13
#1080000
b0 D
03
0<
b1 @
1;
19
b0 =
05
b0 >
06
08
#1083600
1!
13
#1087200
03
#1090000
b1 D
1<
b0 ?
0:
b0 @
0;
b1 =
15
b1 >
16
1I
1H
1G
1F
1E
14
#1090800
0!
13
#1094400
03
#1098000
13
#1100000
b1 @
1;
09
b0 >
06
0I
0H
0G
0F
0E
04
18
#1101600
03
#1105200
13
#1108800
03
#1110000
b0 D
0<
b1 ?
1:
b0 @
0;
b0 =
05
#1112400
13
#1116000
03
#1119600
13
#1120000
1<
b0 ?
0:
19
#1123200
03
#1126800
13
#1130000
b1 D
b1 @
1;
b1 =
15
b1 >
16
1I
1H
1G
1F
1E
14
08
#1130400
03
#1134000
13
#1137600
03
#1140000
b1 ?
1:
09
b0 >
06
0I
0H
0G
0F
0E
04
18
#1141200
13
#1144800
03
#1148400
13
#1150000
b0 ?
0:
1I
1H
1G
1F
1E
14
#1152000
03
#1155600
13
#1159200
03
#1160000
b0 D
0<
b1 ?
1:
b0 =
05
0I
0H
0G
0F
0E
04
#1162800
13
#1166400
03
#1170000
b1 D
13
b0 ?
0:
19
b1 =
15
b1 >
16
1I
1H
1G
1F
1E
14
08
#1173600
03
#1177200
13
#1180000
b0 D
1<
09
b0 =
05
0I
0H
0G
0F
0E
04
#1180800
03
#1184400
1(
b1 q
13
#1188000
03
#1190000
b0 @
0;
#1191600
13
#1195200
03
#1198800
13
#1200000
b1 @
1;
1I
1H
1G
1F
1E
14
#1202400
03
#1206000
0(
b0 q
13
#1209600
03
#1210000
b0 @
0;
19
18
#1213200
13
#1216800
03
#1220000
b1 D
b1 ?
1:
b1 @
1;
b1 =
15
b0 >
06
#1220400
13
#1224000
03
#1227600
13
#1230000
b0 D
0<
b0 @
0;
09
b0 =
05
b1 >
16
0I
0H
0G
0F
0E
04
#1231200
03
#1234800
13
#1238400
03
#1240000
1<
b0 ?
0:
#1242000
13
#1245600
03
#1249200
13
#1250000
19
08
#1252800
03
#1256400
1(
1!
b1 q
13
#1260000
b1 D
03
b1 ?
1:
b1 =
15
b0 >
06
18
#1263600
13
#1267200
03
#1270000
09
1I
1H
1G
1F
1E
14
#1270800
0(
0!
b0 q
13
#1274400
03
#1278000
13
#1280000
b0 D
0<
b1 @
1;
19
b0 =
05
b1 >
16
08
#1281600
03
#1285200
13
#1288800
03
#1290000
b0 ?
0:
b0 @
0;
09
0I
0H
0G
0F
0E
04
18
#1292400
13
#1296000
03
#1299600
13
#1300000
b1 ?
1:
b1 @
1;
19
b0 >
06
08
#1303200
03
#1306800
1!
13
#1310000
b1 D
1<
09
b1 =
15
b1 >
16
#1310400
03
#1314000
1)
1(
0!
b1 p
b1 q
13
#1317600
03
#1320000
0<
b0 ?
0:
b0 @
0;
#1321200
13
#1324800
03
#1328400
13
#1330000
1<
b1 @
1;
18
#1332000
03
#1335600
13
#1339200
03
#1340000
19
#1342800
13
#1346400
03
#1350000
0(
0)
b0 q
b0 p
b0 D
13
0<
b1 ?
1:
b0 @
0;
09
b0 =
05
b0 >
06
1I
1H
1G
1F
1E
14
08
#1353600
03
#1357200
13
#1360000
b1 D
b1 @
1;
19
b1 =
15
0I
0H
0G
0F
0E
04
18
#1360800
03
#1364400
13
#1368000
03
#1370000
b0 D
1<
09
b0 =
05
b1 >
16
1I
1H
1G
1F
1E
14
#1371600
13
#1375200
03
#1378800
13
#1380000
0<
b0 ?
0:
08
#1382400
03
#1386000
13
#1389600
03
#1390000
b0 @
0;
19
b0 >
06
18
#1393200
13
#1396800
03
#1400000
b1 D
1<
b1 @
1;
b1 =
15
b1 >
16
#1400400
13
#1404000
03
#1407600
13
#1410000
09
b0 >
06
08
#1411200
03
#1414800
13
#1418400
03
#1420000
b0 @
0;
#1422000
13
#1425600
03
#1429200
13
#1430000
0<
b1 ?
1:
b1 @
1;
19
b1 >
16
0I
0H
0G
0F
0E
04
#1432800
03
#1436400
1(
1)
b1 q
1!
b1 p
13
#1440000
03
1<
09
b0 >
06
1I
1H
1G
1F
1E
14
18
#1443600
0)
0(
0!
b0 p
b0 q
13
#1447200
03
#1450800
13
#1454400
03
#1458000
13
#1460000
0<
b0 ?
0:
19
b1 >
16
0I
0H
0G
0F
0E
04
#1461600
03
#1465200
13
#1468800
03
#1470000
b0 D
1<
b1 ?
1:
b0 @
0;
09
b0 =
05
1I
1H
1G
1F
1E
14
08
#1472400
13
#1476000
03
#1479600
13
#1480000
b1 D
0<
b0 ?
0:
b1 =
15
b0 >
06
0I
0H
0G
0F
0E
04
18
#1483200
03
#1486800
13
#1490000
b1 >
16
08
#1490400
03
#1494000
1(
1)
b1 q
b1 p
13
#1497600
03
#1500000
b1 @
1;
19
1I
1H
1G
1F
1E
14
#1501200
0)
0(
b0 p
b0 q
13
#1504800
03
#1508400
13
#1510000
b1 ?
1:
0I
0H
0G
0F
0E
04
#1512000
03
#1515600
1)
1(
1!
b1 p
b1 q
13
#1519200
03
#1520000
b0 D
b0 @
0;
09
b0 =
05
#1522800
0)
0!
b0 p
13
#1526400
03
#1530000
0(
b0 q
b1 D
13
1<
b0 ?
0:
b1 =
15
1I
1H
1G
1F
1E
14
18
#1533600
03
#1537200
13
#1540000
b0 D
b0 =
05
b0 >
06
#1540800
03
#1544400
13
#1548000
03
#1550000
b1 @
1;
#1551600
13
#1555200
03
#1558800
13
#1560000
b1 D
b1 ?
1:
b0 @
0;
19
b1 =
15
b1 >
16
08
#1562400
03
#1566000
13
#1569600
03
#1570000
b0 D
0<
09
b0 =
05
0I
0H
0G
0F
0E
04
#1573200
1(
b1 q
13
#1576800
03
#1580000
b1 D
1<
b0 ?
0:
b1 @
1;
19
b1 =
15
b0 >
06
1I
1H
1G
1F
1E
14
#1580400
0(
b0 q
13
#1584000
03
#1587600
13
#1590000
0<
b0 @
0;
09
b1 >
16
#1591200
03
#1594800
13
#1598400
03
#1600000
1<
b1 ?
1:
b1 @
1;
19
b0 >
06
0I
0H
0G
0F
0E
04
#1602000
1)
1!
b1 p
13
#1605600
03
#1609200
13
#1610000
b0 D
0<
b0 =
05
1I
1H
1G
1F
1E
14
18
#1612800
03
#1616400
0)
0!
b0 p
13
#1620000
b1 D
03
1<
09
b1 =
15
#1623600
13
#1627200
03
#1630000
0<
b0 ?
0:
b0 @
0;
19
08
#1630800
13
#1634400
03
#1638000
13
#1640000
b0 D
b1 ?
1:
09
b0 =
05
0I
0H
0G
0F
0E
04
18
#1641600
03
#1645200
13
#1648800
03
#1650000
1<
b0 ?
0:
b1 @
1;
19
b1 >
16
08
#1652400
1(
b1 q
1!
13
#1656000
03
#1659600
13
#1660000
b1 ?
1:
b0 >
06
#1663200
03
#1666800
0(
b0 q
13
#1670000
0<
b1 >
16
#1670400
03
#1674000
1(
b1 q
13
#1677600
03
#1680000
b1 D
b1 =
15
b0 >
06
1I
1H
1G
1F
1E
14
18
#1681200
0(
b0 q
0!
13
#1684800
03
#1688400
13
#1690000
b0 @
0;
b1 >
16
0I
0H
0G
0F
0E
04
08
#1692000
03
#1695600
1(
1)
b1 q
1!
b1 p
13
#1699200
03
#1700000
b0 D
1<
b0 ?
0:
b1 @
1;
09
b0 =
05
1I
1H
1G
1F
1E
14
#1702800
0)
0(
0!
b0 p
b0 q
13
#1706400
03
#1710000
13
0<
b1 ?
1:
19
#1713600
03
#1717200
13
#1720000
b0 ?
0:
09
0I
0H
0G
0F
0E
04
#1720800
03
#1724400
1(
b1 q
13
#1728000
03
#1730000
b1 D
b0 @
0;
19
b1 =
15
b0 >
06
18
#1731600
13
#1735200
03
#1738800
13
#1740000
b1 ?
1:
1I
1H
1G
1F
1E
14
#1742400
03
#1746000
0(
b0 q
13
#1749600
03
#1750000
b0 D
1<
b0 ?
0:
b1 @
1;
b0 =
05
b1 >
16
#1753200
13
#1756800
03
#1760000
b1 ?
1:
b0 >
06
08
#1760400
13
#1764000
03
#1767600
13
#1770000
b1 D
b0 ?
0:
b0 @
0;
b1 =
15
b1 >
16
0I
0H
0G
0F
0E
04
#1771200
03
#1774800
1)
1(
1!
b1 p
b1 q
13
#1778400
03
#1780000
b1 @
1;
18
#1782000
13
#1785600
03
#1789200
13
#1790000
0<
b1 ?
1:
b0 @
0;
09
b0 >
06
08
#1792800
03
#1796400
0(
b0 q
0!
13
#1800000
b0 D
03
b0 ?
0:
19
b0 =
05
18
#1803600
13
#1807200
03
#1810000
b1 D
b1 =
15
1I
1H
1G
1F
1E
14
#1810800
0)
b0 p
13
#1814400
03
#1818000
13
#1820000
1<
b1 @
1;
09
b1 >
16
0I
0H
0G
0F
0E
04
#1821600
03
#1825200
13
#1828800
03
#1830000
b1 ?
1:
b0 @
0;
19
b0 >
06
1I
1H
1G
1F
1E
14
08
#1832400
13
#1836000
03
#1839600
13
#1840000
0<
09
#1843200
03
#1846800
13
#1850000
b0 D
b0 ?
0:
b0 =
05
b1 >
16
0I
0H
0G
0F
0E
04
#1850400
03
#1854000
1(
b1 q
13
#1857600
03
#1860000
b1 D
1<
19
b1 =
15
#1861200
1)
1!
b1 p
13
#1864800
03
#1868400
13
#1870000
0<
b1 @
1;
1I
1H
1G
1F
1E
14
#1872000
03
#1875600
0)
0(
0!
b0 p
b0 q
13
#1879200
03
#1880000
b1 ?
1:
b0 >
06
0I
0H
0G
0F
0E
04
#1882800
1)
1!
b1 p
13
#1886400
03
#1890000
1(
b1 q
13
b0 @
0;
b1 >
16
#1893600
03
#1897200
13
#1900000
b0 D
b0 ?
0:
09
b0 =
05
b0 >
06
18
#1900800
03
#1904400
13
#1908000
03
#1910000
b1 D
1<
b1 ?
1:
b1 @
1;
19
b1 =
15
08
#1911600
0(
b0 q
13
#1915200
03
#1918800
13
#1920000
b0 ?
0:
09
b1 >
16
#1922400
03
#1926000
1(
b1 q
0!
13
#1929600
03
#1930000
b0 D
0<
b1 ?
1:
19
b0 =
05
b0 >
06
#1933200
0)
0(
1!
b0 p
b0 q
13
#1936800
03
#1940000
b1 D
1<
b0 ?
0:
b0 @
0;
09
b1 =
15
1I
1H
1G
1F
1E
14
18
#1940400
0!
13
#1944000
03
#1947600
13
#1950000
b1 ?
1:
b1 @
1;
19
0I
0H
0G
0F
0E
04
#1951200
03
#1954800
13
#1958400
03
#1960000
0<
b0 @
0;
08
#1962000
1)
1!
b1 p
13
#1965600
03
#1969200
13
#1970000
b0 D
b0 ?
0:
b0 =
05
b1 >
16
1I
1H
1G
1F
1E
14
18
#1972800
03
#1976400
0)
0!
b0 p
13
#1980000
b1 D
03
b1 =
15
b0 >
06
08
#1983600
13
#1987200
03
#1990000
b1 ?
1:
b1 @
1;
09
18
#1990800
13
#1994400
03
#1998000
13
#2000000
b0 D
1<
19
b0 =
05
b1 >
16
#2001600
03
#2005200
13
#2008800
03
#2010000
b1 D
b0 ?
0:
b1 =
15
08
#2012400
13
#2016000
03
#2019600
13
#2020000
0<
b1 ?
1:
09
b0 >
06
18
#2023200
03
#2026800
13
#2030000
b0 D
1<
b0 ?
0:
b0 =
05
0I
0H
0G
0F
0E
04
#2030400
03
#2034000
13
#2037600
03
#2040000
b1 >
16
1I
1H
1G
1F
1E
14
08
#2041200
13
#2044800
03
#2048400
13
#2050000
19
18
#2052000
03
#2055600
13
#2059200
03
#2060000
0<
08
#2062800
13
#2066400
03
#2070000
13
1<
b1 ?
1:
09
b0 >
06
0I
0H
0G
0F
0E
04
18
#2073600
03
#2077200
13
#2080000
0<
b0 @
0;
b1 >
16
08
#2080800
03
#2084400
1(
b1 q
13
#2088000
03
#2090000
1<
b0 ?
0:
b1 @
1;
b0 >
06
1I
1H
1G
1F
1E
14
#2091600
0(
b0 q
13
#2095200
03
#2098800
13
#2100000
0<
b1 ?
1:
b1 >
16
18
#2102400
03
#2106000
13
#2109600
03
#2110000
b1 D
1<
b1 =
15
b0 >
06
0I
0H
0G
0F
0E
04
#2113200
13
#2116800
03
#2120000
b0 D
0<
b0 @
0;
19
b0 =
05
b1 >
16
1I
1H
1G
1F
1E
14
#2120400
13
#2124000
03
#2127600
13
#2130000
b1 D
b1 =
15
0I
0H
0G
0F
0E
04
#2131200
03
#2134800
13
#2138400
03
#2140000
b0 D
b1 @
1;
b0 =
05
b0 >
06
#2142000
13
#2145600
03
#2149200
13
#2150000
b1 D
1<
b0 ?
0:
b0 @
0;
b1 =
15
#2152800
03
#2156400
13
#2160000
b0 D
03
b1 ?
1:
b1 @
1;
b0 =
05
1I
1H
1G
1F
1E
14
08
#2163600
13
#2167200
03
#2170000
0<
b0 ?
0:
09
b1 >
16
0I
0H
0G
0F
0E
04
18
#2170800
13
#2174400
03
#2178000
13
#2180000
1<
b0 >
06
1I
1H
1G
1F
1E
14
#2181600
03
#2185200
13
#2188800
03
#2190000
b1 D
b1 ?
1:
b1 =
15
b1 >
16
0I
0H
0G
0F
0E
04
#2192400
13
#2196000
03
#2199600
13
#2200000
b0 ?
0:
08
#2203200
03
#2206800
1)
1(
b1 p
b1 q
13
#2210000
b0 D
b1 ?
1:
b0 @
0;
b0 =
05
1I
1H
1G
1F
1E
14
18
#2210400
03
#2214000
0(
0)
b0 q
b0 p
13
#2217600
03
#2220000
b0 ?
0:
#2221200
13
#2224800
03
#2228400
13
