storage/qspi_controller/tb_qspi_controller.vcd
$date
	Fri Jun  5 19:21:03 2026
$end
$version
	Icarus Verilog
$end
$timescale
	1ps
$end
$scope module tb_qspi_controller $end
$var wire 1 ! pready $end
$var wire 1 " pslverr $end
$var wire 4 # qspi_io [3:0] $end
$var wire 2 $ s_rresp [1:0] $end
$var wire 1 % s_rvalid $end
$var wire 32 & s_rdata [31:0] $end
$var wire 1 ' s_arready $end
$var wire 1 ( qspi_sclk $end
$var wire 1 ) qspi_cs_n $end
$var wire 32 * prdata [31:0] $end
$var reg 1 + clk $end
$var reg 32 , paddr [31:0] $end
$var reg 1 - penable $end
$var reg 1 . psel $end
$var reg 32 / pwdata [31:0] $end
$var reg 1 0 pwrite $end
$var reg 1 1 rst_n $end
$var reg 32 2 s_araddr [31:0] $end
$var reg 1 3 s_arvalid $end
$var reg 1 4 s_rready $end
$scope module uut $end
$var wire 1 + clk $end
$var wire 32 5 paddr [31:0] $end
$var wire 1 - penable $end
$var wire 1 ! pready $end
$var wire 1 . psel $end
$var wire 1 " pslverr $end
$var wire 32 6 pwdata [31:0] $end
$var wire 1 0 pwrite $end
$var wire 4 7 qspi_io [3:0] $end
$var wire 1 ( qspi_sclk $end
$var wire 1 1 rst_n $end
$var wire 32 8 s_araddr [31:0] $end
$var wire 1 ' s_arready $end
$var wire 1 3 s_arvalid $end
$var wire 32 9 s_rdata [31:0] $end
$var wire 1 4 s_rready $end
$var wire 2 : s_rresp [1:0] $end
$var wire 1 % s_rvalid $end
$var wire 1 ) qspi_cs_n $end
$var wire 32 ; prdata [31:0] $end
$var parameter 3 < ADDR $end
$var parameter 32 = AW $end
$var parameter 3 > CMD $end
$var parameter 3 ? DONE $end
$var parameter 3 @ DUMMY $end
$var parameter 32 A DW $end
$var parameter 3 B IDLE $end
$var parameter 3 C READ $end
$var reg 32 D cmd_reg [31:0] $end
$var reg 8 E counter [7:0] $end
$var reg 32 F ctrl_reg [31:0] $end
$var reg 32 G rx_data [31:0] $end
$var reg 1 H s_arready_reg $end
$var reg 1 I s_rvalid_reg $end
$var reg 32 J stat_reg [31:0] $end
$var reg 3 K state [2:0] $end
$var reg 32 L tx_data [31:0] $end
$var reg 32 M xip_data [31:0] $end
$upscope $end
$upscope $end
$enddefinitions $end
$comment Show the parameter values. $end
$dumpall
b100 C
b0 B
b100000 A
b11 @
b101 ?
b1 >
b100000 =
b10 <
$end
#0
$dumpvars
bx M
bx L
bx K
bx J
xI
xH
bx G
bx F
bx E
bx D
bx ;
b0 :
bx 9
b0 8
bz 7
b0 6
b0 5
04
03
b0 2
x1
00
b0 /
0.
0-
b0 ,
0+
bx *
x)
0(
x'
bx &
x%
b0 $
bz #
0"
1!
$end
#3600
1(
1+
#7200
0(
0+
#10000
1)
b0 *
b0 ;
0%
0I
0'
0H
b0 E
b0 &
b0 9
b0 M
b0 K
b0 J
b0 L
b0 D
b0 F
01
#10800
1(
1+
#14400
0(
0+
#18000
1(
1+
#21600
0(
0+
#25200
1(
1+
#28800
0(
0+
#32400
1(
1+
#36000
0(
0+
#39600
1(
1+
#43200
0(
0+
#46800
1(
1+
#50400
0(
0+
#54000
1(
1+
#57600
0(
0+
#61200
1(
1+
#64800
0(
0+
#68400
1(
1+
#72000
0(
0+
#75600
1(
1+
#79200
0(
0+
#82800
1(
1+
#86400
0(
0+
#90000
1(
1+
#93600
0(
0+
#97200
1(
1+
#100800
0(
0+
#104400
1(
1+
#108000
0(
0+
#110000
11
#111600
1(
1+
#115200
0(
0+
#118800
1(
1+
#122400
0(
0+
#126000
1(
1+
#129600
0(
0+
#133200
1(
1+
#136800
0(
0+
#140000
b10001001001101110101001000010010 /
b10001001001101110101001000010010 6
10
1-
1.
b10110001111100000101011001100011 ,
b10110001111100000101011001100011 5
14
b11000000100010010101111010000001 2
b11000000100010010101111010000001 8
#140400
1(
1+
#144000
0(
0+
#147600
1(
1+
#150000
b11100011001101110010010011000110 /
b11100011001101110010010011000110 6
0-
b11110100011011100110100111101 ,
b11110100011011100110100111101 5
04
b110110101111100110100001101 2
b110110101111100110100001101 8
13
#151200
0(
0+
#154800
0)
b111 E
b1 K
1'
1H
1(
1+
#158400
0(
0+
#160000
b11100111011101101001011011001110 /
b11100111011101101001011011001110 6
00
1-
0.
b10111011110100100111001001110111 ,
b10111011110100100111001001110111 5
14
b11010101000100111101001010101010 2
b11010101000100111101001010101010 8
#162000
b110 E
0'
0H
1(
1+
#165600
0(
0+
#169200
b101 E
1(
1+
#170000
b101011100111000011100001010 /
b101011100111000011100001010 6
10
1.
b11011110100011100010100010111101 ,
b11011110100011100010100010111101 5
04
b11100010110010100100111011000101 2
b11100010110010100100111011000101 8
03
#172800
0(
0+
#176400
b100 E
1(
1+
#180000
0(
0+
b10101001101001111101011001010011 /
b10101001101001111101011001010011 6
0.
b11001110110011001100110010011101 ,
b11001110110011001100110010011101 5
b10000011001000010000100100000 2
b10000011001000010000100100000 8
#183600
b11 E
1(
1+
#187200
0(
0+
#190000
b101000010010110010100001010 /
b101000010010110010100001010 6
1.
b11010111010101100011111010101110 ,
b11010111010101100011111010101110 5
b11101010101001100010101011010101 2
b11101010101001100010101011010101 8
13
#190800
b10 E
1(
1+
#194400
0(
0+
#198000
b1 E
1(
1+
#200000
b11000100100010100001001010001001 /
b11000100100010100001001010001001 6
00
0-
b1000101001011100110000110001010 ,
b1000101001011100110000110001010 5
b10011110001100010100110000111100 2
b10011110001100010100110000111100 8
03
#201600
0(
0+
#205200
b0 E
1(
1+
#208800
0(
0+
#210000
b10111000100101111011111001110001 /
b10111000100101111011111001110001 6
10
0.
b1010111000101010001001110101110 ,
b1010111000101010001001110101110 5
b1011011000000100110010110110110 2
b1011011000000100110010110110110 8
13
#212400
b101 E
b10 K
1(
1+
#216000
0(
0+
#219600
b100 E
1(
1+
#220000
b1101100100111000100101111011001 /
b1101100100111000100101111011001 6
1-
b11101000001100011001100111010 ,
b11101000001100011001100111010 5
14
b100111111100100101010101001111 2
b100111111100100101010101001111 8
#223200
0(
0+
#226800
b11 E
1(
1+
#230000
b10101110011111011001010001011100 /
b10101110011111011001010001011100 6
b1000111101110011010000110001111 ,
b1000111101110011010000110001111 5
b100110001101011111101101001100 2
b100110001101011111101101001100 8
03
#230400
0(
0+
#234000
b10 E
1(
1+
#237600
0(
0+
#240000
b110000111010111111100001100 /
b110000111010111111100001100 6
00
1.
b11101000001000110011111011010000 ,
b11101000001000110011111011010000 5
b1000100110111100011011110001001 2
b1000100110111100011011110001001 8
13
#241200
b1 E
1(
1+
#244800
0(
0+
#248400
b0 E
1(
1+
#250000
b11100110110011110011100111001 /
b11100110110011110011100111001 6
10
0-
0.
b11110111100101110110100111101 ,
b11110111100101110110100111101 5
b1100100010101111110110111001000 2
b1100100010101111110110111001000 8
03
#252000
0(
0+
#255600
b101 E
b11 K
1(
1+
#259200
0(
0+
#260000
b10101000011001010111100101010 /
b10101000011001010111100101010 6
1-
1.
b10111100000101001000100001111000 ,
b10111100000101001000100001111000 5
b11101001111010111111011011010011 2
b11101001111010111111011011010011 8
13
#262800
b100 E
1(
1+
#266400
0(
0+
#270000
b11 E
1(
1+
b11010001100010111011010010100011 /
b11010001100010111011010010100011 6
0-
0.
b11001110001011111111001010011100 ,
b11001110001011111111001010011100 5
04
b11000011001111110011100010000110 2
b11000011001111110011100010000110 8
03
#273600
0(
0+
#277200
b10 E
1(
1+
#280000
b101101001010001101101101011010 /
b101101001010001101101101011010 6
00
1-
1.
b100010001010010000110101000100 ,
b100010001010010000110101000100 5
14
b11011001110100101001001010110011 2
b11011001110100101001001010110011 8
13
#280800
0(
0+
#284400
b1 E
1(
1+
#288000
0(
0+
#290000
b100010001100011111111101000100 /
b100010001100011111111101000100 6
10
b10110010100111111011011001100101 ,
b10110010100111111011011001100101 5
04
b11110110100000101110001011101101 2
b11110110100000101110001011101101 8
#291600
b0 E
1(
1+
#295200
0(
0+
#298800
b111 E
b100 K
1(
1+
#300000
b11100001111100010000001011000011 /
b11100001111100010000001011000011 6
0-
0.
b111011011111100111100001110 ,
b111011011111100111100001110 5
14
b10101000010010000101100101010 2
b10101000010010000101100101010 8
03
#302400
0(
0+
#306000
b110 E
1(
1+
#309600
0(
0+
#310000
b11011100001010111100010010111000 /
b11011100001010111100010010111000 6
b10000101001100010011010000001010 ,
b10000101001100010011010000001010 5
b100111011110011110100101001110 2
b100111011110011110100101001110 8
#313200
b101 E
1(
1+
#316800
0(
0+
#320000
b10110110101001000010011001101101 /
b10110110101001000010011001101101 6
1-
1.
b10101100101101111100101001011001 ,
b10101100101101111100101001011001 5
04
b1001001110001100101110110010011 2
b1001001110001100101110110010011 8
#320400
b100 E
1(
1+
#324000
0(
0+
#327600
b11 E
1(
1+
#330000
b110100100110000000011101101001 /
b110100100110000000011101101001 6
0-
0.
b1001010100100110111000110010101 ,
b1001010100100110111000110010101 5
b1100101001110110100100111001010 2
b1100101001110110100100111001010 8
#331200
0(
0+
#334800
b10 E
1(
1+
#338400
0(
0+
#340000
b1110010000010100010100011100 /
b1110010000010100010100011100 6
00
1.
b10010110100100000000010000101101 ,
b10010110100100000000010000101101 5
b1000100000000011000110110001000 2
b1000100000000011000110110001000 8
#342000
b1 E
1(
1+
#345600
0(
0+
#349200
b0 E
1(
1+
#350000
b10111000010101011100010001110000 /
b10111000010101011100010001110000 6
1-
0.
b1000011001101010110011110000110 ,
b1000011001101010110011110000110 5
b10100100111100000011100101001 2
b10100100111100000011100101001 8
13
#352800
0(
0+
#356400
b11001010001100111011100111000110 &
b11001010001100111011100111000110 9
b11001010001100111011100111000110 M
b101 K
1(
1+
#360000
0(
0+
b11011100001110110000100110111 /
b11011100001110110000100110111 6
10
0-
1.
b1111101010001110111100111111010 ,
b1111101010001110111100111111010 5
b1011101011100011001100110111010 2
b1011101011100011001100110111010 8
#363600
1%
1I
1(
1+
#367200
0(
0+
#370000
b111100000000111111111101111000 /
b111100000000111111111101111000 6
00
b11011011010001100001101010110110 ,
b11011011010001100001101010110110 5
b1100000001110010010000111000000 2
b1100000001110010010000111000000 8
03
#370800
1(
1+
#374400
0(
0+
#378000
1(
1+
#380000
b11010000111101010111100010100001 /
b11010000111101010111100010100001 6
10
1-
0.
b111100111011010010101101111001 ,
b111100111011010010101101111001 5
14
b11101101100011011000000011011011 2
b11101101100011011000000011011011 8
#381600
0(
0+
#385200
1)
b0 K
0%
0I
1(
1+
#388800
0(
0+
#390000
b11001100000000011011010010011000 /
b11001100000000011011010010011000 6
1.
b10011010101101001000100000110101 ,
b10011010101101001000100000110101 5
b10101000011000111001011001010000 2
b10101000011000111001011001010000 8
#392400
1(
1+
#396000
0(
0+
#399600
1(
1+
#400000
b11010000110010101000110010100001 /
b11010000110010101000110010100001 6
0-
0.
b11000101010100000001011010001010 ,
b11000101010100000001011010001010 5
04
b10111001100011000100001001110011 2
b10111001100011000100001001110011 8
13
#403200
0(
0+
#406800
0)
b111 E
b1 K
1'
1H
1(
1+
#410000
b10011100011011011110011000111000 /
b10011100011011011110011000111000 6
00
1-
b10101001011111011010100101010 ,
b10101001011111011010100101010 5
14
b11110011001101000110011011100110 2
b11110011001101000110011011100110 8
03
#410400
0(
0+
#414000
b110 E
0'
0H
1(
1+
#417600
0(
0+
#420000
b1011101000001011001110110111010 /
b1011101000001011001110110111010 6
1.
b1001111111110100000100010011 ,
b1001111111110100000100010011 5
04
b1100100011001001110001111001000 2
b1100100011001001110001111001000 8
13
#421200
b101 E
1(
1+
#424800
0(
0+
#428400
b100 E
1(
1+
#430000
b11111001001001111001010011110010 /
b11111001001001111001010011110010 6
0-
b11011010001001101001101010110100 ,
b11011010001001101001101010110100 5
b1011100100000101001010110111001 2
b1011100100000101001010110111001 8
03
#432000
0(
0+
#435600
b11 E
1(
1+
#439200
0(
0+
#440000
b1000111011001011010100110001110 /
b1000111011001011010100110001110 6
10
1-
0.
b11110010010010011010010011100100 ,
b11110010010010011010010011100100 5
b11011110110011100101111010111101 2
b11011110110011100101111010111101 8
#442800
b10 E
1(
1+
#446400
0(
0+
#450000
b1 E
1(
1+
b110101110011011011111101101011 /
b110101110011011011111101101011 6
b1100100110010000011110111001001 ,
b1100100110010000011110111001001 5
14
b10000101111001010001111000001011 2
b10000101111001010001111000001011 8
13
#453600
0(
0+
#457200
b0 E
1(
1+
#460000
b11100001011010011011000011000010 /
b11100001011010011011000011000010 6
b1001001001111100100010110010010 ,
b1001001001111100100010110010010 5
b11010111001111111011010010101110 2
b11010111001111111011010010101110 8
03
#460800
0(
0+
#464400
b101 E
b10 K
1(
1+
#468000
0(
0+
#470000
b10011101101111110110010000111011 /
b10011101101111110110010000111011 6
0-
1.
b1100000000111001110100011000 ,
b1100000000111001110100011000 5
04
b110101100110000010100001101 2
b110101100110000010100001101 8
#471600
b100 E
1(
1+
#475200
0(
0+
#478800
b11 E
1(
1+
#480000
b11101100010100001011010011011000 /
b11101100010100001011010011011000 6
0.
b10101101101011000010001001011011 ,
b10101101101011000010001001011011 5
b101001111011111110100101010011 2
b101001111011111110100101010011 8
#482400
0(
0+
#486000
b10 E
1(
1+
#489600
0(
0+
#490000
b1100100000110111000010111001000 /
b1100100000110111000010111001000 6
1-
1.
b11110010100001111011011011100101 ,
b11110010100001111011011011100101 5
14
b11011100000000110100010010111000 2
b11011100000000110100010010111000 8
#493200
b1 E
1(
1+
#496800
0(
0+
#500000
b10001001000110011011010000010010 /
b10001001000110011011010000010010 6
00
0-
0.
b10000010001000100011101000000100 ,
b10000010001000100011101000000100 5
b1010000110101011111100110100001 2
b1010000110101011111100110100001 8
13
#500400
b0 E
1(
1+
#504000
0(
0+
#507600
b101 E
b11 K
1(
1+
#510000
b10010011110000010010001000100111 /
b10010011110000010010001000100111 6
10
1-
1.
b11110110110000111000111011101101 ,
b11110110110000111000111011101101 5
b11011000101011001110001010110001 2
b11011000101011001110001010110001 8
03
#511200
0(
0+
#514800
b100 E
1(
1+
#518400
0(
0+
#520000
b101000100000111011000101010001 /
b101000100000111011000101010001 6
b11011100111011111001000010111001 ,
b11011100111011111001000010111001 5
b11010011101010001110010010100111 2
b11010011101010001110010010100111 8
#522000
b11 E
1(
1+
#525600
0(
0+
#529200
b10 E
1(
1+
#530000
b11111111010011110011110011111110 /
b11111111010011110011110011111110 6
00
0-
b10100010111001100010000001000101 ,
b10100010111001100010000001000101 5
04
b10101010001101101110100101010 2
b10101010001101101110100101010 8
13
#532800
0(
0+
#536400
b1 E
1(
1+
#540000
0(
0+
b1111011000011011010100111110110 /
b1111011000011011010100111110110 6
0.
b1111000001000110010000111110000 ,
b1111000001000110010000111110000 5
b10110111110111111010101001101111 2
b10110111110111111010101001101111 8
03
#543600
b0 E
1(
1+
#547200
0(
0+
#550000
b110001001001001101001101100010 /
b110001001001001101001101100010 6
b11100110111100111000100111001 ,
b11100110111100111000100111001 5
b1100000001010000011000111000000 2
b1100000001010000011000111000000 8
13
#550800
b111 E
b100 K
1(
1+
#554400
0(
0+
#558000
b110 E
1(
1+
#560000
b1100000111101101001110111000001 /
b1100000111101101001110111000001 6
10
1.
b10100001100010111110111001000011 ,
b10100001100010111110111001000011 5
14
b11110000101100010100111011100001 2
b11110000101100010100111011100001 8
#561600
0(
0+
#565200
b101 E
1(
1+
#568800
0(
0+
#570000
b1011011011000001110010110110110 /
b1011011011000001110010110110110 6
1-
0.
b10110010110110111101100101100 ,
b10110010110110111101100101100 5
b10101101011001111110001001011010 2
b10101101011001111110001001011010 8
#572400
b100 E
1(
1+
#576000
0(
0+
#579600
b11 E
1(
1+
#580000
b11011010001111011000110010110100 /
b11011010001111011000110010110100 6
00
0-
b101010101110001111011101010101 ,
b101010101110001111011101010101 5
04
b11001111000101001100111010011110 2
b11001111000101001100111010011110 8
#583200
0(
0+
#586800
b10 E
1(
1+
#590000
b1000111111000100111001110001111 /
b1000111111000100111001110001111 6
10
1-
b10111100110011000100001001111001 ,
b10111100110011000100001001111001 5
14
b10000110110111001111000000001101 2
b10000110110111001111000000001101 8
#590400
0(
0+
#594000
b1 E
1(
1+
#597600
0(
0+
#600000
b11110110101000010111100011101101 /
b11110110101000010111100011101101 6
00
b1011000111110010011110110110001 ,
b1011000111110010011110110110001 5
b1110001110000010010100111100011 2
b1110001110000010010100111100011 8
#601200
b0 E
1(
1+
#604800
0(
0+
#608400
b10101111011011001001011100001100 &
b10101111011011001001011100001100 9
b10101111011011001001011100001100 M
b101 K
1(
1+
#610000
b1001000010010000111110110010000 /
b1001000010010000111110110010000 6
0-
b10101001010111111100010001010010 ,
b10101001010111111100010001010010 5
b1111100000111100101101111111000 2
b1111100000111100101101111111000 8
03
#612000
0(
0+
#615600
1%
1I
1(
1+
#619200
0(
0+
#620000
b11000101101000010110000010001011 /
b11000101101000010110000010001011 6
b11010101010110111011110010101010 ,
b11010101010110111011110010101010 5
04
b110101001011010110000101101010 2
b110101001011010110000101101010 8
13
#622800
1(
1+
#626400
0(
0+
#630000
1(
1+
b100101111100100000001101001011 /
b100101111100100000001101001011 6
10
1.
b11010001000001010000010010100010 ,
b11010001000001010000010010100010 5
b10010010100000110001111000100101 2
b10010010100000110001111000100101 8
03
#633600
0(
0+
#637200
1(
1+
#640000
b1000110011111000100010110001100 /
b1000110011111000100010110001100 6
00
0.
b10011100101011110111101000111001 ,
b10011100101011110111101000111001 5
b100011100100000111010101000111 2
b100011100100000111010101000111 8
#640800
0(
0+
#644400
1(
1+
#648000
0(
0+
#650000
b10001111111100000010100100011 /
b10001111111100000010100100011 6
1-
1.
b1110100011010101111111111101000 ,
b1110100011010101111111111101000 5
14
b10110101001000100100000001101010 2
b10110101001000100100000001101010 8
13
#651600
1)
b0 K
0%
0I
1(
1+
#655200
0(
0+
#658800
0)
b111 E
b1 K
1'
1H
1(
1+
#660000
b1011000001100010010010110110000 /
b1011000001100010010010110110000 6
10
0.
b11101111100000110111001011011111 ,
b11101111100000110111001011011111 5
b1100100111000010110010111001001 2
b1100100111000010110010111001001 8
03
#662400
0(
0+
#666000
b110 E
0'
0H
1(
1+
#669600
0(
0+
#670000
b10010101010010111000001000101010 /
b10010101010010111000001000101010 6
b10000000000001011011100100000 ,
b10000000000001011011100100000 5
b100100110100101011111101001001 2
b100100110100101011111101001001 8
#673200
b101 E
1(
1+
#676800
0(
0+
#680000
b10101001011111110000000001010010 /
b10101001011111110000000001010010 6
00
1.
b1000010001001101010100110000100 ,
b1000010001001101010100110000100 5
04
b10101110110101110010111001011101 2
b10101110110101110010111001011101 8
#680400
b100 E
1(
1+
#684000
0(
0+
#687600
b11 E
1(
1+
#690000
b10000000011110010111110000000000 /
b10000000011110010111110000000000 6
10
0-
b1001011111101010010100110010111 ,
b1001011111101010010100110010111 5
b11101000001010111001011011010000 2
b11101000001010111001011011010000 8
13
#691200
0(
0+
#694800
b10 E
1(
1+
#698400
0(
0+
#700000
b10101000111001001101100001010001 /
b10101000111001001101100001010001 6
00
1-
b101100101010000001100101011001 ,
b101100101010000001100101011001 5
b10110100111010001101011001101001 2
b10110100111010001101011001101001 8
#702000
b1 E
1(
1+
#705600
0(
0+
#709200
b0 E
1(
1+
#710000
b11011011111001101111001010110111 /
b11011011111001101111001010110111 6
0-
b11101100001101110101100011011000 ,
b11101100001101110101100011011000 5
b111011100000111100110101110111 2
b111011100000111100110101110111 8
#712800
0(
0+
#716400
b101 E
b10 K
1(
1+
#720000
0(
0+
b1110100101000011010110111101001 /
b1110100101000011010110111101001 6
1-
0.
b1011010110101101100011110110101 ,
b1011010110101101100011110110101 5
14
b10011000010011010101101000110000 2
b10011000010011010101101000110000 8
03
#723600
b100 E
1(
1+
#727200
0(
0+
#730000
b11010111101100101110010010101111 /
b11010111101100101110010010101111 6
b11000000011101100100001010000000 ,
b11000000011101100100001010000000 5
b111100100101111100000001 2
b111100100101111100000001 8
13
#730800
b11 E
1(
1+
#734400
0(
0+
#738000
b10 E
1(
1+
#740000
b11001010101101000111110010010101 /
b11001010101101000111110010010101 6
10
b1111100010000011010111111111000 ,
b1111100010000011010111111111000 5
b1010111111110111011100110101111 2
b1010111111110111011100110101111 8
03
#741600
0(
0+
#745200
b1 E
1(
1+
#748800
0(
0+
#750000
b10111011101111000101001001110111 /
b10111011101111000101001001110111 6
b10010100001000001110101000101000 ,
b10010100001000001110101000101000 5
b110000010011100100110101100000 2
b110000010011100100110101100000 8
#752400
b0 E
1(
1+
#756000
0(
0+
#759600
b101 E
b11 K
1(
1+
#760000
b11111000110111000100100011110001 /
b11111000110111000100100011110001 6
0-
b110100001101111101010101101000 ,
b110100001101111101010101101000 5
b1000000101010101111010110000001 2
b1000000101010101111010110000001 8
#763200
0(
0+
#766800
b100 E
1(
1+
#770000
b11010111101000100011110010101111 /
b11010111101000100011110010101111 6
1-
1.
b11110011001100100110100111100 ,
b11110011001100100110100111100 5
04
b1000111001011101001010110001110 2
b1000111001011101001010110001110 8
13
#770400
0(
0+
#774000
b11 E
1(
1+
#777600
0(
0+
#780000
b11001100100110000001000010011001 /
b11001100100110000001000010011001 6
b1001110010000011010100010011 ,
b1001110010000011010100010011 5
14
b1011100110100100000110110111001 2
b1011100110100100000110110111001 8
03
#781200
b10 E
1(
1+
#784800
0(
0+
#788400
b1 E
1(
1+
#790000
b1110010110000111010001111100101 /
b1110010110000111010001111100101 6
0.
b11110010001101010110101011100100 ,
b11110010001101010110101011100100 5
04
b10111000111010100011101001110001 2
b10111000111010100011101001110001 8
#792000
0(
0+
#795600
b0 E
1(
1+
#799200
0(
0+
#800000
b10000011001001101101010000000110 /
b10000011001001101101010000000110 6
00
1.
b1010111110000011101000110101111 ,
b1010111110000011101000110101111 5
14
b11100100101010000000000011001001 2
b11100100101010000000000011001001 8
13
#802800
b111 E
b100 K
1(
1+
#806400
0(
0+
#810000
b110 E
1(
1+
b10111100001111111000010001111000 /
b10111100001111111000010001111000 6
10
0.
b1101110001111010100011111011100 ,
b1101110001111010100011111011100 5
04
b1011110100110000011110110111101 2
b1011110100110000011110110111101 8
03
#813600
0(
0+
#817200
b101 E
1(
1+
#820000
b10111001100001111001010001110011 /
b10111001100001111001010001110011 6
00
b111100101100111010101101111001 ,
b111100101100111010101101111001 5
14
b10101110001000111100111001011100 2
b10101110001000111100111001011100 8
#820800
0(
0+
#824400
b100 E
1(
1+
#828000
0(
0+
#830000
b10111010111101001110001001110101 /
b10111010111101001110001001110101 6
1.
b10101100111011001101110001011001 ,
b10101100111011001101110001011001 5
04
b11100111000011111001100011001110 2
b11100111000011111001100011001110 8
#831600
b11 E
1(
1+
#835200
0(
0+
#838800
b10 E
1(
1+
#840000
b1011100011110010101000110111000 /
b1011100011110010101000110111000 6
0-
b10001010111011001011111000010101 ,
b10001010111011001011111000010101 5
b10011100111111000111101000111001 2
b10011100111111000111101000111001 8
#842400
0(
0+
#846000
b1 E
1(
1+
#849600
0(
0+
#850000
b111101100000101011110101111011 /
b111101100000101011110101111011 6
1-
0.
b1110100011100110011000111101000 ,
b1110100011100110011000111101000 5
14
b1000110111001110101001110001101 2
b1000110111001110101001110001101 8
#853200
b0 E
1(
1+
#856800
0(
0+
#860000
b10011000011110110000100000110000 /
b10011000011110110000100000110000 6
1.
b10111000011111000001000001110000 ,
b10111000011111000001000001110000 5
b10010101010010000001100100101 2
b10010101010010000001100100101 8
#860400
b11001100000001001011110111001010 &
b11001100000001001011110111001010 9
b11001100000001001011110111001010 M
b101 K
1(
1+
#864000
0(
0+
#867600
1%
1I
1(
1+
#870000
b11001010010010000001001010010100 /
b11001010010010000001001010010100 6
10
b100110101111110011111101001101 ,
b100110101111110011111101001101 5
b101000011101100110100101010000 2
b101000011101100110100101010000 8
#871200
0(
0+
#874800
1)
b0 K
0%
0I
1(
1+
#878400
0(
0+
#880000
b11001001110010111011110010010011 /
b11001001110010111011110010010011 6
0-
0.
b11001111001100001001110010011110 ,
b11001111001100001001110010011110 5
04
b1011110011000000110010110111100 2
b1011110011000000110010110111100 8
#882000
1(
1+
#885600
0(
0+
#889200
1(
1+
#890000
b10001111011000111110010000011110 /
b10001111011000111110010000011110 6
00
1.
b10110001100000000000101001100011 ,
b10110001100000000000101001100011 5
14
b1011011110100111101101110110111 2
b1011011110100111101101110110111 8
13
#892800
0(
0+
#896400
0)
b111 E
b1 K
1'
1H
1(
1+
#900000
0(
0+
b1101100011010100110110111011000 /
b1101100011010100110110111011000 6
10
b1011100100110010110011110111001 ,
b1011100100110010110011110111001 5
04
b101101000110011010010101011010 2
b101101000110011010010101011010 8
03
#903600
b110 E
0'
0H
1(
1+
#907200
0(
0+
#910000
b1010010101101010011001110100101 /
b1010010101101010011001110100101 6
0.
b1111110001001001001000111111100 ,
b1111110001001001001000111111100 5
14
b1000110110101101010011110001101 2
b1000110110101101010011110001101 8
13
#910800
b101 E
1(
1+
#914400
0(
0+
#918000
b100 E
1(
1+
#920000
b1100000101100001100100011000 /
b1100000101100001100100011000 6
00
b1100010000001010110101111000100 ,
b1100010000001010110101111000100 5
04
b11111001100010111100000011110011 2
b11111001100010111100000011110011 8
03
#921600
0(
0+
#925200
b11 E
1(
1+
#928800
0(
0+
#930000
b1100001110110101111110111000011 /
b1100001110110101111110111000011 6
10
b1100001110110111101010111000011 ,
b1100001110110111101010111000011 5
b1010101000101011101000110101010 2
b1010101000101011101000110101010 8
13
#932400
b10 E
1(
1+
#936000
0(
0+
#939600
b1 E
1(
1+
#940000
b110100010011011100000101101000 /
b110100010011011100000101101000 6
1-
1.
b1000100100000111010110110001001 ,
b1000100100000111010110110001001 5
b1111100001011011011100111111000 2
b1111100001011011011100111111000 8
#943200
0(
0+
#946800
b0 E
1(
1+
#950000
b10000010001101000100001000000100 /
b10000010001101000100001000000100 6
00
0.
b10001101100101001101001000011011 ,
b10001101100101001101001000011011 5
14
b1100111111010000101011111001111 2
b1100111111010000101011111001111 8
#950400
0(
0+
#954000
b101 E
b10 K
1(
1+
#957600
0(
0+
#960000
b1100000010100000110010111000000 /
b1100000010100000110010111000000 6
0-
b10111100111000110010100001111001 ,
b10111100111000110010100001111001 5
04
b11011001101101000101100110110 2
b11011001101101000101100110110 8
#961200
b100 E
1(
1+
#964800
0(
0+
#968400
b11 E
1(
1+
#970000
b11100000111000000000010011000001 /
b11100000111000000000010011000001 6
10
b1111101111111101000111111111011 ,
b1111101111111101000111111111011 5
14
b1000110011001010011011110001100 2
b1000110011001010011011110001100 8
03
#972000
0(
0+
#975600
b10 E
1(
1+
#979200
0(
0+
#980000
b11101011000111010000001011010110 /
b11101011000111010000001011010110 6
1.
b11000111101100101110001010001111 ,
b11000111101100101110001010001111 5
b1011010100111010011101110110101 2
b1011010100111010011101110110101 8
13
#982800
b1 E
1(
1+
#986400
0(
0+
#990000
b0 E
1(
1+
b10101111010100001100000101 /
b10101111010100001100000101 6
1-
0.
b11101011100010000000010011010111 ,
b11101011100010000000010011010111 5
b1101011000110111010100011010 2
b1101011000110111010100011010 8
03
#993600
0(
0+
#997200
b101 E
b11 K
1(
1+
#1000000
b11111111011100101001111011111110 /
b11111111011100101001111011111110 6
1.
b10010101010000011101011000101010 ,
b10010101010000011101011000101010 5
04
b1001100000110001100011110011000 2
b1001100000110001100011110011000 8
#1000800
0(
0+
#1004400
b100 E
1(
1+
#1008000
0(
0+
#1010000
b10110100011010101111110001101000 /
b10110100011010101111110001101000 6
00
0-
0.
b10111010011000000011100001110100 ,
b10111010011000000011100001110100 5
b10011111011110100000111000111110 2
b10011111011110100000111000111110 8
13
#1011600
b11 E
1(
1+
#1015200
0(
0+
#1018800
b10 E
1(
1+
#1020000
b10000111110100000011011000001111 /
b10000111110100000011011000001111 6
10
1-
1.
b1111001100111110000100111110011 ,
b1111001100111110000100111110011 5
b11111111001000000010111011111110 2
b11111111001000000010111011111110 8
#1022400
0(
0+
#1026000
b1 E
1(
1+
#1029600
0(
0+
#1030000
b11111010010010000011001011110100 /
b11111010010010000011001011110100 6
00
b11101010011101100010011011010100 ,
b11101010011101100010011011010100 5
b10101000000000000010100101010 2
b10101000000000000010100101010 8
03
#1033200
b0 E
1(
1+
#1036800
0(
0+
#1040000
b11110011101001100101100111100 /
b11110011101001100101100111100 6
0-
b11011100100110010111010010111001 ,
b11011100100110010111010010111001 5
14
b11110000111010100111000011100001 2
b11110000111010100111000011100001 8
13
#1040400
b111 E
b100 K
1(
1+
#1044000
0(
0+
#1047600
b110 E
1(
1+
#1050000
b11100111110010100000000 /
b11100111110010100000000 6
0.
b10000111011110001101001000001110 ,
b10000111011110001101001000001110 5
b101100000011000101010101011000 2
b101100000011000101010101011000 8
#1051200
0(
0+
#1054800
b101 E
1(
1+
#1058400
0(
0+
#1060000
b11111101010111110101101011111010 /
b11111101010111110101101011111010 6
10
1-
b101001110000000001111101010011 ,
b101001110000000001111101010011 5
b1111100011011101001000111111000 2
b1111100011011101001000111111000 8
#1062000
b100 E
1(
1+
#1065600
0(
0+
#1069200
b11 E
1(
1+
#1070000
b1010110011010001001100010101 /
b1010110011010001001100010101 6
0-
b10011000110101110011100000110001 ,
b10011000110101110011100000110001 5
b10111000011101100000001001110000 2
b10111000011101100000001001110000 8
#1072800
0(
0+
#1076400
b10 E
1(
1+
#1080000
0(
0+
b11101110010011101110011011011100 /
b11101110010011101110011011011100 6
1-
1.
b11000000011000100000001010000000 ,
b11000000011000100000001010000000 5
04
b1001010011000111000110110010100 2
b1001010011000111000110110010100 8
03
#1083600
b1 E
1(
1+
#1087200
0(
0+
#1090000
b1100100111100101011110111001001 /
b1100100111100101011110111001001 6
00
0-
b10001110000000101101100100011 ,
b10001110000000101101100100011 5
14
b10011110101000000110100100111 2
b10011110101000000110100100111 8
#1090800
b0 E
1(
1+
#1094400
0(
0+
