peripherals/gpio_ctrl/tb_gpio_ctrl.vcd
$date
	Fri Jun  5 11:16:49 2026
$end
$version
	Icarus Verilog
$end
$timescale
	1ps
$end
$scope module tb_gpio_ctrl $end
$var wire 1 ! gpio_pad $end
$var wire 1 " pready $end
$var wire 1 # prdata $end
$var wire 1 $ irq $end
$var reg 1 % clk $end
$var reg 1 & paddr $end
$var reg 1 ' penable $end
$var reg 1 ( psel $end
$var reg 1 ) pwdata $end
$var reg 1 * pwrite $end
$var reg 1 + rst_n $end
$scope module uut $end
$var wire 1 % clk $end
$var wire 32 , gpio_pad [31:0] $end
$var wire 4 - paddr [3:0] $end
$var wire 1 ' penable $end
$var wire 1 " pready $end
$var wire 1 ( psel $end
$var wire 32 . pwdata [31:0] $end
$var wire 1 * pwrite $end
$var wire 1 + rst_n $end
$var wire 1 $ irq $end
$var reg 32 / dir_reg [31:0] $end
$var reg 32 0 gpio_sync1 [31:0] $end
$var reg 32 1 gpio_sync2 [31:0] $end
$var reg 32 2 in_sync [31:0] $end
$var reg 32 3 int_en [31:0] $end
$var reg 32 4 int_pol [31:0] $end
$var reg 32 5 int_raw [31:0] $end
$var reg 32 6 int_stat [31:0] $end
$var reg 32 7 out_reg [31:0] $end
$var reg 32 8 prdata [31:0] $end
$scope begin GPIO_TRIS[0] $end
$var parameter 2 9 i $end
$upscope $end
$scope begin GPIO_TRIS[1] $end
$var parameter 2 : i $end
$upscope $end
$scope begin GPIO_TRIS[2] $end
$var parameter 3 ; i $end
$upscope $end
$scope begin GPIO_TRIS[3] $end
$var parameter 3 < i $end
$upscope $end
$scope begin GPIO_TRIS[4] $end
$var parameter 4 = i $end
$upscope $end
$scope begin GPIO_TRIS[5] $end
$var parameter 4 > i $end
$upscope $end
$scope begin GPIO_TRIS[6] $end
$var parameter 4 ? i $end
$upscope $end
$scope begin GPIO_TRIS[7] $end
$var parameter 4 @ i $end
$upscope $end
$scope begin GPIO_TRIS[8] $end
$var parameter 5 A i $end
$upscope $end
$scope begin GPIO_TRIS[9] $end
$var parameter 5 B i $end
$upscope $end
$scope begin GPIO_TRIS[10] $end
$var parameter 5 C i $end
$upscope $end
$scope begin GPIO_TRIS[11] $end
$var parameter 5 D i $end
$upscope $end
$scope begin GPIO_TRIS[12] $end
$var parameter 5 E i $end
$upscope $end
$scope begin GPIO_TRIS[13] $end
$var parameter 5 F i $end
$upscope $end
$scope begin GPIO_TRIS[14] $end
$var parameter 5 G i $end
$upscope $end
$scope begin GPIO_TRIS[15] $end
$var parameter 5 H i $end
$upscope $end
$scope begin GPIO_TRIS[16] $end
$var parameter 6 I i $end
$upscope $end
$scope begin GPIO_TRIS[17] $end
$var parameter 6 J i $end
$upscope $end
$scope begin GPIO_TRIS[18] $end
$var parameter 6 K i $end
$upscope $end
$scope begin GPIO_TRIS[19] $end
$var parameter 6 L i $end
$upscope $end
$scope begin GPIO_TRIS[20] $end
$var parameter 6 M i $end
$upscope $end
$scope begin GPIO_TRIS[21] $end
$var parameter 6 N i $end
$upscope $end
$scope begin GPIO_TRIS[22] $end
$var parameter 6 O i $end
$upscope $end
$scope begin GPIO_TRIS[23] $end
$var parameter 6 P i $end
$upscope $end
$scope begin GPIO_TRIS[24] $end
$var parameter 6 Q i $end
$upscope $end
$scope begin GPIO_TRIS[25] $end
$var parameter 6 R i $end
$upscope $end
$scope begin GPIO_TRIS[26] $end
$var parameter 6 S i $end
$upscope $end
$scope begin GPIO_TRIS[27] $end
$var parameter 6 T i $end
$upscope $end
$scope begin GPIO_TRIS[28] $end
$var parameter 6 U i $end
$upscope $end
$scope begin GPIO_TRIS[29] $end
$var parameter 6 V i $end
$upscope $end
$scope begin GPIO_TRIS[30] $end
$var parameter 6 W i $end
$upscope $end
$scope begin GPIO_TRIS[31] $end
$var parameter 6 X i $end
$upscope $end
$upscope $end
$upscope $end
$enddefinitions $end
$comment Show the parameter values. $end
$dumpall
b11111 X
b11110 W
b11101 V
b11100 U
b11011 T
b11010 S
b11001 R
b11000 Q
b10111 P
b10110 O
b10101 N
b10100 M
b10011 L
b10010 K
b10001 J
b10000 I
b1111 H
b1110 G
b1101 F
b1100 E
b1011 D
b1010 C
b1001 B
b1000 A
b111 @
b110 ?
b101 >
b100 =
b11 <
b10 ;
b1 :
b0 9
$end
#0
$dumpvars
bx 8
bx 7
bx 6
bx 5
bx 4
bx 3
bx 2
bx 1
bx 0
bx /
b0 .
b0 -
bx ,
x+
0*
0)
0(
0'
0&
0%
x$
x#
1"
x!
$end
#3600
1%
#7200
0%
#10000
z!
bz ,
0$
0#
b11111111111111111111111111111111 5
b0 8
b0 6
b0 4
b0 3
b0 7
b0 /
b0 2
b0 1
b0 0
0+
#10800
1%
#14400
0%
#18000
1%
#21600
0%
#25200
1%
#28800
0%
#32400
1%
#36000
0%
#39600
1%
#43200
0%
#46800
1%
#50400
0%
#54000
1%
#57600
0%
#61200
1%
#64800
0%
#68400
1%
#72000
0%
#75600
1%
#79200
0%
#82800
1%
#86400
0%
#90000
1%
#93600
0%
#97200
1%
#100800
0%
#104400
1%
#108000
0%
#110000
1+
#111600
bz 0
1%
#115200
0%
#118800
bz 1
1%
#122400
0%
#126000
bx 5
bz 2
1%
#129600
0%
#133200
1%
#136800
0%
#140000
b1 .
1)
b1 -
1&
1*
1'
#140400
1%
#144000
0%
#147600
1%
#150000
0*
1(
#151200
0%
#154800
z#
bz 8
1%
#158400
0%
#160000
b0 -
0&
1*
0(
#162000
1%
#165600
0%
#169200
1%
#170000
b1 -
1&
0*
#172800
0%
#176400
1%
#180000
0%
b0 .
0)
b0 -
0&
#183600
1%
#187200
0%
#190000
b1 .
1)
b1 -
1&
1*
0'
1(
#190800
1%
#194400
0%
#198000
1%
#200000
b0 .
0)
b0 -
0&
0*
#201600
0%
#205200
1%
#208800
0%
#210000
b1 .
1)
b1 -
1&
1*
#212400
1%
#216000
0%
#219600
1%
#220000
b0 -
0&
0*
1'
#223200
0%
#226800
1%
#230000
b0 .
0)
#230400
0%
#234000
1%
#237600
0%
#240000
1*
0'
0(
#241200
1%
#244800
0%
#248400
1%
#250000
0*
1'
1(
#252000
0%
#255600
1%
#259200
0%
#260000
b1 .
1)
b1 -
1&
1*
0'
0(
#262800
1%
#266400
0%
#270000
1%
b0 -
0&
0*
1'
1(
#273600
0%
#277200
1%
#280800
0%
#284400
1%
#288000
0%
#290000
b0 .
0)
b1 -
1&
1*
0'
#291600
1%
#295200
0%
#298800
1%
#300000
b1 .
1)
b0 -
0&
1'
#302400
0%
#306000
b1 7
1%
#309600
0%
#310000
b0 .
0)
0*
0'
#313200
1%
#316800
0%
#320000
b1 .
1)
1'
#320400
1%
#324000
0%
#327600
1%
#330000
b0 .
0)
b1 -
1&
1*
#331200
0%
#334800
b0 7
1%
#338400
0%
#340000
b0 -
0&
#342000
1%
#345600
0%
#349200
1%
#350000
0*
0'
0(
#352800
0%
#356400
1%
#360000
0%
b1 .
1)
b1 -
1&
1*
1'
1(
#363600
b1 7
1%
#367200
0%
#370000
b0 .
0)
b0 -
0&
0(
#370800
1%
#374400
0%
#378000
1%
#380000
b1 .
1)
b1 -
1&
0*
1(
#381600
0%
#385200
1%
#388800
0%
#390000
b0 .
0)
b0 -
0&
#392400
1%
#396000
0%
#399600
1%
#400000
b1 .
1)
0'
#403200
0%
#406800
1%
#410000
b0 .
0)
b1 -
1&
#410400
0%
#414000
1%
#417600
0%
#420000
b0 -
0&
1*
0(
#421200
1%
#424800
0%
#428400
1%
#430000
b1 .
1)
b1 -
1&
1(
#432000
0%
#435600
1%
#439200
0%
#440000
b0 .
0)
b0 -
0&
0*
1'
#442800
1%
#446400
0%
#450000
1%
b1 .
1)
b1 -
1&
0'
#453600
0%
#457200
1%
#460000
0(
#460800
0%
#464400
1%
#468000
0%
#471600
1%
#475200
0%
#478800
1%
#480000
b0 .
0)
#482400
0%
#486000
1%
#489600
0%
#490000
b0 -
0&
1'
#493200
1%
#496800
0%
#500000
b1 -
1&
1*
0'
1(
#500400
1%
#504000
0%
#507600
1%
#510000
0*
0(
#511200
0%
#514800
1%
#518400
0%
#520000
b1 .
1)
#522000
1%
#525600
0%
#529200
1%
#530000
1*
1(
#532800
0%
#536400
1%
#540000
0%
0(
#543600
1%
#547200
0%
#550000
0*
1'
1(
#550800
1%
#554400
0%
#558000
1%
#560000
b0 -
0&
0'
0(
#561600
0%
#565200
1%
#568800
0%
#570000
b0 .
0)
b1 -
1&
1(
#572400
1%
#576000
0%
#579600
1%
#580000
b1 .
1)
b0 -
0&
1'
0(
#583200
0%
#586800
1%
#590000
b1 -
1&
1*
0'
#590400
0%
#594000
1%
#597600
0%
#600000
b0 .
0)
0*
#601200
1%
#604800
0%
#608400
1%
#610000
b0 -
0&
1'
#612000
0%
#615600
1%
#619200
0%
#622800
1%
#626400
0%
#630000
1%
b1 .
1)
b1 -
1&
1(
#633600
0%
#637200
1%
#640800
0%
#644400
1%
#648000
0%
#650000
b0 .
0)
0'
#651600
1%
#655200
0%
#658800
1%
#660000
b0 -
0&
1*
1'
0(
#662400
0%
#666000
1%
#669600
0%
#670000
b1 -
1&
0*
0'
1(
#673200
1%
#676800
0%
#680000
1'
#680400
1%
#684000
0%
#687600
1%
#690000
0'
#691200
0%
#694800
1%
#698400
0%
#700000
b1 .
1)
1*
0(
#702000
1%
#705600
0%
#709200
1%
#710000
0*
1'
1(
#712800
0%
#716400
1%
#720000
0%
b0 .
0)
b0 -
0&
0'
#723600
1%
#727200
0%
#730000
b1 .
1)
b1 -
1&
1*
0(
#730800
1%
#734400
0%
#738000
1%
#740000
b0 .
0)
1'
1(
#741600
0%
#745200
b0 7
1%
#748800
0%
#750000
b1 .
1)
#752400
b1 7
1%
#756000
0%
#759600
1%
#760000
b0 .
0)
b0 -
0&
#763200
0%
#766800
b0 7
1%
#770000
0*
#770400
0%
#774000
1%
#777600
0%
#780000
0(
#781200
1%
#784800
0%
#788400
1%
#790000
b1 -
1&
0'
#792000
0%
#795600
1%
#799200
0%
#800000
b0 -
0&
1'
#802800
1%
#806400
0%
#810000
1%
b1 .
1)
b1 -
1&
1*
#813600
0%
#817200
1%
#820000
0'
1(
#820800
0%
#824400
1%
#828000
0%
#830000
b0 -
0&
0*
1'
0(
#831600
1%
#835200
0%
#838800
1%
#840000
b0 .
0)
1*
0'
1(
#842400
0%
#846000
1%
#849600
0%
#850000
0*
#853200
1%
#856800
0%
#860000
b1 -
1&
1*
1'
#860400
1%
#864000
0%
#867600
1%
#870000
b1 .
1)
#871200
0%
#874800
b1 7
1%
#878400
0%
#880000
b0 .
0)
0*
#882000
1%
#885600
0%
#889200
1%
#890000
0'
#892800
0%
#896400
1%
#900000
0%
b1 .
1)
b0 -
0&
0(
#903600
1%
#907200
0%
#910000
b0 .
0)
#910800
1%
#914400
0%
#918000
1%
#920000
b1 -
1&
1'
#921600
0%
#925200
1%
#928800
0%
#930000
b1 .
1)
#932400
1%
#936000
0%
#939600
1%
#940000
b0 .
0)
#943200
0%
#946800
1%
#950000
0'
#950400
0%
#954000
1%
#957600
0%
#960000
1*
1(
#961200
1%
#964800
0%
#968400
1%
#970000
b1 .
1)
#972000
0%
#975600
1%
#979200
0%
#980000
b0 .
0)
b0 -
0&
1'
0(
#982800
1%
#986400
0%
#990000
1%
b1 .
1)
0*
1(
#993600
0%
#997200
1%
#1000000
b0 .
0)
b1 -
1&
0'
#1000800
0%
#1004400
1%
#1008000
0%
#1010000
b0 -
0&
1*
1'
0(
#1011600
1%
#1015200
0%
#1018800
1%
#1020000
b1 .
1)
b1 -
1&
0*
0'
1(
#1022400
0%
#1026000
1%
#1029600
0%
#1030000
1'
0(
#1033200
1%
#1036800
0%
#1040000
b0 .
0)
1*
#1040400
1%
#1044000
0%
#1047600
1%
#1050000
b0 -
0&
1(
#1051200
0%
#1054800
b0 7
1%
#1058400
0%
#1060000
b1 -
1&
0*
0'
#1062000
1%
#1065600
0%
#1069200
1%
#1070000
b1 .
1)
b0 -
0&
1*
1'
0(
#1072800
0%
#1076400
1%
#1080000
0%
b1 -
1&
#1083600
1%
#1087200
0%
#1090000
b0 -
0&
0'
#1090800
1%
#1094400
0%
#1098000
1%
#1100000
b0 .
0)
1'
#1101600
0%
#1105200
1%
#1108800
0%
#1110000
1(
#1112400
1%
#1116000
0%
#1119600
1%
#1120000
b1 .
1)
b1 -
1&
0*
0'
#1123200
0%
#1126800
1%
#1130000
b0 .
0)
1*
#1130400
0%
#1134000
1%
#1137600
0%
#1140000
b1 .
1)
0(
#1141200
1%
#1144800
0%
#1148400
1%
#1150000
0*
#1152000
0%
#1155600
1%
#1159200
0%
#1160000
1'
1(
#1162800
1%
#1166400
0%
#1170000
b1 7
1%
1*
#1173600
0%
#1177200
1%
#1180000
b0 .
0)
b0 -
0&
0*
0(
#1180800
0%
#1184400
1%
#1188000
0%
#1190000
b1 .
1)
b1 -
1&
1*
1(
#1191600
1%
#1195200
0%
#1198800
1%
#1200000
b0 .
0)
#1202400
0%
#1206000
b0 7
1%
#1209600
0%
#1210000
b0 -
0&
0'
0(
#1213200
1%
#1216800
0%
#1220000
1'
#1220400
1%
#1224000
0%
#1227600
1%
#1230000
b1 .
1)
#1231200
0%
#1234800
1%
#1238400
0%
#1240000
b0 .
0)
0*
#1242000
1%
#1245600
0%
#1249200
1%
#1250000
b1 .
1)
1*
1(
#1252800
0%
#1256400
b1 7
1%
#1260000
0%
b1 -
1&
0*
0(
#1263600
1%
#1267200
0%
#1270000
b0 -
0&
0'
#1270800
1%
#1274400
0%
#1278000
1%
#1280000
b0 .
0)
b1 -
1&
1(
#1281600
0%
#1285200
1%
#1288800
0%
#1290000
1*
#1292400
1%
#1296000
0%
#1299600
1%
#1300000
b0 -
0&
0*
1'
#1303200
0%
#1306800
1%
#1310000
b1 .
1)
b1 -
1&
1*
0(
#1310400
0%
#1314000
1%
#1317600
0%
#1320000
b0 .
0)
b0 -
0&
0*
0'
1(
#1321200
1%
#1324800
0%
#1328400
1%
#1330000
b1 .
1)
b1 -
1&
0(
#1332000
0%
#1335600
1%
#1339200
0%
#1340000
1*
1'
1(
#1342800
1%
#1346400
0%
#1350000
1%
b0 .
0)
b0 -
0&
0*
0'
0(
#1353600
0%
#1357200
1%
#1360000
b1 .
1)
1*
1'
#1360800
0%
#1364400
1%
#1368000
0%
#1370000
b0 .
0)
b1 -
1&
#1371600
1%
#1375200
0%
#1378800
1%
#1380000
0'
#1382400
0%
#1386000
1%
#1389600
0%
#1390000
b0 -
0&
0*
1(
#1393200
1%
#1396800
0%
#1400000
1*
0(
#1400400
1%
#1404000
0%
#1407600
1%
#1410000
b1 .
1)
b1 -
1&
0*
1(
#1411200
0%
#1414800
1%
#1418400
0%
#1422000
1%
#1425600
0%
#1429200
1%
#1430000
1'
#1432800
0%
#1436400
1%
#1440000
0%
b0 .
0)
#1443600
1%
#1447200
0%
#1450000
b1 .
1)
b0 -
0&
0(
#1450800
1%
#1454400
0%
#1458000
1%
#1460000
b0 .
0)
0'
#1461600
0%
#1465200
1%
#1468800
0%
#1470000
1*
1'
#1472400
1%
#1476000
0%
#1479600
1%
#1480000
b1 .
1)
b1 -
1&
1(
#1483200
0%
#1486800
1%
#1490000
b0 .
0)
0*
#1490400
0%
#1494000
1%
#1497600
0%
#1500000
1*
0'
0(
#1501200
1%
#1504800
0%
#1508400
1%
#1510000
b0 -
0&
1'
1(
#1512000
0%
#1515600
b0 7
1%
#1519200
0%
#1520000
b1 .
1)
b1 -
1&
0'
0(
#1522800
1%
#1526400
0%
#1530000
1%
b0 .
0)
b0 -
0&
0*
1'
#1533600
0%
#1537200
1%
#1540000
b1 .
1)
0'
#1540800
0%
#1544400
1%
#1548000
0%
#1550000
b1 -
1&
1*
#1551600
1%
#1555200
0%
#1558800
1%
#1560000
b0 .
0)
b0 -
0&
0*
1'
1(
#1562400
0%
#1566000
1%
#1569600
0%
#1570000
1*
0(
#1573200
1%
#1576800
0%
#1580000
b1 .
1)
b1 -
1&
1(
#1580400
b1 7
1%
#1584000
0%
#1587600
1%
#1590000
b0 .
0)
0*
0'
0(
#1591200
0%
#1594800
1%
#1598400
0%
#1600000
b0 -
0&
1(
#1602000
1%
#1605600
0%
#1609200
1%
#1610000
b1 .
1)
b1 -
1&
1'
0(
#1612800
0%
#1616400
1%
#1620000
0%
b0 -
0&
1*
#1623600
1%
#1627200
0%
#1630000
b0 .
0)
#1630800
1%
#1634400
0%
#1638000
1%
#1640000
0*
1(
#1641600
0%
#1645200
1%
#1648800
0%
#1650000
b1 -
1&
1*
0(
#1652400
1%
#1656000
0%
#1659600
1%
#1660000
b1 .
1)
#1663200
0%
#1666800
1%
#1670000
b0 .
0)
0'
#1670400
0%
#1674000
1%
#1677600
0%
#1680000
0*
1'
#1681200
1%
#1684800
0%
#1688400
1%
#1690000
b0 -
0&
1(
#1692000
0%
#1695600
1%
#1699200
0%
#1700000
b1 .
1)
1*
0'
0(
#1702800
1%
#1706400
0%
#1710000
1%
b0 .
0)
b1 -
1&
0*
#1713600
0%
#1717200
1%
#1720000
b1 .
1)
1'
#1720800
0%
#1724400
1%
#1728000
0%
#1730000
b0 -
0&
1*
1(
#1731600
1%
#1735200
0%
#1738800
1%
#1740000
b0 .
0)
b1 -
1&
0*
0'
#1742400
0%
#1746000
1%
#1749600
0%
#1750000
b1 .
1)
1*
1'
#1753200
1%
#1756800
0%
#1760000
b0 .
0)
0*
0(
#1760400
1%
#1764000
0%
#1767600
1%
#1770000
b0 -
0&
1(
#1771200
0%
#1774800
1%
#1778400
0%
#1780000
1*
0(
#1782000
1%
#1785600
0%
#1789200
1%
#1790000
b1 .
1)
b1 -
1&
1(
#1792800
0%
#1796400
1%
#1800000
0%
b0 -
0&
0*
0'
0(
#1803600
1%
#1807200
0%
#1810000
1*
#1810800
1%
#1814400
0%
#1818000
1%
#1820000
b0 .
0)
#1821600
0%
#1825200
1%
#1828800
0%
#1830000
b1 .
1)
#1832400
1%
#1836000
0%
#1839600
1%
#1840000
b0 .
0)
b1 -
1&
0*
1(
#1843200
0%
#1846800
1%
#1850000
1*
1'
#1850400
0%
#1854000
b0 7
1%
#1857600
0%
#1860000
b1 .
1)
0*
0'
#1861200
1%
#1864800
0%
#1868400
1%
#1870000
1*
#1872000
0%
#1875600
1%
#1879200
0%
#1880000
b0 -
0&
1'
#1882800
b1 7
1%
#1886400
0%
#1890000
1%
b0 .
0)
b1 -
1&
0*
0'
0(
#1893600
0%
#1897200
1%
#1900000
b0 -
0&
1*
1(
#1900800
0%
#1904400
1%
#1908000
0%
#1910000
0(
#1911600
1%
#1915200
0%
#1918800
1%
#1920000
1(
#1922400
0%
#1926000
1%
#1929600
0%
#1930000
b1 .
1)
0*
1'
#1933200
1%
#1936800
0%
#1940000
b1 -
1&
1*
0'
#1940400
1%
#1944000
0%
#1947600
1%
#1950000
b0 .
0)
b0 -
0&
#1951200
0%
#1954800
1%
#1958400
0%
#1960000
b1 .
1)
b1 -
1&
0*
1'
#1962000
1%
#1965600
0%
#1969200
1%
#1970000
b0 .
0)
1*
0(
#1972800
0%
#1976400
1%
#1980000
0%
b0 -
0&
0'
1(
#1983600
1%
#1987200
0%
#1990000
0*
0(
#1990800
1%
#1994400
0%
#1998000
1%
#2000000
b1 .
1)
b1 -
1&
1*
#2001600
0%
#2005200
1%
#2008800
0%
#2010000
0*
#2012400
1%
#2016000
0%
#2019600
1%
#2020000
b0 .
0)
1*
1'
#2023200
0%
#2026800
1%
#2030000
b0 -
0&
#2030400
0%
#2034000
1%
#2037600
0%
#2040000
b1 .
1)
0'
#2041200
1%
#2044800
0%
#2048400
1%
#2050000
1(
#2052000
0%
#2055600
1%
#2059200
0%
#2060000
b1 -
1&
#2062800
1%
#2066400
0%
#2070000
1%
b0 -
0&
#2073600
0%
#2077200
1%
#2080000
0*
0(
#2080800
0%
#2084400
1%
#2088000
0%
#2090000
1'
#2091600
1%
#2095200
0%
#2098800
1%
#2100000
1*
1(
#2102400
0%
#2106000
1%
#2109600
0%
#2110000
0*
#2113200
1%
#2116800
0%
#2120000
b1 -
1&
#2120400
1%
#2124000
0%
#2127600
1%
#2130000
b0 .
0)
b0 -
0&
1*
0'
0(
#2131200
0%
#2134800
1%
#2138400
0%
#2140000
b1 .
1)
0*
1'
1(
#2142000
1%
#2145600
0%
#2149200
1%
#2150000
b1 -
1&
0'
0(
#2152800
0%
#2156400
1%
#2160000
0%
b0 .
0)
1*
1'
1(
#2163600
b0 7
1%
#2167200
0%
#2170000
b1 .
1)
b0 -
0&
0'
#2170800
1%
#2174400
0%
#2178000
1%
#2180000
b0 .
0)
b1 -
1&
0*
1'
0(
#2181600
0%
#2185200
1%
#2188800
0%
#2190000
b0 -
0&
1*
0'
1(
#2192400
1%
#2196000
0%
#2199600
1%
#2200000
b1 .
1)
0*
1'
0(
#2203200
0%
#2206800
1%
#2210000
b0 .
0)
b1 -
1&
1*
1(
#2210400
0%
#2214000
1%
#2217600
0%
#2220000
0*
#2221200
1%
#2224800
0%
#2228400
1%
#2230000
b1 .
1)
1*
#2232000
0%
#2235600
b1 7
1%
#2239200
0%
#2240000
0*
0(
#2242800
1%
#2246400
0%
#2250000
1%
1(
#2253600
0%
#2257200
1%
#2260000
b0 .
0)
b0 -
0&
#2260800
0%
#2264400
1%
#2268000
0%
#2271600
1%
#2275200
0%
#2278800
1%
#2280000
1*
#2282400
0%
#2286000
b0 7
1%
#2289600
0%
#2290000
0*
0'
#2293200
1%
#2296800
0%
#2300000
b1 -
1&
1*
0(
#2300400
1%
#2304000
0%
#2307600
1%
#2310000
b1 .
1)
b0 -
0&
0*
#2311200
0%
#2314800
1%
#2318400
0%
#2320000
b0 .
0)
b1 -
1&
1*
1'
1(
#2322000
1%
#2325600
0%
#2329200
1%
#2330000
b1 .
1)
0*
0'
0(
#2332800
0%
#2336400
1%
#2340000
0%
b0 .
0)
b0 -
0&
1*
1'
1(
#2343600
1%
#2347200
0%
#2350000
0*
0(
#2350800
1%
#2354400
0%
#2358000
1%
#2360000
b1 .
1)
b1 -
1&
1*
0'
1(
#2361600
0%
#2365200
1%
#2368800
0%
#2370000
b0 -
0&
0*
#2372400
1%
#2376000
0%
#2379600
1%
#2380000
b0 .
0)
1'
#2383200
0%
#2386800
1%
#2390000
b1 .
1)
b1 -
1&
1*
0'
0(
#2390400
0%
#2394000
1%
#2397600
0%
#2400000
b0 .
0)
0*
#2401200
1%
#2404800
0%
#2408400
1%
#2410000
b1 .
1)
1*
1(
#2412000
0%
#2415600
1%
#2419200
0%
#2420000
b0 .
0)
#2422800
1%
#2426400
0%
#2430000
1%
b0 -
0&
0*
1'
0(
#2433600
0%
#2437200
1%
#2440000
b1 -
1&
0'
1(
#2440800
0%
#2444400
1%
#2448000
0%
#2450000
b1 .
1)
b0 -
0&
1*
1'
#2451600
b1 7
1%
#2455200
0%
#2458800
1%
#2460000
b0 .
0)
b1 -
1&
0(
#2462400
0%
#2466000
1%
#2469600
0%
#2470000
b0 -
0&
0*
0'
#2473200
1%
#2476800
0%
#2480000
b1 .
1)
b1 -
1&
1*
1'
#2480400
1%
#2484000
0%
#2487600
1%
#2490000
b0 .
0)
b0 -
0&
1(
#2491200
0%
#2494800
b0 7
1%
#2498400
0%
#2500000
b1 .
1)
#2502000
b1 7
1%
#2505600
0%
#2509200
1%
#2510000
0'
#2512800
0%
#2516400
1%
#2520000
0%
b0 .
0)
b1 -
1&
0*
1'
#2523600
1%
#2527200
0%
#2530000
b0 -
0&
#2530800
1%
#2534400
0%
#2538000
1%
#2540000
0'
#2541600
0%
#2545200
1%
#2548800
0%
#2550000
1'
0(
#2552400
1%
#2556000
0%
#2559600
1%
#2560000
b1 -
1&
1*
0'
1(
#2563200
0%
#2566800
1%
#2570000
b0 -
0&
0*
#2570400
0%
#2574000
1%
#2577600
0%
#2580000
b1 -
1&
1*
1'
#2581200
b0 7
1%
#2584800
0%
#2588400
1%
#2590000
b1 .
1)
0*
0(
#2592000
0%
#2595600
1%
#2599200
0%
#2600000
b0 .
0)
1*
0'
1(
#2602800
1%
#2606400
0%
#2610000
1%
1'
#2613600
0%
#2617200
1%
#2620000
b1 .
1)
0'
0(
#2620800
0%
#2624400
1%
#2628000
0%
#2630000
b0 -
0&
0*
1'
#2631600
1%
#2635200
0%
#2638800
1%
#2640000
b0 .
0)
b1 -
1&
0'
1(
#2642400
0%
#2646000
1%
#2649600
0%
#2650000
1*
#2653200
1%
#2656800
0%
#2660000
b0 -
0&
1'
#2660400
1%
#2664000
0%
#2667600
1%
#2670000
b1 .
1)
0*
0(
#2671200
0%
#2674800
1%
#2678400
0%
#2680000
b0 .
0)
1*
0'
#2682000
1%
#2685600
0%
#2689200
1%
#2690000
0*
1'
1(
#2692800
0%
#2696400
1%
#2700000
0%
b1 .
1)
b1 -
1&
#2703600
1%
#2707200
0%
#2710000
0(
#2710800
1%
#2714400
0%
#2718000
1%
#2720000
b0 .
0)
1*
0'
1(
#2721600
0%
#2725200
1%
#2728800
0%
#2730000
b0 -
0&
#2732400
1%
#2736000
0%
#2739600
1%
#2740000
b1 -
1&
1'
#2743200
0%
#2746800
1%
#2750000
0(
#2750400
0%
#2754000
1%
#2757600
0%
#2760000
b1 .
1)
b0 -
0&
#2761200
1%
#2764800
0%
#2768400
1%
#2770000
1(
#2772000
0%
#2775600
b1 7
1%
#2779200
0%
#2780000
b0 .
0)
b1 -
1&
0*
0'
0(
#2782800
1%
#2786400
0%
#2790000
1%
1'
#2793600
0%
#2797200
1%
#2800000
b0 -
0&
1*
0'
#2800800
0%
#2804400
1%
#2808000
0%
#2810000
b1 .
1)
1'
#2811600
1%
#2815200
0%
#2818800
1%
#2820000
0*
0'
1(
#2822400
0%
#2826000
1%
#2829600
0%
#2830000
1*
1'
0(
#2833200
1%
#2836800
0%
#2840000
b0 .
0)
b1 -
1&
0*
#2840400
1%
#2844000
0%
#2847600
1%
#2850000
b1 .
1)
1(
#2851200
0%
#2854800
1%
#2858400
0%
#2860000
b0 .
0)
0(
#2862000
1%
#2865600
0%
#2869200
1%
#2870000
b0 -
0&
#2872800
0%
#2876400
1%
#2880000
0%
0'
1(
#2883600
1%
#2887200
0%
#2890000
b1 .
1)
b1 -
1&
0(
#2890800
1%
#2894400
0%
#2898000
1%
#2900000
b0 .
0)
1(
#2901600
0%
#2905200
1%
#2908800
0%
#2910000
b1 .
1)
1*
1'
#2912400
1%
#2916000
0%
#2919600
1%
#2920000
b0 .
0)
b0 -
0&
0*
0'
0(
#2923200
0%
#2926800
1%
#2930000
b1 -
1&
1*
1'
1(
#2930400
0%
#2934000
b0 7
1%
#2937600
0%
#2940000
b1 .
1)
0'
0(
#2941200
1%
#2944800
0%
#2948400
1%
#2950000
b0 .
0)
0*
1'
#2952000
0%
#2955600
1%
#2959200
0%
#2960000
b0 -
0&
0'
#2962800
1%
#2966400
0%
#2970000
1%
b1 .
1)
#2973600
0%
#2977200
1%
#2980000
b0 .
0)
b1 -
1&
1*
1'
1(
#2980800
0%
#2984400
1%
#2988000
0%
#2990000
b1 .
1)
b0 -
0&
0(
#2991600
1%
#2995200
0%
#2998800
1%
#3000000
b0 .
0)
0*
#3002400
0%
#3006000
1%
#3009600
0%
#3010000
b1 -
1&
1*
#3013200
1%
#3016800
0%
#3020000
0*
1(
#3020400
1%
#3024000
0%
#3027600
1%
#3030000
1*
0'
0(
#3031200
0%
#3034800
1%
#3038400
0%
#3040000
b1 .
1)
1'
#3042000
1%
#3045600
0%
#3049200
1%
#3050000
b0 -
0&
0*
0'
1(
#3052800
0%
#3056400
1%
#3060000
0%
1*
#3063600
1%
#3067200
0%
#3070000
b0 .
0)
b1 -
1&
0*
1'
#3070800
1%
#3074400
0%
#3078000
1%
#3080000
0'
0(
#3081600
0%
#3085200
1%
#3088800
0%
#3090000
b0 -
0&
1'
1(
#3092400
1%
#3096000
0%
#3099600
1%
#3100000
b1 -
1&
#3103200
0%
#3106800
1%
#3110000
b1 .
1)
#3110400
0%
#3114000
1%
#3117600
0%
#3120000
1*
0'
#3121200
1%
#3124800
0%
#3128400
1%
#3132000
0%
#3135600
1%
#3139200
0%
#3140000
0*
1'
#3142800
1%
#3146400
0%
#3150000
1%
b0 -
0&
1*
0'
#3153600
0%
#3157200
1%
#3160000
b0 .
0)
#3160800
0%
#3164400
1%
#3168000
0%
#3170000
b1 .
1)
0(
#3171600
1%
#3175200
0%
#3178800
1%
#3180000
b0 .
0)
1'
#3182400
0%
#3186000
1%
#3189600
0%
#3190000
b1 .
1)
b1 -
1&
0'
1(
#3193200
1%
#3196800
0%
#3200000
b0 .
0)
#3200400
1%
#3204000
0%
#3207600
1%
#3211200
0%
#3214800
1%
#3218400
0%
#3220000
b1 .
1)
b0 -
0&
0*
1'
#3222000
1%
#3225600
0%
#3229200
1%
#3230000
0'
0(
#3232800
0%
#3236400
1%
#3240000
0%
1'
1(
#3243600
1%
#3247200
0%
#3250000
b0 .
0)
b1 -
1&
0'
0(
#3250800
1%
#3254400
0%
#3258000
1%
#3260000
b0 -
0&
1'
#3261600
0%
#3265200
1%
#3268800
0%
#3270000
b1 .
1)
b1 -
1&
1*
0'
1(
#3272400
1%
#3276000
0%
#3279600
1%
#3280000
0*
#3283200
0%
#3286800
1%
#3290000
b0 -
0&
1'
0(
#3290400
0%
#3294000
1%
#3297600
0%
#3300000
b1 -
1&
1*
#3301200
1%
#3304800
0%
#3308400
1%
#3310000
b0 .
0)
0*
1(
#3312000
0%
#3315600
1%
#3319200
0%
#3320000
b1 .
1)
b0 -
0&
1*
0'
#3322800
1%
#3326400
0%
#3330000
1%
b0 .
0)
b1 -
1&
0*
1'
#3333600
0%
#3337200
1%
#3340000
b1 .
1)
b0 -
0&
0'
#3340800
0%
#3344400
1%
